%!PS-Adobe-3.0 EPSF-3.0
%%Title: img/opratio.eps
%%Creator: matplotlib version 2.2.2, http://matplotlib.org/
%%CreationDate: Fri Sep 28 16:08:22 2018
%%Orientation: portrait
%%BoundingBox: -126 216 738 576
%%EndComments
%%BeginProlog
/mpldict 9 dict def
mpldict begin
/m { moveto } bind def
/l { lineto } bind def
/r { rlineto } bind def
/c { curveto } bind def
/cl { closepath } bind def
/box {
m
1 index 0 r
0 exch r
neg 0 r
cl
} bind def
/clipbox {
box
clip
newpath
} bind def
%!PS-Adobe-3.0 Resource-Font
%%Title: DejaVu Sans
%%Copyright: Copyright (c) 2003 by Bitstream, Inc. All Rights Reserved. Copyright (c) 2006 by Tavmjong Bah. All Rights Reserved. DejaVu changes are in public domain 
%%Creator: Converted from TrueType to type 3 by PPR
25 dict begin
/_d{bind def}bind def
/_m{moveto}_d
/_l{lineto}_d
/_cl{closepath eofill}_d
/_c{curveto}_d
/_sc{7 -1 roll{setcachedevice}{pop pop pop pop pop pop}ifelse}_d
/_e{exec}_d
/FontName /DejaVuSans def
/PaintType 0 def
/FontMatrix[.001 0 0 .001 0 0]def
/FontBBox[-1021 -463 1793 1232]def
/FontType 3 def
/Encoding [ /percent /zero /one /two /three /four /six /eight /A /B /C /D /E /F /G /I /L /M /N /O /P /Q /R /S /T /V /W /X /Y /a /b /e /g /h /k /l /m /o ] def
/FontInfo 10 dict dup begin
/FamilyName (DejaVu Sans) def
/FullName (DejaVu Sans) def
/Notice (Copyright (c) 2003 by Bitstream, Inc. All Rights Reserved. Copyright (c) 2006 by Tavmjong Bah. All Rights Reserved. DejaVu changes are in public domain ) def
/Weight (Book) def
/Version (Version 2.35) def
/ItalicAngle 0.0 def
/isFixedPitch false def
/UnderlinePosition -130 def
/UnderlineThickness 90 def
end readonly def
/CharStrings 39 dict dup begin
/.notdef 0 def
/percent{{950 0 55 -13 895 742 _sc
727 321 _m
699 321 676 309 660 285 _c
644 261 636 227 636 184 _c
636 142 644 108 660 84 _c
676 60 699 48 727 48 _c
755 48 777 60 793 84 _c
809 108 817 142 817 184 _c
817 226 809 260 793 284 _c
777 308 755 321 727 321 _c
727 383 _m
778 383 819 365 849 329 _c
879 293 895 244 895 184 _c
895 123 879 75 849 40 _c
819 4 778 -13 727 -13 _c
}_e{675 -13 633 4 603 40 _c
573 75 558 123 558 184 _c
558 245 573 293 603 329 _c
633 365 675 383 727 383 _c
223 680 _m
195 680 173 667 157 643 _c
141 619 133 586 133 544 _c
133 500 141 467 157 443 _c
173 419 195 407 223 407 _c
251 407 274 419 290 443 _c
306 467 314 500 314 544 _c
314 586 305 619 289 643 _c
273 667 251 680 223 680 _c
664 742 _m
742 742 _l
286 -13 _l
}_e{208 -13 _l
664 742 _l
223 742 _m
274 742 315 724 346 688 _c
376 652 392 604 392 544 _c
392 482 376 434 346 398 _c
316 362 275 345 223 345 _c
171 345 130 362 100 398 _c
70 434 55 482 55 544 _c
55 604 70 652 100 688 _c
130 724 171 742 223 742 _c
_cl}_e}_d
/zero{636 0 66 -13 570 742 _sc
318 664 _m
267 664 229 639 203 589 _c
177 539 165 464 165 364 _c
165 264 177 189 203 139 _c
229 89 267 64 318 64 _c
369 64 407 89 433 139 _c
458 189 471 264 471 364 _c
471 464 458 539 433 589 _c
407 639 369 664 318 664 _c
318 742 _m
399 742 461 709 505 645 _c
548 580 570 486 570 364 _c
570 241 548 147 505 83 _c
461 19 399 -13 318 -13 _c
236 -13 173 19 130 83 _c
87 147 66 241 66 364 _c
66 486 87 580 130 645 _c
173 709 236 742 318 742 _c
_cl}_d
/one{636 0 110 0 544 729 _sc
124 83 _m
285 83 _l
285 639 _l
110 604 _l
110 694 _l
284 729 _l
383 729 _l
383 83 _l
544 83 _l
544 0 _l
124 0 _l
124 83 _l
_cl}_d
/two{{636 0 73 0 536 742 _sc
192 83 _m
536 83 _l
536 0 _l
73 0 _l
73 83 _l
110 121 161 173 226 239 _c
290 304 331 346 348 365 _c
380 400 402 430 414 455 _c
426 479 433 504 433 528 _c
433 566 419 598 392 622 _c
365 646 330 659 286 659 _c
255 659 222 653 188 643 _c
154 632 117 616 78 594 _c
78 694 _l
118 710 155 722 189 730 _c
223 738 255 742 284 742 _c
}_e{359 742 419 723 464 685 _c
509 647 532 597 532 534 _c
532 504 526 475 515 449 _c
504 422 484 390 454 354 _c
446 344 420 317 376 272 _c
332 227 271 164 192 83 _c
_cl}_e}_d
/three{{636 0 76 -13 556 742 _sc
406 393 _m
453 383 490 362 516 330 _c
542 298 556 258 556 212 _c
556 140 531 84 482 45 _c
432 6 362 -13 271 -13 _c
240 -13 208 -10 176 -4 _c
144 1 110 10 76 22 _c
76 117 _l
103 101 133 89 166 81 _c
198 73 232 69 268 69 _c
330 69 377 81 409 105 _c
441 129 458 165 458 212 _c
458 254 443 288 413 312 _c
383 336 341 349 287 349 _c
}_e{202 349 _l
202 430 _l
291 430 _l
339 430 376 439 402 459 _c
428 478 441 506 441 543 _c
441 580 427 609 401 629 _c
374 649 336 659 287 659 _c
260 659 231 656 200 650 _c
169 644 135 635 98 623 _c
98 711 _l
135 721 170 729 203 734 _c
235 739 266 742 296 742 _c
370 742 429 725 473 691 _c
517 657 539 611 539 553 _c
539 513 527 479 504 451 _c
481 423 448 403 406 393 _c
_cl}_e}_d
/four{636 0 49 0 580 729 _sc
378 643 _m
129 254 _l
378 254 _l
378 643 _l
352 729 _m
476 729 _l
476 254 _l
580 254 _l
580 172 _l
476 172 _l
476 0 _l
378 0 _l
378 172 _l
49 172 _l
49 267 _l
352 729 _l
_cl}_d
/six{{636 0 70 -13 573 742 _sc
330 404 _m
286 404 251 388 225 358 _c
199 328 186 286 186 234 _c
186 181 199 139 225 109 _c
251 79 286 64 330 64 _c
374 64 409 79 435 109 _c
461 139 474 181 474 234 _c
474 286 461 328 435 358 _c
409 388 374 404 330 404 _c
526 713 _m
526 623 _l
501 635 476 644 451 650 _c
425 656 400 659 376 659 _c
310 659 260 637 226 593 _c
}_e{192 549 172 482 168 394 _c
187 422 211 444 240 459 _c
269 474 301 482 336 482 _c
409 482 467 459 509 415 _c
551 371 573 310 573 234 _c
573 159 550 99 506 54 _c
462 9 403 -13 330 -13 _c
246 -13 181 19 137 83 _c
92 147 70 241 70 364 _c
70 479 97 571 152 639 _c
206 707 280 742 372 742 _c
396 742 421 739 447 735 _c
472 730 498 723 526 713 _c
_cl}_e}_d
/eight{{636 0 68 -13 568 742 _sc
318 346 _m
271 346 234 333 207 308 _c
180 283 167 249 167 205 _c
167 161 180 126 207 101 _c
234 76 271 64 318 64 _c
364 64 401 76 428 102 _c
455 127 469 161 469 205 _c
469 249 455 283 429 308 _c
402 333 365 346 318 346 _c
219 388 _m
177 398 144 418 120 447 _c
96 476 85 511 85 553 _c
85 611 105 657 147 691 _c
188 725 245 742 318 742 _c
}_e{390 742 447 725 489 691 _c
530 657 551 611 551 553 _c
551 511 539 476 515 447 _c
491 418 459 398 417 388 _c
464 377 501 355 528 323 _c
554 291 568 251 568 205 _c
568 134 546 80 503 43 _c
459 5 398 -13 318 -13 _c
237 -13 175 5 132 43 _c
89 80 68 134 68 205 _c
68 251 81 291 108 323 _c
134 355 171 377 219 388 _c
183 544 _m
183 506 194 476 218 455 _c
}_e{242 434 275 424 318 424 _c
360 424 393 434 417 455 _c
441 476 453 506 453 544 _c
453 582 441 611 417 632 _c
393 653 360 664 318 664 _c
275 664 242 653 218 632 _c
194 611 183 582 183 544 _c
_cl}_e}_d
/A{684 0 8 0 676 729 _sc
342 632 _m
208 269 _l
476 269 _l
342 632 _l
286 729 _m
398 729 _l
676 0 _l
573 0 _l
507 187 _l
178 187 _l
112 0 _l
8 0 _l
286 729 _l
_cl}_d
/B{{686 0 98 0 615 729 _sc
197 348 _m
197 81 _l
355 81 _l
408 81 447 92 473 114 _c
498 136 511 169 511 215 _c
511 260 498 293 473 315 _c
447 337 408 348 355 348 _c
197 348 _l
197 648 _m
197 428 _l
343 428 _l
391 428 426 437 450 455 _c
474 473 486 500 486 538 _c
486 574 474 602 450 620 _c
426 638 391 648 343 648 _c
197 648 _l
98 729 _m
350 729 _l
}_e{425 729 483 713 524 682 _c
564 650 585 606 585 549 _c
585 504 574 468 553 442 _c
532 416 502 399 462 393 _c
510 382 548 360 575 327 _c
601 294 615 253 615 204 _c
615 138 592 88 548 53 _c
504 17 441 0 360 0 _c
98 0 _l
98 729 _l
_cl}_e}_d
/C{{698 0 56 -13 644 742 _sc
644 673 _m
644 569 _l
610 599 575 622 537 638 _c
499 653 460 661 418 661 _c
334 661 270 635 226 584 _c
182 533 160 460 160 364 _c
160 268 182 194 226 143 _c
270 92 334 67 418 67 _c
460 67 499 74 537 90 _c
575 105 610 128 644 159 _c
644 56 _l
609 32 572 15 534 4 _c
496 -7 455 -13 412 -13 _c
302 -13 215 20 151 87 _c
}_e{87 154 56 246 56 364 _c
56 481 87 573 151 641 _c
215 708 302 742 412 742 _c
456 742 497 736 535 725 _c
573 713 610 696 644 673 _c
_cl}_e}_d
/D{770 0 98 0 711 729 _sc
197 648 _m
197 81 _l
316 81 _l
416 81 490 103 537 149 _c
583 195 607 267 607 365 _c
607 463 583 534 537 580 _c
490 625 416 648 316 648 _c
197 648 _l
98 729 _m
301 729 _l
442 729 546 699 612 641 _c
678 582 711 490 711 365 _c
711 239 677 147 611 88 _c
545 29 441 0 301 0 _c
98 0 _l
98 729 _l
_cl}_d
/E{632 0 98 0 568 729 _sc
98 729 _m
559 729 _l
559 646 _l
197 646 _l
197 430 _l
544 430 _l
544 347 _l
197 347 _l
197 83 _l
568 83 _l
568 0 _l
98 0 _l
98 729 _l
_cl}_d
/F{575 0 98 0 517 729 _sc
98 729 _m
517 729 _l
517 646 _l
197 646 _l
197 431 _l
486 431 _l
486 348 _l
197 348 _l
197 0 _l
98 0 _l
98 729 _l
_cl}_d
/G{{775 0 56 -13 693 742 _sc
595 104 _m
595 300 _l
434 300 _l
434 381 _l
693 381 _l
693 68 _l
655 40 613 20 567 7 _c
521 -6 472 -13 420 -13 _c
306 -13 216 20 152 86 _c
88 152 56 245 56 364 _c
56 482 88 575 152 642 _c
216 708 306 742 420 742 _c
467 742 512 736 555 724 _c
598 712 638 695 674 673 _c
674 568 _l
637 598 598 621 557 637 _c
516 653 473 661 428 661 _c
}_e{338 661 271 636 227 586 _c
182 536 160 462 160 364 _c
160 265 182 191 227 141 _c
271 91 338 67 428 67 _c
462 67 493 70 521 76 _c
549 82 573 91 595 104 _c
_cl}_e}_d
/I{295 0 98 0 197 729 _sc
98 729 _m
197 729 _l
197 0 _l
98 0 _l
98 729 _l
_cl}_d
/L{557 0 98 0 552 729 _sc
98 729 _m
197 729 _l
197 83 _l
552 83 _l
552 0 _l
98 0 _l
98 729 _l
_cl}_d
/M{863 0 98 0 765 729 _sc
98 729 _m
245 729 _l
431 233 _l
618 729 _l
765 729 _l
765 0 _l
669 0 _l
669 640 _l
481 140 _l
382 140 _l
194 640 _l
194 0 _l
98 0 _l
98 729 _l
_cl}_d
/N{748 0 98 0 650 729 _sc
98 729 _m
231 729 _l
554 119 _l
554 729 _l
650 729 _l
650 0 _l
517 0 _l
194 610 _l
194 0 _l
98 0 _l
98 729 _l
_cl}_d
/O{787 0 56 -13 731 742 _sc
394 662 _m
322 662 265 635 223 582 _c
181 528 160 456 160 364 _c
160 272 181 199 223 146 _c
265 92 322 66 394 66 _c
465 66 522 92 564 146 _c
606 199 627 272 627 364 _c
627 456 606 528 564 582 _c
522 635 465 662 394 662 _c
394 742 _m
496 742 577 707 639 639 _c
700 571 731 479 731 364 _c
731 248 700 157 639 89 _c
577 21 496 -13 394 -13 _c
291 -13 209 21 148 89 _c
86 157 56 248 56 364 _c
56 479 86 571 148 639 _c
209 707 291 742 394 742 _c
_cl}_d
/P{603 0 98 0 569 729 _sc
197 648 _m
197 374 _l
321 374 _l
367 374 402 385 427 409 _c
452 433 465 467 465 511 _c
465 555 452 588 427 612 _c
402 636 367 648 321 648 _c
197 648 _l
98 729 _m
321 729 _l
402 729 464 710 506 673 _c
548 636 569 582 569 511 _c
569 439 548 384 506 348 _c
464 311 402 293 321 293 _c
197 293 _l
197 0 _l
98 0 _l
98 729 _l
_cl}_d
/Q{{787 0 56 -128 731 742 _sc
394 662 _m
322 662 265 635 223 582 _c
181 528 160 456 160 364 _c
160 272 181 199 223 146 _c
265 92 322 66 394 66 _c
465 66 522 92 564 146 _c
606 199 627 272 627 364 _c
627 456 606 528 564 582 _c
522 635 465 662 394 662 _c
532 13 _m
662 -128 _l
543 -128 _l
435 -11 _l
424 -11 416 -12 410 -12 _c
404 -12 399 -13 394 -13 _c
291 -13 209 21 148 89 _c
}_e{86 157 56 248 56 364 _c
56 479 86 571 148 639 _c
209 707 291 742 394 742 _c
496 742 577 707 639 639 _c
700 571 731 479 731 364 _c
731 279 714 206 680 146 _c
646 86 596 41 532 13 _c
_cl}_e}_d
/R{{695 0 98 0 666 729 _sc
444 342 _m
465 334 486 319 506 296 _c
526 272 546 240 566 199 _c
666 0 _l
560 0 _l
467 187 _l
443 235 419 268 397 284 _c
374 300 343 308 304 308 _c
197 308 _l
197 0 _l
98 0 _l
98 729 _l
321 729 _l
404 729 466 711 507 677 _c
548 642 569 589 569 519 _c
569 473 558 434 537 404 _c
515 374 484 353 444 342 _c
197 648 _m
197 389 _l
321 389 _l
}_e{368 389 404 400 428 422 _c
452 444 465 476 465 519 _c
465 561 452 593 428 615 _c
404 637 368 648 321 648 _c
197 648 _l
_cl}_e}_d
/S{{635 0 66 -13 579 742 _sc
535 705 _m
535 609 _l
497 627 462 640 429 649 _c
395 657 363 662 333 662 _c
279 662 237 651 208 631 _c
179 610 165 580 165 542 _c
165 510 174 485 194 469 _c
213 452 250 439 304 429 _c
364 417 _l
437 403 491 378 526 343 _c
561 307 579 260 579 201 _c
579 130 555 77 508 41 _c
460 5 391 -13 300 -13 _c
265 -13 228 -9 189 -2 _c
}_e{150 5 110 16 69 32 _c
69 134 _l
109 111 148 94 186 83 _c
224 71 262 66 300 66 _c
356 66 399 77 430 99 _c
460 121 476 152 476 194 _c
476 230 465 258 443 278 _c
421 298 385 313 335 323 _c
275 335 _l
201 349 148 372 115 404 _c
82 435 66 478 66 534 _c
66 598 88 649 134 686 _c
179 723 242 742 322 742 _c
356 742 390 739 426 733 _c
461 727 497 717 535 705 _c
}_e{_cl}_e}_d
/T{611 0 -2 0 614 729 _sc
-2 729 _m
614 729 _l
614 646 _l
355 646 _l
355 0 _l
256 0 _l
256 646 _l
-2 646 _l
-2 729 _l
_cl}_d
/V{684 0 8 0 676 729 _sc
286 0 _m
8 729 _l
111 729 _l
342 115 _l
573 729 _l
676 729 _l
398 0 _l
286 0 _l
_cl}_d
/W{989 0 33 0 956 729 _sc
33 729 _m
133 729 _l
286 113 _l
439 729 _l
550 729 _l
703 113 _l
856 729 _l
956 729 _l
773 0 _l
649 0 _l
495 633 _l
340 0 _l
216 0 _l
33 729 _l
_cl}_d
/X{685 0 30 0 654 729 _sc
63 729 _m
169 729 _l
350 458 _l
532 729 _l
638 729 _l
404 379 _l
654 0 _l
548 0 _l
343 310 _l
136 0 _l
30 0 _l
290 389 _l
63 729 _l
_cl}_d
/Y{611 0 -1 0 613 729 _sc
-1 729 _m
104 729 _l
306 429 _l
507 729 _l
613 729 _l
355 347 _l
355 0 _l
256 0 _l
256 347 _l
-1 729 _l
_cl}_d
/a{{613 0 60 -13 522 560 _sc
343 275 _m
270 275 220 266 192 250 _c
164 233 150 205 150 165 _c
150 133 160 107 181 89 _c
202 70 231 61 267 61 _c
317 61 357 78 387 114 _c
417 149 432 196 432 255 _c
432 275 _l
343 275 _l
522 312 _m
522 0 _l
432 0 _l
432 83 _l
411 49 385 25 355 10 _c
325 -5 287 -13 243 -13 _c
187 -13 142 2 109 33 _c
76 64 60 106 60 159 _c
}_e{60 220 80 266 122 298 _c
163 329 224 345 306 345 _c
432 345 _l
432 354 _l
432 395 418 427 391 450 _c
364 472 326 484 277 484 _c
245 484 215 480 185 472 _c
155 464 127 453 100 439 _c
100 522 _l
132 534 164 544 195 550 _c
226 556 256 560 286 560 _c
365 560 424 539 463 498 _c
502 457 522 395 522 312 _c
_cl}_e}_d
/b{{635 0 91 -13 580 760 _sc
487 273 _m
487 339 473 390 446 428 _c
418 466 381 485 334 485 _c
286 485 249 466 222 428 _c
194 390 181 339 181 273 _c
181 207 194 155 222 117 _c
249 79 286 61 334 61 _c
381 61 418 79 446 117 _c
473 155 487 207 487 273 _c
181 464 _m
199 496 223 520 252 536 _c
281 552 316 560 356 560 _c
422 560 476 533 518 481 _c
559 428 580 359 580 273 _c
}_e{580 187 559 117 518 65 _c
476 13 422 -13 356 -13 _c
316 -13 281 -5 252 10 _c
223 25 199 49 181 82 _c
181 0 _l
91 0 _l
91 760 _l
181 760 _l
181 464 _l
_cl}_e}_d
/e{{615 0 55 -13 562 560 _sc
562 296 _m
562 252 _l
149 252 _l
153 190 171 142 205 110 _c
238 78 284 62 344 62 _c
378 62 412 66 444 74 _c
476 82 509 95 541 113 _c
541 28 _l
509 14 476 3 442 -3 _c
408 -9 373 -13 339 -13 _c
251 -13 182 12 131 62 _c
80 112 55 181 55 268 _c
55 357 79 428 127 481 _c
175 533 241 560 323 560 _c
397 560 455 536 498 489 _c
}_e{540 441 562 377 562 296 _c
472 322 _m
471 371 457 410 431 440 _c
404 469 368 484 324 484 _c
274 484 234 469 204 441 _c
174 413 156 373 152 322 _c
472 322 _l
_cl}_e}_d
/g{{635 0 55 -207 544 560 _sc
454 280 _m
454 344 440 395 414 431 _c
387 467 349 485 301 485 _c
253 485 215 467 188 431 _c
161 395 148 344 148 280 _c
148 215 161 165 188 129 _c
215 93 253 75 301 75 _c
349 75 387 93 414 129 _c
440 165 454 215 454 280 _c
544 68 _m
544 -24 523 -93 482 -139 _c
440 -184 377 -207 292 -207 _c
260 -207 231 -204 203 -200 _c
175 -195 147 -188 121 -178 _c
}_e{121 -91 _l
147 -105 173 -115 199 -122 _c
225 -129 251 -133 278 -133 _c
336 -133 380 -117 410 -87 _c
439 -56 454 -10 454 52 _c
454 96 _l
435 64 411 40 382 24 _c
353 8 319 0 279 0 _c
211 0 157 25 116 76 _c
75 127 55 195 55 280 _c
55 364 75 432 116 483 _c
157 534 211 560 279 560 _c
319 560 353 552 382 536 _c
411 520 435 496 454 464 _c
454 547 _l
544 547 _l
}_e{544 68 _l
_cl}_e}_d
/h{634 0 91 0 549 760 _sc
549 330 _m
549 0 _l
459 0 _l
459 327 _l
459 379 448 417 428 443 _c
408 469 378 482 338 482 _c
289 482 251 466 223 435 _c
195 404 181 362 181 309 _c
181 0 _l
91 0 _l
91 760 _l
181 760 _l
181 462 _l
202 494 227 519 257 535 _c
286 551 320 560 358 560 _c
420 560 468 540 500 501 _c
532 462 549 405 549 330 _c
_cl}_d
/k{579 0 91 0 576 760 _sc
91 760 _m
181 760 _l
181 311 _l
449 547 _l
564 547 _l
274 291 _l
576 0 _l
459 0 _l
181 267 _l
181 0 _l
91 0 _l
91 760 _l
_cl}_d
/l{278 0 94 0 184 760 _sc
94 760 _m
184 760 _l
184 0 _l
94 0 _l
94 760 _l
_cl}_d
/m{{974 0 91 0 889 560 _sc
520 442 _m
542 482 569 511 600 531 _c
631 550 668 560 711 560 _c
767 560 811 540 842 500 _c
873 460 889 403 889 330 _c
889 0 _l
799 0 _l
799 327 _l
799 379 789 418 771 444 _c
752 469 724 482 686 482 _c
639 482 602 466 575 435 _c
548 404 535 362 535 309 _c
535 0 _l
445 0 _l
445 327 _l
445 379 435 418 417 444 _c
398 469 369 482 331 482 _c
}_e{285 482 248 466 221 435 _c
194 404 181 362 181 309 _c
181 0 _l
91 0 _l
91 547 _l
181 547 _l
181 462 _l
201 495 226 520 255 536 _c
283 552 317 560 357 560 _c
397 560 430 550 458 530 _c
486 510 506 480 520 442 _c
_cl}_e}_d
/o{612 0 55 -13 557 560 _sc
306 484 _m
258 484 220 465 192 427 _c
164 389 150 338 150 273 _c
150 207 163 156 191 118 _c
219 80 257 62 306 62 _c
354 62 392 80 420 118 _c
448 156 462 207 462 273 _c
462 337 448 389 420 427 _c
392 465 354 484 306 484 _c
306 560 _m
384 560 445 534 490 484 _c
534 433 557 363 557 273 _c
557 183 534 113 490 63 _c
445 12 384 -13 306 -13 _c
227 -13 165 12 121 63 _c
77 113 55 183 55 273 _c
55 363 77 433 121 484 _c
165 534 227 560 306 560 _c
_cl}_d
end readonly def

/BuildGlyph
 {exch begin
 CharStrings exch
 2 copy known not{pop /.notdef}if
 true 3 1 roll get exec
 end}_d

/BuildChar {
 1 index /Encoding get exch get
 1 index /BuildGlyph get exec
}_d

FontName currentdict end definefont pop
%!PS-Adobe-3.0 Resource-Font
%%Title: DejaVu Sans Bold
%%Copyright: Copyright (c) 2003 by Bitstream, Inc. All Rights Reserved. Copyright (c) 2006 by Tavmjong Bah. All Rights Reserved. DejaVu changes are in public domain 
%%Creator: Converted from TrueType to type 3 by PPR
25 dict begin
/_d{bind def}bind def
/_m{moveto}_d
/_l{lineto}_d
/_cl{closepath eofill}_d
/_c{curveto}_d
/_sc{7 -1 roll{setcachedevice}{pop pop pop pop pop pop}ifelse}_d
/_e{exec}_d
/FontName /DejaVuSans-Bold def
/PaintType 0 def
/FontMatrix[.001 0 0 .001 0 0]def
/FontBBox[-1069 -415 1975 1174]def
/FontType 3 def
/Encoding [ /R /a /i /o /t ] def
/FontInfo 10 dict dup begin
/FamilyName (DejaVu Sans) def
/FullName (DejaVu Sans Bold) def
/Notice (Copyright (c) 2003 by Bitstream, Inc. All Rights Reserved. Copyright (c) 2006 by Tavmjong Bah. All Rights Reserved. DejaVu changes are in public domain ) def
/Weight (Bold) def
/Version (Version 2.35) def
/ItalicAngle 0.0 def
/isFixedPitch false def
/UnderlinePosition -130 def
/UnderlineThickness 90 def
end readonly def
/CharStrings 6 dict dup begin
/.notdef 0 def
/R{{770 0 92 0 750 729 _sc
359 406 _m
398 406 426 413 443 428 _c
460 442 469 466 469 500 _c
469 533 460 557 443 571 _c
426 585 398 593 359 593 _c
280 593 _l
280 406 _l
359 406 _l
280 276 _m
280 0 _l
92 0 _l
92 729 _l
379 729 _l
475 729 545 712 590 680 _c
634 648 657 597 657 528 _c
657 480 645 440 622 409 _c
598 378 563 355 517 341 _c
543 335 566 321 586 301 _c
}_e{606 280 627 249 648 207 _c
750 0 _l
550 0 _l
461 181 _l
443 217 424 242 406 256 _c
388 269 363 276 333 276 _c
280 276 _l
_cl}_e}_d
/a{{675 0 43 -13 596 560 _sc
329 246 _m
292 246 264 239 246 227 _c
228 215 219 197 219 173 _c
219 151 226 133 241 121 _c
256 108 277 102 303 102 _c
336 102 364 113 386 137 _c
408 161 420 190 420 226 _c
420 246 _l
329 246 _l
596 312 _m
596 0 _l
420 0 _l
420 81 _l
396 47 370 23 341 9 _c
311 -5 276 -13 234 -13 _c
177 -13 131 3 96 36 _c
60 68 43 111 43 164 _c
}_e{43 228 65 275 109 305 _c
153 335 222 350 317 350 _c
420 350 _l
420 364 _l
420 391 409 411 387 424 _c
365 437 331 444 285 444 _c
247 444 212 440 180 432 _c
148 424 118 413 91 399 _c
91 532 _l
128 541 165 548 203 553 _c
241 557 279 560 317 560 _c
415 560 486 540 530 501 _c
574 462 596 399 596 312 _c
_cl}_e}_d
/i{343 0 84 0 259 760 _sc
84 547 _m
259 547 _l
259 0 _l
84 0 _l
84 547 _l
84 760 _m
259 760 _l
259 617 _l
84 617 _l
84 760 _l
_cl}_d
/o{687 0 43 -13 644 560 _sc
344 435 _m
305 435 275 421 255 393 _c
235 365 225 325 225 273 _c
225 220 235 180 255 152 _c
275 124 305 111 344 111 _c
382 111 411 124 431 152 _c
451 180 462 220 462 273 _c
462 325 451 365 431 393 _c
411 421 382 435 344 435 _c
344 560 _m
438 560 511 534 564 484 _c
617 433 644 363 644 273 _c
644 183 617 112 564 62 _c
511 12 438 -13 344 -13 _c
250 -13 176 12 123 62 _c
69 112 43 183 43 273 _c
43 363 69 433 123 484 _c
176 534 250 560 344 560 _c
_cl}_d
/t{478 0 13 0 455 702 _sc
275 702 _m
275 547 _l
455 547 _l
455 422 _l
275 422 _l
275 190 _l
275 164 280 147 290 138 _c
300 129 320 125 350 125 _c
440 125 _l
440 0 _l
290 0 _l
221 0 172 14 143 43 _c
114 71 100 120 100 190 _c
100 422 _l
13 422 _l
13 547 _l
100 547 _l
100 702 _l
275 702 _l
_cl}_d
end readonly def

/BuildGlyph
 {exch begin
 CharStrings exch
 2 copy known not{pop /.notdef}if
 true 3 1 roll get exec
 end}_d

/BuildChar {
 1 index /Encoding get exch get
 1 index /BuildGlyph get exec
}_d

FontName currentdict end definefont pop
end
%%EndProlog
mpldict begin
-126 216 translate
864 360 0 0 clipbox
gsave
0 0 m
864 0 l
864 360 l
0 360 l
cl
1.000 setgray
fill
grestore
gsave
60.882 61.866113 m
769.818 61.866113 l
769.818 322.608 l
60.882 322.608 l
cl
1.000 setgray
fill
grestore
0.800 setlinewidth
1 setlinejoin
0 setlinecap
[2.96 1.28] 0 setdash
0.800 setgray
gsave
708.9 260.7 60.88 61.87 clipbox
95.689479 61.866113 m
95.689479 322.608 l
stroke
grestore
gsave
708.9 260.7 60.88 61.87 clipbox
102.147267 61.866113 m
102.147267 322.608 l
stroke
grestore
gsave
708.9 260.7 60.88 61.87 clipbox
108.605056 61.866113 m
108.605056 322.608 l
stroke
grestore
0.150 setgray
/DejaVuSans findfont
12.000 scalefont
setfont
gsave
100.728090 53.145179 translate
290.000000 rotate
0.000000 0.000000 m /A glyphshow
8.208984 0.000000 m /M glyphshow
18.562500 0.000000 m /G glyphshow
grestore
0.800 setgray
gsave
708.9 260.7 60.88 61.87 clipbox
115.062844 61.866113 m
115.062844 322.608 l
stroke
grestore
gsave
708.9 260.7 60.88 61.87 clipbox
121.520632 61.866113 m
121.520632 322.608 l
stroke
grestore
gsave
708.9 260.7 60.88 61.87 clipbox
127.97842 61.866113 m
127.97842 322.608 l
stroke
grestore
gsave
708.9 260.7 60.88 61.87 clipbox
134.436209 61.866113 m
134.436209 322.608 l
stroke
grestore
gsave
708.9 260.7 60.88 61.87 clipbox
140.893997 61.866113 m
140.893997 322.608 l
stroke
grestore
0.150 setgray
gsave
131.830649 53.145179 translate
290.000000 rotate
0.000000 0.000000 m /C glyphshow
8.378906 0.000000 m /A glyphshow
16.587891 0.000000 m /N glyphshow
25.564453 0.000000 m /D glyphshow
grestore
0.800 setgray
gsave
708.9 260.7 60.88 61.87 clipbox
147.351785 61.866113 m
147.351785 322.608 l
stroke
grestore
gsave
708.9 260.7 60.88 61.87 clipbox
153.809574 61.866113 m
153.809574 322.608 l
stroke
grestore
gsave
708.9 260.7 60.88 61.87 clipbox
160.267362 61.866113 m
160.267362 322.608 l
stroke
grestore
gsave
708.9 260.7 60.88 61.87 clipbox
166.72515 61.866113 m
166.72515 322.608 l
stroke
grestore
gsave
708.9 260.7 60.88 61.87 clipbox
173.182939 61.866113 m
173.182939 322.608 l
stroke
grestore
0.150 setgray
gsave
164.031414 53.145179 translate
290.000000 rotate
0.000000 0.000000 m /C glyphshow
8.378906 0.000000 m /o glyphshow
15.720703 0.000000 m /M glyphshow
26.074219 0.000000 m /D glyphshow
grestore
0.800 setgray
gsave
708.9 260.7 60.88 61.87 clipbox
179.640727 61.866113 m
179.640727 322.608 l
stroke
grestore
gsave
708.9 260.7 60.88 61.87 clipbox
186.098515 61.866113 m
186.098515 322.608 l
stroke
grestore
gsave
708.9 260.7 60.88 61.87 clipbox
192.556304 61.866113 m
192.556304 322.608 l
stroke
grestore
gsave
708.9 260.7 60.88 61.87 clipbox
199.014092 61.866113 m
199.014092 322.608 l
stroke
grestore
gsave
708.9 260.7 60.88 61.87 clipbox
205.47188 61.866113 m
205.47188 322.608 l
stroke
grestore
0.150 setgray
gsave
197.351760 53.145179 translate
290.000000 rotate
0.000000 0.000000 m /L glyphshow
6.685547 0.000000 m /a glyphshow
14.039062 0.000000 m /g glyphshow
21.656250 0.000000 m /h glyphshow
grestore
0.800 setgray
gsave
708.9 260.7 60.88 61.87 clipbox
211.929668 61.866113 m
211.929668 322.608 l
stroke
grestore
gsave
708.9 260.7 60.88 61.87 clipbox
218.387457 61.866113 m
218.387457 322.608 l
stroke
grestore
gsave
708.9 260.7 60.88 61.87 clipbox
224.845245 61.866113 m
224.845245 322.608 l
stroke
grestore
gsave
708.9 260.7 60.88 61.87 clipbox
231.303033 61.866113 m
231.303033 322.608 l
stroke
grestore
gsave
708.9 260.7 60.88 61.87 clipbox
237.760822 61.866113 m
237.760822 322.608 l
stroke
grestore
0.150 setgray
gsave
228.737554 53.145179 translate
290.000000 rotate
0.000000 0.000000 m /M glyphshow
10.353516 0.000000 m /A glyphshow
18.562500 0.000000 m /C glyphshow
26.941406 0.000000 m /S glyphshow
grestore
0.800 setgray
gsave
708.9 260.7 60.88 61.87 clipbox
244.21861 61.866113 m
244.21861 322.608 l
stroke
grestore
gsave
708.9 260.7 60.88 61.87 clipbox
250.676398 61.866113 m
250.676398 322.608 l
stroke
grestore
gsave
708.9 260.7 60.88 61.87 clipbox
257.134187 61.866113 m
257.134187 322.608 l
stroke
grestore
gsave
708.9 260.7 60.88 61.87 clipbox
263.591975 61.866113 m
263.591975 322.608 l
stroke
grestore
gsave
708.9 260.7 60.88 61.87 clipbox
270.049763 61.866113 m
270.049763 322.608 l
stroke
grestore
0.150 setgray
gsave
260.337111 53.145179 translate
290.000000 rotate
0.000000 0.000000 m /m glyphshow
11.689453 0.000000 m /A glyphshow
19.898438 0.000000 m /M glyphshow
30.251953 0.000000 m /R glyphshow
grestore
0.800 setgray
gsave
708.9 260.7 60.88 61.87 clipbox
276.507551 61.866113 m
276.507551 322.608 l
stroke
grestore
gsave
708.9 260.7 60.88 61.87 clipbox
282.96534 61.866113 m
282.96534 322.608 l
stroke
grestore
gsave
708.9 260.7 60.88 61.87 clipbox
289.423128 61.866113 m
289.423128 322.608 l
stroke
grestore
gsave
708.9 260.7 60.88 61.87 clipbox
295.880916 61.866113 m
295.880916 322.608 l
stroke
grestore
gsave
708.9 260.7 60.88 61.87 clipbox
302.338705 61.866113 m
302.338705 322.608 l
stroke
grestore
0.150 setgray
gsave
294.750319 53.145179 translate
290.000000 rotate
0.000000 0.000000 m /m glyphshow
11.689453 0.000000 m /F glyphshow
18.591797 0.000000 m /E glyphshow
grestore
0.800 setgray
gsave
708.9 260.7 60.88 61.87 clipbox
308.796493 61.866113 m
308.796493 322.608 l
stroke
grestore
gsave
708.9 260.7 60.88 61.87 clipbox
315.254281 61.866113 m
315.254281 322.608 l
stroke
grestore
gsave
708.9 260.7 60.88 61.87 clipbox
321.71207 61.866113 m
321.71207 322.608 l
stroke
grestore
gsave
708.9 260.7 60.88 61.87 clipbox
328.169858 61.866113 m
328.169858 322.608 l
stroke
grestore
gsave
708.9 260.7 60.88 61.87 clipbox
334.627646 61.866113 m
334.627646 322.608 l
stroke
grestore
0.150 setgray
gsave
326.229634 53.145179 translate
290.000000 rotate
0.000000 0.000000 m /m glyphshow
11.689453 0.000000 m /T glyphshow
19.019531 0.000000 m /R glyphshow
27.357422 0.000000 m /I glyphshow
grestore
0.800 setgray
gsave
708.9 260.7 60.88 61.87 clipbox
341.085435 61.866113 m
341.085435 322.608 l
stroke
grestore
gsave
708.9 260.7 60.88 61.87 clipbox
347.543223 61.866113 m
347.543223 322.608 l
stroke
grestore
gsave
708.9 260.7 60.88 61.87 clipbox
354.001011 61.866113 m
354.001011 322.608 l
stroke
grestore
gsave
708.9 260.7 60.88 61.87 clipbox
360.458799 61.866113 m
360.458799 322.608 l
stroke
grestore
gsave
708.9 260.7 60.88 61.87 clipbox
366.916588 61.866113 m
366.916588 322.608 l
stroke
grestore
0.150 setgray
gsave
358.510560 53.145179 translate
290.000000 rotate
0.000000 0.000000 m /N glyphshow
8.976562 0.000000 m /e glyphshow
16.359375 0.000000 m /k glyphshow
23.308594 0.000000 m /b glyphshow
grestore
0.800 setgray
gsave
708.9 260.7 60.88 61.87 clipbox
373.374376 61.866113 m
373.374376 322.608 l
stroke
grestore
gsave
708.9 260.7 60.88 61.87 clipbox
379.832164 61.866113 m
379.832164 322.608 l
stroke
grestore
gsave
708.9 260.7 60.88 61.87 clipbox
386.289953 61.866113 m
386.289953 322.608 l
stroke
grestore
gsave
708.9 260.7 60.88 61.87 clipbox
392.747741 61.866113 m
392.747741 322.608 l
stroke
grestore
gsave
708.9 260.7 60.88 61.87 clipbox
399.205529 61.866113 m
399.205529 322.608 l
stroke
grestore
0.150 setgray
gsave
390.885006 53.145179 translate
290.000000 rotate
0.000000 0.000000 m /S glyphshow
7.617188 0.000000 m /W glyphshow
19.482422 0.000000 m /four glyphshow
27.117188 0.000000 m /l glyphshow
grestore
0.800 setgray
gsave
708.9 260.7 60.88 61.87 clipbox
405.663318 61.866113 m
405.663318 322.608 l
stroke
grestore
gsave
708.9 260.7 60.88 61.87 clipbox
412.121106 61.866113 m
412.121106 322.608 l
stroke
grestore
gsave
708.9 260.7 60.88 61.87 clipbox
418.578894 61.866113 m
418.578894 322.608 l
stroke
grestore
gsave
708.9 260.7 60.88 61.87 clipbox
425.036682 61.866113 m
425.036682 322.608 l
stroke
grestore
gsave
708.9 260.7 60.88 61.87 clipbox
431.494471 61.866113 m
431.494471 322.608 l
stroke
grestore
0.150 setgray
gsave
422.687638 53.145179 translate
290.000000 rotate
0.000000 0.000000 m /S glyphshow
7.617188 0.000000 m /W glyphshow
19.482422 0.000000 m /F glyphshow
26.384766 0.000000 m /F glyphshow
grestore
0.800 setgray
gsave
708.9 260.7 60.88 61.87 clipbox
437.952259 61.866113 m
437.952259 322.608 l
stroke
grestore
gsave
708.9 260.7 60.88 61.87 clipbox
444.410047 61.866113 m
444.410047 322.608 l
stroke
grestore
gsave
708.9 260.7 60.88 61.87 clipbox
450.867836 61.866113 m
450.867836 322.608 l
stroke
grestore
gsave
708.9 260.7 60.88 61.87 clipbox
457.325624 61.866113 m
457.325624 322.608 l
stroke
grestore
gsave
708.9 260.7 60.88 61.87 clipbox
463.783412 61.866113 m
463.783412 322.608 l
stroke
grestore
0.150 setgray
gsave
455.289207 53.145179 translate
290.000000 rotate
0.000000 0.000000 m /X glyphshow
8.220703 0.000000 m /S glyphshow
15.837891 0.000000 m /B glyphshow
24.070312 0.000000 m /e glyphshow
grestore
0.800 setgray
gsave
708.9 260.7 60.88 61.87 clipbox
470.241201 61.866113 m
470.241201 322.608 l
stroke
grestore
gsave
708.9 260.7 60.88 61.87 clipbox
476.698989 61.866113 m
476.698989 322.608 l
stroke
grestore
gsave
708.9 260.7 60.88 61.87 clipbox
483.156777 61.866113 m
483.156777 322.608 l
stroke
grestore
gsave
708.9 260.7 60.88 61.87 clipbox
489.614565 61.866113 m
489.614565 322.608 l
stroke
grestore
gsave
708.9 260.7 60.88 61.87 clipbox
496.072354 61.866113 m
496.072354 322.608 l
stroke
grestore
0.150 setgray
gsave
488.331662 53.145179 translate
290.000000 rotate
0.000000 0.000000 m /Q glyphshow
9.445312 0.000000 m /C glyphshow
17.824219 0.000000 m /D glyphshow
grestore
0.800 setgray
gsave
708.9 260.7 60.88 61.87 clipbox
502.530142 61.866113 m
502.530142 322.608 l
stroke
grestore
gsave
708.9 260.7 60.88 61.87 clipbox
508.98793 61.866113 m
508.98793 322.608 l
stroke
grestore
gsave
708.9 260.7 60.88 61.87 clipbox
515.445719 61.866113 m
515.445719 322.608 l
stroke
grestore
gsave
708.9 260.7 60.88 61.87 clipbox
521.903507 61.866113 m
521.903507 322.608 l
stroke
grestore
gsave
708.9 260.7 60.88 61.87 clipbox
528.361295 61.866113 m
528.361295 322.608 l
stroke
grestore
0.150 setgray
gsave
520.051461 53.145179 translate
290.000000 rotate
0.000000 0.000000 m /F glyphshow
6.902344 0.000000 m /F glyphshow
13.804688 0.000000 m /V glyphshow
22.013672 0.000000 m /C glyphshow
grestore
0.800 setgray
gsave
708.9 260.7 60.88 61.87 clipbox
534.819084 61.866113 m
534.819084 322.608 l
stroke
grestore
gsave
708.9 260.7 60.88 61.87 clipbox
541.276872 61.866113 m
541.276872 322.608 l
stroke
grestore
gsave
708.9 260.7 60.88 61.87 clipbox
547.73466 61.866113 m
547.73466 322.608 l
stroke
grestore
gsave
708.9 260.7 60.88 61.87 clipbox
554.192449 61.866113 m
554.192449 322.608 l
stroke
grestore
gsave
708.9 260.7 60.88 61.87 clipbox
560.650237 61.866113 m
560.650237 322.608 l
stroke
grestore
0.150 setgray
gsave
552.559509 53.145179 translate
290.000000 rotate
0.000000 0.000000 m /N glyphshow
8.976562 0.000000 m /I glyphshow
12.515625 0.000000 m /C glyphshow
20.894531 0.000000 m /A glyphshow
grestore
0.800 setgray
gsave
708.9 260.7 60.88 61.87 clipbox
567.108025 61.866113 m
567.108025 322.608 l
stroke
grestore
gsave
708.9 260.7 60.88 61.87 clipbox
573.565813 61.866113 m
573.565813 322.608 l
stroke
grestore
gsave
708.9 260.7 60.88 61.87 clipbox
580.023602 61.866113 m
580.023602 322.608 l
stroke
grestore
gsave
708.9 260.7 60.88 61.87 clipbox
586.48139 61.866113 m
586.48139 322.608 l
stroke
grestore
gsave
708.9 260.7 60.88 61.87 clipbox
592.939178 61.866113 m
592.939178 322.608 l
stroke
grestore
0.150 setgray
gsave
583.221183 53.145179 translate
290.000000 rotate
0.000000 0.000000 m /m glyphshow
11.689453 0.000000 m /V glyphshow
19.898438 0.000000 m /M glyphshow
30.251953 0.000000 m /C glyphshow
grestore
0.800 setgray
gsave
708.9 260.7 60.88 61.87 clipbox
599.396967 61.866113 m
599.396967 322.608 l
stroke
grestore
gsave
708.9 260.7 60.88 61.87 clipbox
605.854755 61.866113 m
605.854755 322.608 l
stroke
grestore
gsave
708.9 260.7 60.88 61.87 clipbox
612.312543 61.866113 m
612.312543 322.608 l
stroke
grestore
gsave
708.9 260.7 60.88 61.87 clipbox
618.770332 61.866113 m
618.770332 322.608 l
stroke
grestore
gsave
708.9 260.7 60.88 61.87 clipbox
625.22812 61.866113 m
625.22812 322.608 l
stroke
grestore
0.150 setgray
gsave
616.282341 53.145179 translate
290.000000 rotate
0.000000 0.000000 m /N glyphshow
8.976562 0.000000 m /G glyphshow
18.275391 0.000000 m /S glyphshow
25.892578 0.000000 m /A glyphshow
grestore
0.800 setgray
gsave
708.9 260.7 60.88 61.87 clipbox
631.685908 61.866113 m
631.685908 322.608 l
stroke
grestore
gsave
708.9 260.7 60.88 61.87 clipbox
638.143696 61.866113 m
638.143696 322.608 l
stroke
grestore
gsave
708.9 260.7 60.88 61.87 clipbox
644.601485 61.866113 m
644.601485 322.608 l
stroke
grestore
gsave
708.9 260.7 60.88 61.87 clipbox
651.059273 61.866113 m
651.059273 322.608 l
stroke
grestore
gsave
708.9 260.7 60.88 61.87 clipbox
657.517061 61.866113 m
657.517061 322.608 l
stroke
grestore
0.150 setgray
gsave
648.183838 53.145179 translate
290.000000 rotate
0.000000 0.000000 m /M glyphshow
10.353516 0.000000 m /O glyphshow
19.798828 0.000000 m /D glyphshow
29.039062 0.000000 m /Y glyphshow
grestore
0.800 setgray
gsave
708.9 260.7 60.88 61.87 clipbox
663.97485 61.866113 m
663.97485 322.608 l
stroke
grestore
gsave
708.9 260.7 60.88 61.87 clipbox
670.432638 61.866113 m
670.432638 322.608 l
stroke
grestore
gsave
708.9 260.7 60.88 61.87 clipbox
676.890426 61.866113 m
676.890426 322.608 l
stroke
grestore
gsave
708.9 260.7 60.88 61.87 clipbox
683.348215 61.866113 m
683.348215 322.608 l
stroke
grestore
gsave
708.9 260.7 60.88 61.87 clipbox
689.806003 61.866113 m
689.806003 322.608 l
stroke
grestore
0.150 setgray
gsave
681.170180 53.145179 translate
290.000000 rotate
0.000000 0.000000 m /N glyphshow
8.976562 0.000000 m /T glyphshow
16.306641 0.000000 m /C glyphshow
24.685547 0.000000 m /h glyphshow
grestore
0.800 setgray
gsave
708.9 260.7 60.88 61.87 clipbox
696.263791 61.866113 m
696.263791 322.608 l
stroke
grestore
gsave
708.9 260.7 60.88 61.87 clipbox
702.72158 61.866113 m
702.72158 322.608 l
stroke
grestore
gsave
708.9 260.7 60.88 61.87 clipbox
709.179368 61.866113 m
709.179368 322.608 l
stroke
grestore
gsave
708.9 260.7 60.88 61.87 clipbox
715.637156 61.866113 m
715.637156 322.608 l
stroke
grestore
gsave
708.9 260.7 60.88 61.87 clipbox
722.094944 61.866113 m
722.094944 322.608 l
stroke
grestore
0.150 setgray
gsave
715.211975 53.145179 translate
290.000000 rotate
0.000000 0.000000 m /F glyphshow
6.902344 0.000000 m /F glyphshow
13.804688 0.000000 m /B glyphshow
grestore
0.800 setgray
gsave
708.9 260.7 60.88 61.87 clipbox
728.552733 61.866113 m
728.552733 322.608 l
stroke
grestore
gsave
708.9 260.7 60.88 61.87 clipbox
735.010521 61.866113 m
735.010521 322.608 l
stroke
grestore
gsave
708.9 260.7 60.88 61.87 clipbox
60.882 61.866113 m
769.818 61.866113 l
stroke
grestore
0.150 setgray
gsave
47.641375 57.303613 translate
0.000000 rotate
0.000000 0.000000 m /zero glyphshow
grestore
0.800 setgray
gsave
708.9 260.7 60.88 61.87 clipbox
60.882 111.413265 m
769.818 111.413265 l
stroke
grestore
0.150 setgray
gsave
40.000750 106.850765 translate
0.000000 rotate
0.000000 0.000000 m /two glyphshow
7.634766 0.000000 m /zero glyphshow
grestore
0.800 setgray
gsave
708.9 260.7 60.88 61.87 clipbox
60.882 160.960417 m
769.818 160.960417 l
stroke
grestore
0.150 setgray
gsave
40.000750 156.397917 translate
0.000000 rotate
0.000000 0.000000 m /four glyphshow
7.634766 0.000000 m /zero glyphshow
grestore
0.800 setgray
gsave
708.9 260.7 60.88 61.87 clipbox
60.882 210.507569 m
769.818 210.507569 l
stroke
grestore
0.150 setgray
gsave
40.000750 205.945069 translate
0.000000 rotate
0.000000 0.000000 m /six glyphshow
7.634766 0.000000 m /zero glyphshow
grestore
0.800 setgray
gsave
708.9 260.7 60.88 61.87 clipbox
60.882 260.054721 m
769.818 260.054721 l
stroke
grestore
0.150 setgray
gsave
40.000750 255.492221 translate
0.000000 rotate
0.000000 0.000000 m /eight glyphshow
7.634766 0.000000 m /zero glyphshow
grestore
0.800 setgray
gsave
708.9 260.7 60.88 61.87 clipbox
60.882 309.601873 m
769.818 309.601873 l
stroke
grestore
0.150 setgray
gsave
32.360125 305.039373 translate
0.000000 rotate
0.000000 0.000000 m /one glyphshow
7.634766 0.000000 m /zero glyphshow
15.269531 0.000000 m /zero glyphshow
grestore
/DejaVuSans findfont
13.200 scalefont
setfont
gsave
25.657000 185.940182 translate
90.000000 rotate
0.000000 0.000000 m /percent glyphshow
grestore
gsave
708.9 260.7 60.88 61.87 clipbox
93.106364 61.866113 m
98.272594 61.866113 l
98.272594 49.479325 l
93.106364 49.479325 l
cl
0.298 0.447 0.690 setrgbcolor
fill
grestore
gsave
708.9 260.7 60.88 61.87 clipbox
99.564152 61.866113 m
104.730383 61.866113 l
104.730383 309.601873 l
99.564152 309.601873 l
cl
0.298 0.447 0.690 setrgbcolor
fill
grestore
gsave
708.9 260.7 60.88 61.87 clipbox
106.02194 61.866113 m
111.188171 61.866113 l
111.188171 309.601873 l
106.02194 309.601873 l
cl
0.298 0.447 0.690 setrgbcolor
fill
grestore
gsave
708.9 260.7 60.88 61.87 clipbox
112.479729 61.866113 m
117.645959 61.866113 l
117.645959 309.601873 l
112.479729 309.601873 l
cl
0.298 0.447 0.690 setrgbcolor
fill
grestore
gsave
708.9 260.7 60.88 61.87 clipbox
118.937517 61.866113 m
124.103747 61.866113 l
124.103747 49.479325 l
118.937517 49.479325 l
cl
0.298 0.447 0.690 setrgbcolor
fill
grestore
gsave
708.9 260.7 60.88 61.87 clipbox
125.395305 61.866113 m
130.561536 61.866113 l
130.561536 49.479325 l
125.395305 49.479325 l
cl
0.298 0.447 0.690 setrgbcolor
fill
grestore
gsave
708.9 260.7 60.88 61.87 clipbox
131.853093 61.866113 m
137.019324 61.866113 l
137.019324 309.601873 l
131.853093 309.601873 l
cl
0.298 0.447 0.690 setrgbcolor
fill
grestore
gsave
708.9 260.7 60.88 61.87 clipbox
138.310882 61.866113 m
143.477112 61.866113 l
143.477112 309.601873 l
138.310882 309.601873 l
cl
0.298 0.447 0.690 setrgbcolor
fill
grestore
gsave
708.9 260.7 60.88 61.87 clipbox
144.76867 61.866113 m
149.934901 61.866113 l
149.934901 309.601873 l
144.76867 309.601873 l
cl
0.298 0.447 0.690 setrgbcolor
fill
grestore
gsave
708.9 260.7 60.88 61.87 clipbox
151.226458 61.866113 m
156.392689 61.866113 l
156.392689 49.479325 l
151.226458 49.479325 l
cl
0.298 0.447 0.690 setrgbcolor
fill
grestore
gsave
708.9 260.7 60.88 61.87 clipbox
157.684247 61.866113 m
162.850477 61.866113 l
162.850477 49.479325 l
157.684247 49.479325 l
cl
0.298 0.447 0.690 setrgbcolor
fill
grestore
gsave
708.9 260.7 60.88 61.87 clipbox
164.142035 61.866113 m
169.308266 61.866113 l
169.308266 309.601873 l
164.142035 309.601873 l
cl
0.298 0.447 0.690 setrgbcolor
fill
grestore
gsave
708.9 260.7 60.88 61.87 clipbox
170.599823 61.866113 m
175.766054 61.866113 l
175.766054 309.601873 l
170.599823 309.601873 l
cl
0.298 0.447 0.690 setrgbcolor
fill
grestore
gsave
708.9 260.7 60.88 61.87 clipbox
177.057612 61.866113 m
182.223842 61.866113 l
182.223842 309.601873 l
177.057612 309.601873 l
cl
0.298 0.447 0.690 setrgbcolor
fill
grestore
gsave
708.9 260.7 60.88 61.87 clipbox
183.5154 61.866113 m
188.681631 61.866113 l
188.681631 49.479325 l
183.5154 49.479325 l
cl
0.298 0.447 0.690 setrgbcolor
fill
grestore
gsave
708.9 260.7 60.88 61.87 clipbox
189.973188 61.866113 m
195.139419 61.866113 l
195.139419 49.479325 l
189.973188 49.479325 l
cl
0.298 0.447 0.690 setrgbcolor
fill
grestore
gsave
708.9 260.7 60.88 61.87 clipbox
196.430976 61.866113 m
201.597207 61.866113 l
201.597207 309.601873 l
196.430976 309.601873 l
cl
0.298 0.447 0.690 setrgbcolor
fill
grestore
gsave
708.9 260.7 60.88 61.87 clipbox
202.888765 61.866113 m
208.054995 61.866113 l
208.054995 309.601873 l
202.888765 309.601873 l
cl
0.298 0.447 0.690 setrgbcolor
fill
grestore
gsave
708.9 260.7 60.88 61.87 clipbox
209.346553 61.866113 m
214.512784 61.866113 l
214.512784 309.601873 l
209.346553 309.601873 l
cl
0.298 0.447 0.690 setrgbcolor
fill
grestore
gsave
708.9 260.7 60.88 61.87 clipbox
215.804341 61.866113 m
220.970572 61.866113 l
220.970572 49.479325 l
215.804341 49.479325 l
cl
0.298 0.447 0.690 setrgbcolor
fill
grestore
gsave
708.9 260.7 60.88 61.87 clipbox
222.26213 61.866113 m
227.42836 61.866113 l
227.42836 49.479325 l
222.26213 49.479325 l
cl
0.298 0.447 0.690 setrgbcolor
fill
grestore
gsave
708.9 260.7 60.88 61.87 clipbox
228.719918 61.866113 m
233.886149 61.866113 l
233.886149 309.601873 l
228.719918 309.601873 l
cl
0.298 0.447 0.690 setrgbcolor
fill
grestore
gsave
708.9 260.7 60.88 61.87 clipbox
235.177706 61.866113 m
240.343937 61.866113 l
240.343937 309.601873 l
235.177706 309.601873 l
cl
0.298 0.447 0.690 setrgbcolor
fill
grestore
gsave
708.9 260.7 60.88 61.87 clipbox
241.635495 61.866113 m
246.801725 61.866113 l
246.801725 309.601873 l
241.635495 309.601873 l
cl
0.298 0.447 0.690 setrgbcolor
fill
grestore
gsave
708.9 260.7 60.88 61.87 clipbox
248.093283 61.866113 m
253.259514 61.866113 l
253.259514 49.479325 l
248.093283 49.479325 l
cl
0.298 0.447 0.690 setrgbcolor
fill
grestore
gsave
708.9 260.7 60.88 61.87 clipbox
254.551071 61.866113 m
259.717302 61.866113 l
259.717302 49.479325 l
254.551071 49.479325 l
cl
0.298 0.447 0.690 setrgbcolor
fill
grestore
gsave
708.9 260.7 60.88 61.87 clipbox
261.00886 61.866113 m
266.17509 61.866113 l
266.17509 309.601873 l
261.00886 309.601873 l
cl
0.298 0.447 0.690 setrgbcolor
fill
grestore
gsave
708.9 260.7 60.88 61.87 clipbox
267.466648 61.866113 m
272.632878 61.866113 l
272.632878 309.601873 l
267.466648 309.601873 l
cl
0.298 0.447 0.690 setrgbcolor
fill
grestore
gsave
708.9 260.7 60.88 61.87 clipbox
273.924436 61.866113 m
279.090667 61.866113 l
279.090667 309.601873 l
273.924436 309.601873 l
cl
0.298 0.447 0.690 setrgbcolor
fill
grestore
gsave
708.9 260.7 60.88 61.87 clipbox
280.382224 61.866113 m
285.548455 61.866113 l
285.548455 49.479325 l
280.382224 49.479325 l
cl
0.298 0.447 0.690 setrgbcolor
fill
grestore
gsave
708.9 260.7 60.88 61.87 clipbox
286.840013 61.866113 m
292.006243 61.866113 l
292.006243 49.479325 l
286.840013 49.479325 l
cl
0.298 0.447 0.690 setrgbcolor
fill
grestore
gsave
708.9 260.7 60.88 61.87 clipbox
293.297801 61.866113 m
298.464032 61.866113 l
298.464032 309.601873 l
293.297801 309.601873 l
cl
0.298 0.447 0.690 setrgbcolor
fill
grestore
gsave
708.9 260.7 60.88 61.87 clipbox
299.755589 61.866113 m
304.92182 61.866113 l
304.92182 309.601873 l
299.755589 309.601873 l
cl
0.298 0.447 0.690 setrgbcolor
fill
grestore
gsave
708.9 260.7 60.88 61.87 clipbox
306.213378 61.866113 m
311.379608 61.866113 l
311.379608 309.601873 l
306.213378 309.601873 l
cl
0.298 0.447 0.690 setrgbcolor
fill
grestore
gsave
708.9 260.7 60.88 61.87 clipbox
312.671166 61.866113 m
317.837397 61.866113 l
317.837397 49.479325 l
312.671166 49.479325 l
cl
0.298 0.447 0.690 setrgbcolor
fill
grestore
gsave
708.9 260.7 60.88 61.87 clipbox
319.128954 61.866113 m
324.295185 61.866113 l
324.295185 49.479325 l
319.128954 49.479325 l
cl
0.298 0.447 0.690 setrgbcolor
fill
grestore
gsave
708.9 260.7 60.88 61.87 clipbox
325.586743 61.866113 m
330.752973 61.866113 l
330.752973 309.601873 l
325.586743 309.601873 l
cl
0.298 0.447 0.690 setrgbcolor
fill
grestore
gsave
708.9 260.7 60.88 61.87 clipbox
332.044531 61.866113 m
337.210762 61.866113 l
337.210762 309.601873 l
332.044531 309.601873 l
cl
0.298 0.447 0.690 setrgbcolor
fill
grestore
gsave
708.9 260.7 60.88 61.87 clipbox
338.502319 61.866113 m
343.66855 61.866113 l
343.66855 309.601873 l
338.502319 309.601873 l
cl
0.298 0.447 0.690 setrgbcolor
fill
grestore
gsave
708.9 260.7 60.88 61.87 clipbox
344.960107 61.866113 m
350.126338 61.866113 l
350.126338 49.479325 l
344.960107 49.479325 l
cl
0.298 0.447 0.690 setrgbcolor
fill
grestore
gsave
708.9 260.7 60.88 61.87 clipbox
351.417896 61.866113 m
356.584126 61.866113 l
356.584126 49.479325 l
351.417896 49.479325 l
cl
0.298 0.447 0.690 setrgbcolor
fill
grestore
gsave
708.9 260.7 60.88 61.87 clipbox
357.875684 61.866113 m
363.041915 61.866113 l
363.041915 309.601873 l
357.875684 309.601873 l
cl
0.298 0.447 0.690 setrgbcolor
fill
grestore
gsave
708.9 260.7 60.88 61.87 clipbox
364.333472 61.866113 m
369.499703 61.866113 l
369.499703 309.601873 l
364.333472 309.601873 l
cl
0.298 0.447 0.690 setrgbcolor
fill
grestore
gsave
708.9 260.7 60.88 61.87 clipbox
370.791261 61.866113 m
375.957491 61.866113 l
375.957491 309.601873 l
370.791261 309.601873 l
cl
0.298 0.447 0.690 setrgbcolor
fill
grestore
gsave
708.9 260.7 60.88 61.87 clipbox
377.249049 61.866113 m
382.41528 61.866113 l
382.41528 49.479325 l
377.249049 49.479325 l
cl
0.298 0.447 0.690 setrgbcolor
fill
grestore
gsave
708.9 260.7 60.88 61.87 clipbox
383.706837 61.866113 m
388.873068 61.866113 l
388.873068 49.479325 l
383.706837 49.479325 l
cl
0.298 0.447 0.690 setrgbcolor
fill
grestore
gsave
708.9 260.7 60.88 61.87 clipbox
390.164626 61.866113 m
395.330856 61.866113 l
395.330856 309.601873 l
390.164626 309.601873 l
cl
0.298 0.447 0.690 setrgbcolor
fill
grestore
gsave
708.9 260.7 60.88 61.87 clipbox
396.622414 61.866113 m
401.788645 61.866113 l
401.788645 309.601873 l
396.622414 309.601873 l
cl
0.298 0.447 0.690 setrgbcolor
fill
grestore
gsave
708.9 260.7 60.88 61.87 clipbox
403.080202 61.866113 m
408.246433 61.866113 l
408.246433 309.601873 l
403.080202 309.601873 l
cl
0.298 0.447 0.690 setrgbcolor
fill
grestore
gsave
708.9 260.7 60.88 61.87 clipbox
409.537991 61.866113 m
414.704221 61.866113 l
414.704221 49.479325 l
409.537991 49.479325 l
cl
0.298 0.447 0.690 setrgbcolor
fill
grestore
gsave
708.9 260.7 60.88 61.87 clipbox
415.995779 61.866113 m
421.162009 61.866113 l
421.162009 49.479325 l
415.995779 49.479325 l
cl
0.298 0.447 0.690 setrgbcolor
fill
grestore
gsave
708.9 260.7 60.88 61.87 clipbox
422.453567 61.866113 m
427.619798 61.866113 l
427.619798 309.601873 l
422.453567 309.601873 l
cl
0.298 0.447 0.690 setrgbcolor
fill
grestore
gsave
708.9 260.7 60.88 61.87 clipbox
428.911355 61.866113 m
434.077586 61.866113 l
434.077586 309.601873 l
428.911355 309.601873 l
cl
0.298 0.447 0.690 setrgbcolor
fill
grestore
gsave
708.9 260.7 60.88 61.87 clipbox
435.369144 61.866113 m
440.535374 61.866113 l
440.535374 309.601873 l
435.369144 309.601873 l
cl
0.298 0.447 0.690 setrgbcolor
fill
grestore
gsave
708.9 260.7 60.88 61.87 clipbox
441.826932 61.866113 m
446.993163 61.866113 l
446.993163 49.479325 l
441.826932 49.479325 l
cl
0.298 0.447 0.690 setrgbcolor
fill
grestore
gsave
708.9 260.7 60.88 61.87 clipbox
448.28472 61.866113 m
453.450951 61.866113 l
453.450951 49.479325 l
448.28472 49.479325 l
cl
0.298 0.447 0.690 setrgbcolor
fill
grestore
gsave
708.9 260.7 60.88 61.87 clipbox
454.742509 61.866113 m
459.908739 61.866113 l
459.908739 309.601873 l
454.742509 309.601873 l
cl
0.298 0.447 0.690 setrgbcolor
fill
grestore
gsave
708.9 260.7 60.88 61.87 clipbox
461.200297 61.866113 m
466.366528 61.866113 l
466.366528 309.601873 l
461.200297 309.601873 l
cl
0.298 0.447 0.690 setrgbcolor
fill
grestore
gsave
708.9 260.7 60.88 61.87 clipbox
467.658085 61.866113 m
472.824316 61.866113 l
472.824316 309.601873 l
467.658085 309.601873 l
cl
0.298 0.447 0.690 setrgbcolor
fill
grestore
gsave
708.9 260.7 60.88 61.87 clipbox
474.115874 61.866113 m
479.282104 61.866113 l
479.282104 49.479325 l
474.115874 49.479325 l
cl
0.298 0.447 0.690 setrgbcolor
fill
grestore
gsave
708.9 260.7 60.88 61.87 clipbox
480.573662 61.866113 m
485.739893 61.866113 l
485.739893 49.479325 l
480.573662 49.479325 l
cl
0.298 0.447 0.690 setrgbcolor
fill
grestore
gsave
708.9 260.7 60.88 61.87 clipbox
487.03145 61.866113 m
492.197681 61.866113 l
492.197681 309.601873 l
487.03145 309.601873 l
cl
0.298 0.447 0.690 setrgbcolor
fill
grestore
gsave
708.9 260.7 60.88 61.87 clipbox
493.489238 61.866113 m
498.655469 61.866113 l
498.655469 309.601873 l
493.489238 309.601873 l
cl
0.298 0.447 0.690 setrgbcolor
fill
grestore
gsave
708.9 260.7 60.88 61.87 clipbox
499.947027 61.866113 m
505.113257 61.866113 l
505.113257 309.601873 l
499.947027 309.601873 l
cl
0.298 0.447 0.690 setrgbcolor
fill
grestore
gsave
708.9 260.7 60.88 61.87 clipbox
506.404815 61.866113 m
511.571046 61.866113 l
511.571046 49.479325 l
506.404815 49.479325 l
cl
0.298 0.447 0.690 setrgbcolor
fill
grestore
gsave
708.9 260.7 60.88 61.87 clipbox
512.862603 61.866113 m
518.028834 61.866113 l
518.028834 49.479325 l
512.862603 49.479325 l
cl
0.298 0.447 0.690 setrgbcolor
fill
grestore
gsave
708.9 260.7 60.88 61.87 clipbox
519.320392 61.866113 m
524.486622 61.866113 l
524.486622 309.601873 l
519.320392 309.601873 l
cl
0.298 0.447 0.690 setrgbcolor
fill
grestore
gsave
708.9 260.7 60.88 61.87 clipbox
525.77818 61.866113 m
530.944411 61.866113 l
530.944411 309.601873 l
525.77818 309.601873 l
cl
0.298 0.447 0.690 setrgbcolor
fill
grestore
gsave
708.9 260.7 60.88 61.87 clipbox
532.235968 61.866113 m
537.402199 61.866113 l
537.402199 309.601873 l
532.235968 309.601873 l
cl
0.298 0.447 0.690 setrgbcolor
fill
grestore
gsave
708.9 260.7 60.88 61.87 clipbox
538.693757 61.866113 m
543.859987 61.866113 l
543.859987 49.479325 l
538.693757 49.479325 l
cl
0.298 0.447 0.690 setrgbcolor
fill
grestore
gsave
708.9 260.7 60.88 61.87 clipbox
545.151545 61.866113 m
550.317776 61.866113 l
550.317776 49.479325 l
545.151545 49.479325 l
cl
0.298 0.447 0.690 setrgbcolor
fill
grestore
gsave
708.9 260.7 60.88 61.87 clipbox
551.609333 61.866113 m
556.775564 61.866113 l
556.775564 309.601873 l
551.609333 309.601873 l
cl
0.298 0.447 0.690 setrgbcolor
fill
grestore
gsave
708.9 260.7 60.88 61.87 clipbox
558.067122 61.866113 m
563.233352 61.866113 l
563.233352 309.601873 l
558.067122 309.601873 l
cl
0.298 0.447 0.690 setrgbcolor
fill
grestore
gsave
708.9 260.7 60.88 61.87 clipbox
564.52491 61.866113 m
569.69114 61.866113 l
569.69114 309.601873 l
564.52491 309.601873 l
cl
0.298 0.447 0.690 setrgbcolor
fill
grestore
gsave
708.9 260.7 60.88 61.87 clipbox
570.982698 61.866113 m
576.148929 61.866113 l
576.148929 49.479325 l
570.982698 49.479325 l
cl
0.298 0.447 0.690 setrgbcolor
fill
grestore
gsave
708.9 260.7 60.88 61.87 clipbox
577.440486 61.866113 m
582.606717 61.866113 l
582.606717 49.479325 l
577.440486 49.479325 l
cl
0.298 0.447 0.690 setrgbcolor
fill
grestore
gsave
708.9 260.7 60.88 61.87 clipbox
583.898275 61.866113 m
589.064505 61.866113 l
589.064505 309.601873 l
583.898275 309.601873 l
cl
0.298 0.447 0.690 setrgbcolor
fill
grestore
gsave
708.9 260.7 60.88 61.87 clipbox
590.356063 61.866113 m
595.522294 61.866113 l
595.522294 309.601873 l
590.356063 309.601873 l
cl
0.298 0.447 0.690 setrgbcolor
fill
grestore
gsave
708.9 260.7 60.88 61.87 clipbox
596.813851 61.866113 m
601.980082 61.866113 l
601.980082 309.601873 l
596.813851 309.601873 l
cl
0.298 0.447 0.690 setrgbcolor
fill
grestore
gsave
708.9 260.7 60.88 61.87 clipbox
603.27164 61.866113 m
608.43787 61.866113 l
608.43787 49.479325 l
603.27164 49.479325 l
cl
0.298 0.447 0.690 setrgbcolor
fill
grestore
gsave
708.9 260.7 60.88 61.87 clipbox
609.729428 61.866113 m
614.895659 61.866113 l
614.895659 49.479325 l
609.729428 49.479325 l
cl
0.298 0.447 0.690 setrgbcolor
fill
grestore
gsave
708.9 260.7 60.88 61.87 clipbox
616.187216 61.866113 m
621.353447 61.866113 l
621.353447 309.601873 l
616.187216 309.601873 l
cl
0.298 0.447 0.690 setrgbcolor
fill
grestore
gsave
708.9 260.7 60.88 61.87 clipbox
622.645005 61.866113 m
627.811235 61.866113 l
627.811235 309.601873 l
622.645005 309.601873 l
cl
0.298 0.447 0.690 setrgbcolor
fill
grestore
gsave
708.9 260.7 60.88 61.87 clipbox
629.102793 61.866113 m
634.269024 61.866113 l
634.269024 309.601873 l
629.102793 309.601873 l
cl
0.298 0.447 0.690 setrgbcolor
fill
grestore
gsave
708.9 260.7 60.88 61.87 clipbox
635.560581 61.866113 m
640.726812 61.866113 l
640.726812 49.479325 l
635.560581 49.479325 l
cl
0.298 0.447 0.690 setrgbcolor
fill
grestore
gsave
708.9 260.7 60.88 61.87 clipbox
642.018369 61.866113 m
647.1846 61.866113 l
647.1846 49.479325 l
642.018369 49.479325 l
cl
0.298 0.447 0.690 setrgbcolor
fill
grestore
gsave
708.9 260.7 60.88 61.87 clipbox
648.476158 61.866113 m
653.642388 61.866113 l
653.642388 309.601873 l
648.476158 309.601873 l
cl
0.298 0.447 0.690 setrgbcolor
fill
grestore
gsave
708.9 260.7 60.88 61.87 clipbox
654.933946 61.866113 m
660.100177 61.866113 l
660.100177 309.601873 l
654.933946 309.601873 l
cl
0.298 0.447 0.690 setrgbcolor
fill
grestore
gsave
708.9 260.7 60.88 61.87 clipbox
661.391734 61.866113 m
666.557965 61.866113 l
666.557965 309.601873 l
661.391734 309.601873 l
cl
0.298 0.447 0.690 setrgbcolor
fill
grestore
gsave
708.9 260.7 60.88 61.87 clipbox
667.849523 61.866113 m
673.015753 61.866113 l
673.015753 49.479325 l
667.849523 49.479325 l
cl
0.298 0.447 0.690 setrgbcolor
fill
grestore
gsave
708.9 260.7 60.88 61.87 clipbox
674.307311 61.866113 m
679.473542 61.866113 l
679.473542 49.479325 l
674.307311 49.479325 l
cl
0.298 0.447 0.690 setrgbcolor
fill
grestore
gsave
708.9 260.7 60.88 61.87 clipbox
680.765099 61.866113 m
685.93133 61.866113 l
685.93133 309.601873 l
680.765099 309.601873 l
cl
0.298 0.447 0.690 setrgbcolor
fill
grestore
gsave
708.9 260.7 60.88 61.87 clipbox
687.222888 61.866113 m
692.389118 61.866113 l
692.389118 309.601873 l
687.222888 309.601873 l
cl
0.298 0.447 0.690 setrgbcolor
fill
grestore
gsave
708.9 260.7 60.88 61.87 clipbox
693.680676 61.866113 m
698.846907 61.866113 l
698.846907 309.601873 l
693.680676 309.601873 l
cl
0.298 0.447 0.690 setrgbcolor
fill
grestore
gsave
708.9 260.7 60.88 61.87 clipbox
700.138464 61.866113 m
705.304695 61.866113 l
705.304695 49.479325 l
700.138464 49.479325 l
cl
0.298 0.447 0.690 setrgbcolor
fill
grestore
gsave
708.9 260.7 60.88 61.87 clipbox
706.596253 61.866113 m
711.762483 61.866113 l
711.762483 49.479325 l
706.596253 49.479325 l
cl
0.298 0.447 0.690 setrgbcolor
fill
grestore
gsave
708.9 260.7 60.88 61.87 clipbox
713.054041 61.866113 m
718.220271 61.866113 l
718.220271 309.601873 l
713.054041 309.601873 l
cl
0.298 0.447 0.690 setrgbcolor
fill
grestore
gsave
708.9 260.7 60.88 61.87 clipbox
719.511829 61.866113 m
724.67806 61.866113 l
724.67806 309.601873 l
719.511829 309.601873 l
cl
0.298 0.447 0.690 setrgbcolor
fill
grestore
gsave
708.9 260.7 60.88 61.87 clipbox
725.969617 61.866113 m
731.135848 61.866113 l
731.135848 309.601873 l
725.969617 309.601873 l
cl
0.298 0.447 0.690 setrgbcolor
fill
grestore
gsave
708.9 260.7 60.88 61.87 clipbox
732.427406 61.866113 m
737.593636 61.866113 l
737.593636 49.479325 l
732.427406 49.479325 l
cl
0.298 0.447 0.690 setrgbcolor
fill
grestore
gsave
708.9 260.7 60.88 61.87 clipbox
93.106364 61.866113 m
98.272594 61.866113 l
98.272594 49.479325 l
93.106364 49.479325 l
cl
0.333 0.659 0.408 setrgbcolor
fill
grestore
gsave
708.9 260.7 60.88 61.87 clipbox
99.564152 61.866113 m
104.730383 61.866113 l
104.730383 119.900762 l
99.564152 119.900762 l
cl
0.333 0.659 0.408 setrgbcolor
fill
grestore
gsave
708.9 260.7 60.88 61.87 clipbox
106.02194 61.866113 m
111.188171 61.866113 l
111.188171 120.880052 l
106.02194 120.880052 l
cl
0.333 0.659 0.408 setrgbcolor
fill
grestore
gsave
708.9 260.7 60.88 61.87 clipbox
112.479729 61.866113 m
117.645959 61.866113 l
117.645959 120.880052 l
112.479729 120.880052 l
cl
0.333 0.659 0.408 setrgbcolor
fill
grestore
gsave
708.9 260.7 60.88 61.87 clipbox
118.937517 61.866113 m
124.103747 61.866113 l
124.103747 49.479325 l
118.937517 49.479325 l
cl
0.333 0.659 0.408 setrgbcolor
fill
grestore
gsave
708.9 260.7 60.88 61.87 clipbox
125.395305 61.866113 m
130.561536 61.866113 l
130.561536 49.479325 l
125.395305 49.479325 l
cl
0.333 0.659 0.408 setrgbcolor
fill
grestore
gsave
708.9 260.7 60.88 61.87 clipbox
131.853093 61.866113 m
137.019324 61.866113 l
137.019324 238.524914 l
131.853093 238.524914 l
cl
0.333 0.659 0.408 setrgbcolor
fill
grestore
gsave
708.9 260.7 60.88 61.87 clipbox
138.310882 61.866113 m
143.477112 61.866113 l
143.477112 61.866113 l
138.310882 61.866113 l
cl
0.333 0.659 0.408 setrgbcolor
fill
grestore
gsave
708.9 260.7 60.88 61.87 clipbox
144.76867 61.866113 m
149.934901 61.866113 l
149.934901 61.866113 l
144.76867 61.866113 l
cl
0.333 0.659 0.408 setrgbcolor
fill
grestore
gsave
708.9 260.7 60.88 61.87 clipbox
151.226458 61.866113 m
156.392689 61.866113 l
156.392689 49.479325 l
151.226458 49.479325 l
cl
0.333 0.659 0.408 setrgbcolor
fill
grestore
gsave
708.9 260.7 60.88 61.87 clipbox
157.684247 61.866113 m
162.850477 61.866113 l
162.850477 49.479325 l
157.684247 49.479325 l
cl
0.333 0.659 0.408 setrgbcolor
fill
grestore
gsave
708.9 260.7 60.88 61.87 clipbox
164.142035 61.866113 m
169.308266 61.866113 l
169.308266 309.268526 l
164.142035 309.268526 l
cl
0.333 0.659 0.408 setrgbcolor
fill
grestore
gsave
708.9 260.7 60.88 61.87 clipbox
170.599823 61.866113 m
175.766054 61.866113 l
175.766054 304.817575 l
170.599823 304.817575 l
cl
0.333 0.659 0.408 setrgbcolor
fill
grestore
gsave
708.9 260.7 60.88 61.87 clipbox
177.057612 61.866113 m
182.223842 61.866113 l
182.223842 304.819272 l
177.057612 304.819272 l
cl
0.333 0.659 0.408 setrgbcolor
fill
grestore
gsave
708.9 260.7 60.88 61.87 clipbox
183.5154 61.866113 m
188.681631 61.866113 l
188.681631 49.479325 l
183.5154 49.479325 l
cl
0.333 0.659 0.408 setrgbcolor
fill
grestore
gsave
708.9 260.7 60.88 61.87 clipbox
189.973188 61.866113 m
195.139419 61.866113 l
195.139419 49.479325 l
189.973188 49.479325 l
cl
0.333 0.659 0.408 setrgbcolor
fill
grestore
gsave
708.9 260.7 60.88 61.87 clipbox
196.430976 61.866113 m
201.597207 61.866113 l
201.597207 85.541568 l
196.430976 85.541568 l
cl
0.333 0.659 0.408 setrgbcolor
fill
grestore
gsave
708.9 260.7 60.88 61.87 clipbox
202.888765 61.866113 m
208.054995 61.866113 l
208.054995 80.516391 l
202.888765 80.516391 l
cl
0.333 0.659 0.408 setrgbcolor
fill
grestore
gsave
708.9 260.7 60.88 61.87 clipbox
209.346553 61.866113 m
214.512784 61.866113 l
214.512784 80.480846 l
209.346553 80.480846 l
cl
0.333 0.659 0.408 setrgbcolor
fill
grestore
gsave
708.9 260.7 60.88 61.87 clipbox
215.804341 61.866113 m
220.970572 61.866113 l
220.970572 49.479325 l
215.804341 49.479325 l
cl
0.333 0.659 0.408 setrgbcolor
fill
grestore
gsave
708.9 260.7 60.88 61.87 clipbox
222.26213 61.866113 m
227.42836 61.866113 l
227.42836 49.479325 l
222.26213 49.479325 l
cl
0.333 0.659 0.408 setrgbcolor
fill
grestore
gsave
708.9 260.7 60.88 61.87 clipbox
228.719918 61.866113 m
233.886149 61.866113 l
233.886149 62.105048 l
228.719918 62.105048 l
cl
0.333 0.659 0.408 setrgbcolor
fill
grestore
gsave
708.9 260.7 60.88 61.87 clipbox
235.177706 61.866113 m
240.343937 61.866113 l
240.343937 63.822802 l
235.177706 63.822802 l
cl
0.333 0.659 0.408 setrgbcolor
fill
grestore
gsave
708.9 260.7 60.88 61.87 clipbox
241.635495 61.866113 m
246.801725 61.866113 l
246.801725 63.822802 l
241.635495 63.822802 l
cl
0.333 0.659 0.408 setrgbcolor
fill
grestore
gsave
708.9 260.7 60.88 61.87 clipbox
248.093283 61.866113 m
253.259514 61.866113 l
253.259514 49.479325 l
248.093283 49.479325 l
cl
0.333 0.659 0.408 setrgbcolor
fill
grestore
gsave
708.9 260.7 60.88 61.87 clipbox
254.551071 61.866113 m
259.717302 61.866113 l
259.717302 49.479325 l
254.551071 49.479325 l
cl
0.333 0.659 0.408 setrgbcolor
fill
grestore
gsave
708.9 260.7 60.88 61.87 clipbox
261.00886 61.866113 m
266.17509 61.866113 l
266.17509 109.308809 l
261.00886 109.308809 l
cl
0.333 0.659 0.408 setrgbcolor
fill
grestore
gsave
708.9 260.7 60.88 61.87 clipbox
267.466648 61.866113 m
272.632878 61.866113 l
272.632878 81.653793 l
267.466648 81.653793 l
cl
0.333 0.659 0.408 setrgbcolor
fill
grestore
gsave
708.9 260.7 60.88 61.87 clipbox
273.924436 61.866113 m
279.090667 61.866113 l
279.090667 81.653788 l
273.924436 81.653788 l
cl
0.333 0.659 0.408 setrgbcolor
fill
grestore
gsave
708.9 260.7 60.88 61.87 clipbox
280.382224 61.866113 m
285.548455 61.866113 l
285.548455 49.479325 l
280.382224 49.479325 l
cl
0.333 0.659 0.408 setrgbcolor
fill
grestore
gsave
708.9 260.7 60.88 61.87 clipbox
286.840013 61.866113 m
292.006243 61.866113 l
292.006243 49.479325 l
286.840013 49.479325 l
cl
0.333 0.659 0.408 setrgbcolor
fill
grestore
gsave
708.9 260.7 60.88 61.87 clipbox
293.297801 61.866113 m
298.464032 61.866113 l
298.464032 112.086597 l
293.297801 112.086597 l
cl
0.333 0.659 0.408 setrgbcolor
fill
grestore
gsave
708.9 260.7 60.88 61.87 clipbox
299.755589 61.866113 m
304.92182 61.866113 l
304.92182 96.582761 l
299.755589 96.582761 l
cl
0.333 0.659 0.408 setrgbcolor
fill
grestore
gsave
708.9 260.7 60.88 61.87 clipbox
306.213378 61.866113 m
311.379608 61.866113 l
311.379608 73.469389 l
306.213378 73.469389 l
cl
0.333 0.659 0.408 setrgbcolor
fill
grestore
gsave
708.9 260.7 60.88 61.87 clipbox
312.671166 61.866113 m
317.837397 61.866113 l
317.837397 49.479325 l
312.671166 49.479325 l
cl
0.333 0.659 0.408 setrgbcolor
fill
grestore
gsave
708.9 260.7 60.88 61.87 clipbox
319.128954 61.866113 m
324.295185 61.866113 l
324.295185 49.479325 l
319.128954 49.479325 l
cl
0.333 0.659 0.408 setrgbcolor
fill
grestore
gsave
708.9 260.7 60.88 61.87 clipbox
325.586743 61.866113 m
330.752973 61.866113 l
330.752973 61.866113 l
325.586743 61.866113 l
cl
0.333 0.659 0.408 setrgbcolor
fill
grestore
gsave
708.9 260.7 60.88 61.87 clipbox
332.044531 61.866113 m
337.210762 61.866113 l
337.210762 61.866114 l
332.044531 61.866114 l
cl
0.333 0.659 0.408 setrgbcolor
fill
grestore
gsave
708.9 260.7 60.88 61.87 clipbox
338.502319 61.866113 m
343.66855 61.866113 l
343.66855 61.866114 l
338.502319 61.866114 l
cl
0.333 0.659 0.408 setrgbcolor
fill
grestore
gsave
708.9 260.7 60.88 61.87 clipbox
344.960107 61.866113 m
350.126338 61.866113 l
350.126338 49.479325 l
344.960107 49.479325 l
cl
0.333 0.659 0.408 setrgbcolor
fill
grestore
gsave
708.9 260.7 60.88 61.87 clipbox
351.417896 61.866113 m
356.584126 61.866113 l
356.584126 49.479325 l
351.417896 49.479325 l
cl
0.333 0.659 0.408 setrgbcolor
fill
grestore
gsave
708.9 260.7 60.88 61.87 clipbox
357.875684 61.866113 m
363.041915 61.866113 l
363.041915 301.543619 l
357.875684 301.543619 l
cl
0.333 0.659 0.408 setrgbcolor
fill
grestore
gsave
708.9 260.7 60.88 61.87 clipbox
364.333472 61.866113 m
369.499703 61.866113 l
369.499703 296.2531 l
364.333472 296.2531 l
cl
0.333 0.659 0.408 setrgbcolor
fill
grestore
gsave
708.9 260.7 60.88 61.87 clipbox
370.791261 61.866113 m
375.957491 61.866113 l
375.957491 296.200209 l
370.791261 296.200209 l
cl
0.333 0.659 0.408 setrgbcolor
fill
grestore
gsave
708.9 260.7 60.88 61.87 clipbox
377.249049 61.866113 m
382.41528 61.866113 l
382.41528 49.479325 l
377.249049 49.479325 l
cl
0.333 0.659 0.408 setrgbcolor
fill
grestore
gsave
708.9 260.7 60.88 61.87 clipbox
383.706837 61.866113 m
388.873068 61.866113 l
388.873068 49.479325 l
383.706837 49.479325 l
cl
0.333 0.659 0.408 setrgbcolor
fill
grestore
gsave
708.9 260.7 60.88 61.87 clipbox
390.164626 61.866113 m
395.330856 61.866113 l
395.330856 306.764564 l
390.164626 306.764564 l
cl
0.333 0.659 0.408 setrgbcolor
fill
grestore
gsave
708.9 260.7 60.88 61.87 clipbox
396.622414 61.866113 m
401.788645 61.866113 l
401.788645 308.316976 l
396.622414 308.316976 l
cl
0.333 0.659 0.408 setrgbcolor
fill
grestore
gsave
708.9 260.7 60.88 61.87 clipbox
403.080202 61.866113 m
408.246433 61.866113 l
408.246433 308.312848 l
403.080202 308.312848 l
cl
0.333 0.659 0.408 setrgbcolor
fill
grestore
gsave
708.9 260.7 60.88 61.87 clipbox
409.537991 61.866113 m
414.704221 61.866113 l
414.704221 49.479325 l
409.537991 49.479325 l
cl
0.333 0.659 0.408 setrgbcolor
fill
grestore
gsave
708.9 260.7 60.88 61.87 clipbox
415.995779 61.866113 m
421.162009 61.866113 l
421.162009 49.479325 l
415.995779 49.479325 l
cl
0.333 0.659 0.408 setrgbcolor
fill
grestore
gsave
708.9 260.7 60.88 61.87 clipbox
422.453567 61.866113 m
427.619798 61.866113 l
427.619798 121.293523 l
422.453567 121.293523 l
cl
0.333 0.659 0.408 setrgbcolor
fill
grestore
gsave
708.9 260.7 60.88 61.87 clipbox
428.911355 61.866113 m
434.077586 61.866113 l
434.077586 118.831182 l
428.911355 118.831182 l
cl
0.333 0.659 0.408 setrgbcolor
fill
grestore
gsave
708.9 260.7 60.88 61.87 clipbox
435.369144 61.866113 m
440.535374 61.866113 l
440.535374 119.176763 l
435.369144 119.176763 l
cl
0.333 0.659 0.408 setrgbcolor
fill
grestore
gsave
708.9 260.7 60.88 61.87 clipbox
441.826932 61.866113 m
446.993163 61.866113 l
446.993163 49.479325 l
441.826932 49.479325 l
cl
0.333 0.659 0.408 setrgbcolor
fill
grestore
gsave
708.9 260.7 60.88 61.87 clipbox
448.28472 61.866113 m
453.450951 61.866113 l
453.450951 49.479325 l
448.28472 49.479325 l
cl
0.333 0.659 0.408 setrgbcolor
fill
grestore
gsave
708.9 260.7 60.88 61.87 clipbox
454.742509 61.866113 m
459.908739 61.866113 l
459.908739 184.628911 l
454.742509 184.628911 l
cl
0.333 0.659 0.408 setrgbcolor
fill
grestore
gsave
708.9 260.7 60.88 61.87 clipbox
461.200297 61.866113 m
466.366528 61.866113 l
466.366528 217.32892 l
461.200297 217.32892 l
cl
0.333 0.659 0.408 setrgbcolor
fill
grestore
gsave
708.9 260.7 60.88 61.87 clipbox
467.658085 61.866113 m
472.824316 61.866113 l
472.824316 223.785094 l
467.658085 223.785094 l
cl
0.333 0.659 0.408 setrgbcolor
fill
grestore
gsave
708.9 260.7 60.88 61.87 clipbox
474.115874 61.866113 m
479.282104 61.866113 l
479.282104 49.479325 l
474.115874 49.479325 l
cl
0.333 0.659 0.408 setrgbcolor
fill
grestore
gsave
708.9 260.7 60.88 61.87 clipbox
480.573662 61.866113 m
485.739893 61.866113 l
485.739893 49.479325 l
480.573662 49.479325 l
cl
0.333 0.659 0.408 setrgbcolor
fill
grestore
gsave
708.9 260.7 60.88 61.87 clipbox
487.03145 61.866113 m
492.197681 61.866113 l
492.197681 96.10561 l
487.03145 96.10561 l
cl
0.333 0.659 0.408 setrgbcolor
fill
grestore
gsave
708.9 260.7 60.88 61.87 clipbox
493.489238 61.866113 m
498.655469 61.866113 l
498.655469 96.985211 l
493.489238 96.985211 l
cl
0.333 0.659 0.408 setrgbcolor
fill
grestore
gsave
708.9 260.7 60.88 61.87 clipbox
499.947027 61.866113 m
505.113257 61.866113 l
505.113257 96.985198 l
499.947027 96.985198 l
cl
0.333 0.659 0.408 setrgbcolor
fill
grestore
gsave
708.9 260.7 60.88 61.87 clipbox
506.404815 61.866113 m
511.571046 61.866113 l
511.571046 49.479325 l
506.404815 49.479325 l
cl
0.333 0.659 0.408 setrgbcolor
fill
grestore
gsave
708.9 260.7 60.88 61.87 clipbox
512.862603 61.866113 m
518.028834 61.866113 l
518.028834 49.479325 l
512.862603 49.479325 l
cl
0.333 0.659 0.408 setrgbcolor
fill
grestore
gsave
708.9 260.7 60.88 61.87 clipbox
519.320392 61.866113 m
524.486622 61.866113 l
524.486622 76.123417 l
519.320392 76.123417 l
cl
0.333 0.659 0.408 setrgbcolor
fill
grestore
gsave
708.9 260.7 60.88 61.87 clipbox
525.77818 61.866113 m
530.944411 61.866113 l
530.944411 81.270595 l
525.77818 81.270595 l
cl
0.333 0.659 0.408 setrgbcolor
fill
grestore
gsave
708.9 260.7 60.88 61.87 clipbox
532.235968 61.866113 m
537.402199 61.866113 l
537.402199 81.270507 l
532.235968 81.270507 l
cl
0.333 0.659 0.408 setrgbcolor
fill
grestore
gsave
708.9 260.7 60.88 61.87 clipbox
538.693757 61.866113 m
543.859987 61.866113 l
543.859987 49.479325 l
538.693757 49.479325 l
cl
0.333 0.659 0.408 setrgbcolor
fill
grestore
gsave
708.9 260.7 60.88 61.87 clipbox
545.151545 61.866113 m
550.317776 61.866113 l
550.317776 49.479325 l
545.151545 49.479325 l
cl
0.333 0.659 0.408 setrgbcolor
fill
grestore
gsave
708.9 260.7 60.88 61.87 clipbox
551.609333 61.866113 m
556.775564 61.866113 l
556.775564 156.92742 l
551.609333 156.92742 l
cl
0.333 0.659 0.408 setrgbcolor
fill
grestore
gsave
708.9 260.7 60.88 61.87 clipbox
558.067122 61.866113 m
563.233352 61.866113 l
563.233352 139.537651 l
558.067122 139.537651 l
cl
0.333 0.659 0.408 setrgbcolor
fill
grestore
gsave
708.9 260.7 60.88 61.87 clipbox
564.52491 61.866113 m
569.69114 61.866113 l
569.69114 139.537651 l
564.52491 139.537651 l
cl
0.333 0.659 0.408 setrgbcolor
fill
grestore
gsave
708.9 260.7 60.88 61.87 clipbox
570.982698 61.866113 m
576.148929 61.866113 l
576.148929 49.479325 l
570.982698 49.479325 l
cl
0.333 0.659 0.408 setrgbcolor
fill
grestore
gsave
708.9 260.7 60.88 61.87 clipbox
577.440486 61.866113 m
582.606717 61.866113 l
582.606717 49.479325 l
577.440486 49.479325 l
cl
0.333 0.659 0.408 setrgbcolor
fill
grestore
gsave
708.9 260.7 60.88 61.87 clipbox
583.898275 61.866113 m
589.064505 61.866113 l
589.064505 143.466051 l
583.898275 143.466051 l
cl
0.333 0.659 0.408 setrgbcolor
fill
grestore
gsave
708.9 260.7 60.88 61.87 clipbox
590.356063 61.866113 m
595.522294 61.866113 l
595.522294 159.890828 l
590.356063 159.890828 l
cl
0.333 0.659 0.408 setrgbcolor
fill
grestore
gsave
708.9 260.7 60.88 61.87 clipbox
596.813851 61.866113 m
601.980082 61.866113 l
601.980082 157.943958 l
596.813851 157.943958 l
cl
0.333 0.659 0.408 setrgbcolor
fill
grestore
gsave
708.9 260.7 60.88 61.87 clipbox
603.27164 61.866113 m
608.43787 61.866113 l
608.43787 49.479325 l
603.27164 49.479325 l
cl
0.333 0.659 0.408 setrgbcolor
fill
grestore
gsave
708.9 260.7 60.88 61.87 clipbox
609.729428 61.866113 m
614.895659 61.866113 l
614.895659 49.479325 l
609.729428 49.479325 l
cl
0.333 0.659 0.408 setrgbcolor
fill
grestore
gsave
708.9 260.7 60.88 61.87 clipbox
616.187216 61.866113 m
621.353447 61.866113 l
621.353447 65.095949 l
616.187216 65.095949 l
cl
0.333 0.659 0.408 setrgbcolor
fill
grestore
gsave
708.9 260.7 60.88 61.87 clipbox
622.645005 61.866113 m
627.811235 61.866113 l
627.811235 64.871321 l
622.645005 64.871321 l
cl
0.333 0.659 0.408 setrgbcolor
fill
grestore
gsave
708.9 260.7 60.88 61.87 clipbox
629.102793 61.866113 m
634.269024 61.866113 l
634.269024 64.863426 l
629.102793 64.863426 l
cl
0.333 0.659 0.408 setrgbcolor
fill
grestore
gsave
708.9 260.7 60.88 61.87 clipbox
635.560581 61.866113 m
640.726812 61.866113 l
640.726812 49.479325 l
635.560581 49.479325 l
cl
0.333 0.659 0.408 setrgbcolor
fill
grestore
gsave
708.9 260.7 60.88 61.87 clipbox
642.018369 61.866113 m
647.1846 61.866113 l
647.1846 49.479325 l
642.018369 49.479325 l
cl
0.333 0.659 0.408 setrgbcolor
fill
grestore
gsave
708.9 260.7 60.88 61.87 clipbox
648.476158 61.866113 m
653.642388 61.866113 l
653.642388 143.621492 l
648.476158 143.621492 l
cl
0.333 0.659 0.408 setrgbcolor
fill
grestore
gsave
708.9 260.7 60.88 61.87 clipbox
654.933946 61.866113 m
660.100177 61.866113 l
660.100177 114.873231 l
654.933946 114.873231 l
cl
0.333 0.659 0.408 setrgbcolor
fill
grestore
gsave
708.9 260.7 60.88 61.87 clipbox
661.391734 61.866113 m
666.557965 61.866113 l
666.557965 114.873231 l
661.391734 114.873231 l
cl
0.333 0.659 0.408 setrgbcolor
fill
grestore
gsave
708.9 260.7 60.88 61.87 clipbox
667.849523 61.866113 m
673.015753 61.866113 l
673.015753 49.479325 l
667.849523 49.479325 l
cl
0.333 0.659 0.408 setrgbcolor
fill
grestore
gsave
708.9 260.7 60.88 61.87 clipbox
674.307311 61.866113 m
679.473542 61.866113 l
679.473542 49.479325 l
674.307311 49.479325 l
cl
0.333 0.659 0.408 setrgbcolor
fill
grestore
gsave
708.9 260.7 60.88 61.87 clipbox
680.765099 61.866113 m
685.93133 61.866113 l
685.93133 217.475498 l
680.765099 217.475498 l
cl
0.333 0.659 0.408 setrgbcolor
fill
grestore
gsave
708.9 260.7 60.88 61.87 clipbox
687.222888 61.866113 m
692.389118 61.866113 l
692.389118 164.511185 l
687.222888 164.511185 l
cl
0.333 0.659 0.408 setrgbcolor
fill
grestore
gsave
708.9 260.7 60.88 61.87 clipbox
693.680676 61.866113 m
698.846907 61.866113 l
698.846907 171.496624 l
693.680676 171.496624 l
cl
0.333 0.659 0.408 setrgbcolor
fill
grestore
gsave
708.9 260.7 60.88 61.87 clipbox
700.138464 61.866113 m
705.304695 61.866113 l
705.304695 49.479325 l
700.138464 49.479325 l
cl
0.333 0.659 0.408 setrgbcolor
fill
grestore
gsave
708.9 260.7 60.88 61.87 clipbox
706.596253 61.866113 m
711.762483 61.866113 l
711.762483 49.479325 l
706.596253 49.479325 l
cl
0.333 0.659 0.408 setrgbcolor
fill
grestore
gsave
708.9 260.7 60.88 61.87 clipbox
713.054041 61.866113 m
718.220271 61.866113 l
718.220271 86.61908 l
713.054041 86.61908 l
cl
0.333 0.659 0.408 setrgbcolor
fill
grestore
gsave
708.9 260.7 60.88 61.87 clipbox
719.511829 61.866113 m
724.67806 61.866113 l
724.67806 93.443097 l
719.511829 93.443097 l
cl
0.333 0.659 0.408 setrgbcolor
fill
grestore
gsave
708.9 260.7 60.88 61.87 clipbox
725.969617 61.866113 m
731.135848 61.866113 l
731.135848 93.443566 l
725.969617 93.443566 l
cl
0.333 0.659 0.408 setrgbcolor
fill
grestore
gsave
708.9 260.7 60.88 61.87 clipbox
732.427406 61.866113 m
737.593636 61.866113 l
737.593636 49.479325 l
732.427406 49.479325 l
cl
0.333 0.659 0.408 setrgbcolor
fill
grestore
gsave
708.9 260.7 60.88 61.87 clipbox
93.106364 61.866113 m
98.272594 61.866113 l
98.272594 49.479325 l
93.106364 49.479325 l
cl
0.769 0.306 0.322 setrgbcolor
fill
grestore
gsave
708.9 260.7 60.88 61.87 clipbox
99.564152 61.866113 m
104.730383 61.866113 l
104.730383 119.900762 l
99.564152 119.900762 l
cl
0.769 0.306 0.322 setrgbcolor
fill
grestore
gsave
708.9 260.7 60.88 61.87 clipbox
106.02194 61.866113 m
111.188171 61.866113 l
111.188171 120.880051 l
106.02194 120.880051 l
cl
0.769 0.306 0.322 setrgbcolor
fill
grestore
gsave
708.9 260.7 60.88 61.87 clipbox
112.479729 61.866113 m
117.645959 61.866113 l
117.645959 120.880051 l
112.479729 120.880051 l
cl
0.769 0.306 0.322 setrgbcolor
fill
grestore
gsave
708.9 260.7 60.88 61.87 clipbox
118.937517 61.866113 m
124.103747 61.866113 l
124.103747 49.479325 l
118.937517 49.479325 l
cl
0.769 0.306 0.322 setrgbcolor
fill
grestore
gsave
708.9 260.7 60.88 61.87 clipbox
125.395305 61.866113 m
130.561536 61.866113 l
130.561536 49.479325 l
125.395305 49.479325 l
cl
0.769 0.306 0.322 setrgbcolor
fill
grestore
gsave
708.9 260.7 60.88 61.87 clipbox
131.853093 61.866113 m
137.019324 61.866113 l
137.019324 61.866408 l
131.853093 61.866408 l
cl
0.769 0.306 0.322 setrgbcolor
fill
grestore
gsave
708.9 260.7 60.88 61.87 clipbox
138.310882 61.866113 m
143.477112 61.866113 l
143.477112 61.866113 l
138.310882 61.866113 l
cl
0.769 0.306 0.322 setrgbcolor
fill
grestore
gsave
708.9 260.7 60.88 61.87 clipbox
144.76867 61.866113 m
149.934901 61.866113 l
149.934901 61.866113 l
144.76867 61.866113 l
cl
0.769 0.306 0.322 setrgbcolor
fill
grestore
gsave
708.9 260.7 60.88 61.87 clipbox
151.226458 61.866113 m
156.392689 61.866113 l
156.392689 49.479325 l
151.226458 49.479325 l
cl
0.769 0.306 0.322 setrgbcolor
fill
grestore
gsave
708.9 260.7 60.88 61.87 clipbox
157.684247 61.866113 m
162.850477 61.866113 l
162.850477 49.479325 l
157.684247 49.479325 l
cl
0.769 0.306 0.322 setrgbcolor
fill
grestore
gsave
708.9 260.7 60.88 61.87 clipbox
164.142035 61.866113 m
169.308266 61.866113 l
169.308266 309.268526 l
164.142035 309.268526 l
cl
0.769 0.306 0.322 setrgbcolor
fill
grestore
gsave
708.9 260.7 60.88 61.87 clipbox
170.599823 61.866113 m
175.766054 61.866113 l
175.766054 284.391238 l
170.599823 284.391238 l
cl
0.769 0.306 0.322 setrgbcolor
fill
grestore
gsave
708.9 260.7 60.88 61.87 clipbox
177.057612 61.866113 m
182.223842 61.866113 l
182.223842 284.362581 l
177.057612 284.362581 l
cl
0.769 0.306 0.322 setrgbcolor
fill
grestore
gsave
708.9 260.7 60.88 61.87 clipbox
183.5154 61.866113 m
188.681631 61.866113 l
188.681631 49.479325 l
183.5154 49.479325 l
cl
0.769 0.306 0.322 setrgbcolor
fill
grestore
gsave
708.9 260.7 60.88 61.87 clipbox
189.973188 61.866113 m
195.139419 61.866113 l
195.139419 49.479325 l
189.973188 49.479325 l
cl
0.769 0.306 0.322 setrgbcolor
fill
grestore
gsave
708.9 260.7 60.88 61.87 clipbox
196.430976 61.866113 m
201.597207 61.866113 l
201.597207 85.541568 l
196.430976 85.541568 l
cl
0.769 0.306 0.322 setrgbcolor
fill
grestore
gsave
708.9 260.7 60.88 61.87 clipbox
202.888765 61.866113 m
208.054995 61.866113 l
208.054995 80.424796 l
202.888765 80.424796 l
cl
0.769 0.306 0.322 setrgbcolor
fill
grestore
gsave
708.9 260.7 60.88 61.87 clipbox
209.346553 61.866113 m
214.512784 61.866113 l
214.512784 80.389251 l
209.346553 80.389251 l
cl
0.769 0.306 0.322 setrgbcolor
fill
grestore
gsave
708.9 260.7 60.88 61.87 clipbox
215.804341 61.866113 m
220.970572 61.866113 l
220.970572 49.479325 l
215.804341 49.479325 l
cl
0.769 0.306 0.322 setrgbcolor
fill
grestore
gsave
708.9 260.7 60.88 61.87 clipbox
222.26213 61.866113 m
227.42836 61.866113 l
227.42836 49.479325 l
222.26213 49.479325 l
cl
0.769 0.306 0.322 setrgbcolor
fill
grestore
gsave
708.9 260.7 60.88 61.87 clipbox
228.719918 61.866113 m
233.886149 61.866113 l
233.886149 62.105047 l
228.719918 62.105047 l
cl
0.769 0.306 0.322 setrgbcolor
fill
grestore
gsave
708.9 260.7 60.88 61.87 clipbox
235.177706 61.866113 m
240.343937 61.866113 l
240.343937 63.800645 l
235.177706 63.800645 l
cl
0.769 0.306 0.322 setrgbcolor
fill
grestore
gsave
708.9 260.7 60.88 61.87 clipbox
241.635495 61.866113 m
246.801725 61.866113 l
246.801725 63.800645 l
241.635495 63.800645 l
cl
0.769 0.306 0.322 setrgbcolor
fill
grestore
gsave
708.9 260.7 60.88 61.87 clipbox
248.093283 61.866113 m
253.259514 61.866113 l
253.259514 49.479325 l
248.093283 49.479325 l
cl
0.769 0.306 0.322 setrgbcolor
fill
grestore
gsave
708.9 260.7 60.88 61.87 clipbox
254.551071 61.866113 m
259.717302 61.866113 l
259.717302 49.479325 l
254.551071 49.479325 l
cl
0.769 0.306 0.322 setrgbcolor
fill
grestore
gsave
708.9 260.7 60.88 61.87 clipbox
261.00886 61.866113 m
266.17509 61.866113 l
266.17509 109.308809 l
261.00886 109.308809 l
cl
0.769 0.306 0.322 setrgbcolor
fill
grestore
gsave
708.9 260.7 60.88 61.87 clipbox
267.466648 61.866113 m
272.632878 61.866113 l
272.632878 81.652865 l
267.466648 81.652865 l
cl
0.769 0.306 0.322 setrgbcolor
fill
grestore
gsave
708.9 260.7 60.88 61.87 clipbox
273.924436 61.866113 m
279.090667 61.866113 l
279.090667 81.652861 l
273.924436 81.652861 l
cl
0.769 0.306 0.322 setrgbcolor
fill
grestore
gsave
708.9 260.7 60.88 61.87 clipbox
280.382224 61.866113 m
285.548455 61.866113 l
285.548455 49.479325 l
280.382224 49.479325 l
cl
0.769 0.306 0.322 setrgbcolor
fill
grestore
gsave
708.9 260.7 60.88 61.87 clipbox
286.840013 61.866113 m
292.006243 61.866113 l
292.006243 49.479325 l
286.840013 49.479325 l
cl
0.769 0.306 0.322 setrgbcolor
fill
grestore
gsave
708.9 260.7 60.88 61.87 clipbox
293.297801 61.866113 m
298.464032 61.866113 l
298.464032 112.086597 l
293.297801 112.086597 l
cl
0.769 0.306 0.322 setrgbcolor
fill
grestore
gsave
708.9 260.7 60.88 61.87 clipbox
299.755589 61.866113 m
304.92182 61.866113 l
304.92182 96.582759 l
299.755589 96.582759 l
cl
0.769 0.306 0.322 setrgbcolor
fill
grestore
gsave
708.9 260.7 60.88 61.87 clipbox
306.213378 61.866113 m
311.379608 61.866113 l
311.379608 73.469339 l
306.213378 73.469339 l
cl
0.769 0.306 0.322 setrgbcolor
fill
grestore
gsave
708.9 260.7 60.88 61.87 clipbox
312.671166 61.866113 m
317.837397 61.866113 l
317.837397 49.479325 l
312.671166 49.479325 l
cl
0.769 0.306 0.322 setrgbcolor
fill
grestore
gsave
708.9 260.7 60.88 61.87 clipbox
319.128954 61.866113 m
324.295185 61.866113 l
324.295185 49.479325 l
319.128954 49.479325 l
cl
0.769 0.306 0.322 setrgbcolor
fill
grestore
gsave
708.9 260.7 60.88 61.87 clipbox
325.586743 61.866113 m
330.752973 61.866113 l
330.752973 61.866113 l
325.586743 61.866113 l
cl
0.769 0.306 0.322 setrgbcolor
fill
grestore
gsave
708.9 260.7 60.88 61.87 clipbox
332.044531 61.866113 m
337.210762 61.866113 l
337.210762 61.866113 l
332.044531 61.866113 l
cl
0.769 0.306 0.322 setrgbcolor
fill
grestore
gsave
708.9 260.7 60.88 61.87 clipbox
338.502319 61.866113 m
343.66855 61.866113 l
343.66855 61.866113 l
338.502319 61.866113 l
cl
0.769 0.306 0.322 setrgbcolor
fill
grestore
gsave
708.9 260.7 60.88 61.87 clipbox
344.960107 61.866113 m
350.126338 61.866113 l
350.126338 49.479325 l
344.960107 49.479325 l
cl
0.769 0.306 0.322 setrgbcolor
fill
grestore
gsave
708.9 260.7 60.88 61.87 clipbox
351.417896 61.866113 m
356.584126 61.866113 l
356.584126 49.479325 l
351.417896 49.479325 l
cl
0.769 0.306 0.322 setrgbcolor
fill
grestore
gsave
708.9 260.7 60.88 61.87 clipbox
357.875684 61.866113 m
363.041915 61.866113 l
363.041915 301.543619 l
357.875684 301.543619 l
cl
0.769 0.306 0.322 setrgbcolor
fill
grestore
gsave
708.9 260.7 60.88 61.87 clipbox
364.333472 61.866113 m
369.499703 61.866113 l
369.499703 296.253083 l
364.333472 296.253083 l
cl
0.769 0.306 0.322 setrgbcolor
fill
grestore
gsave
708.9 260.7 60.88 61.87 clipbox
370.791261 61.866113 m
375.957491 61.866113 l
375.957491 296.200192 l
370.791261 296.200192 l
cl
0.769 0.306 0.322 setrgbcolor
fill
grestore
gsave
708.9 260.7 60.88 61.87 clipbox
377.249049 61.866113 m
382.41528 61.866113 l
382.41528 49.479325 l
377.249049 49.479325 l
cl
0.769 0.306 0.322 setrgbcolor
fill
grestore
gsave
708.9 260.7 60.88 61.87 clipbox
383.706837 61.866113 m
388.873068 61.866113 l
388.873068 49.479325 l
383.706837 49.479325 l
cl
0.769 0.306 0.322 setrgbcolor
fill
grestore
gsave
708.9 260.7 60.88 61.87 clipbox
390.164626 61.866113 m
395.330856 61.866113 l
395.330856 306.764564 l
390.164626 306.764564 l
cl
0.769 0.306 0.322 setrgbcolor
fill
grestore
gsave
708.9 260.7 60.88 61.87 clipbox
396.622414 61.866113 m
401.788645 61.866113 l
401.788645 308.316934 l
396.622414 308.316934 l
cl
0.769 0.306 0.322 setrgbcolor
fill
grestore
gsave
708.9 260.7 60.88 61.87 clipbox
403.080202 61.866113 m
408.246433 61.866113 l
408.246433 308.312811 l
403.080202 308.312811 l
cl
0.769 0.306 0.322 setrgbcolor
fill
grestore
gsave
708.9 260.7 60.88 61.87 clipbox
409.537991 61.866113 m
414.704221 61.866113 l
414.704221 49.479325 l
409.537991 49.479325 l
cl
0.769 0.306 0.322 setrgbcolor
fill
grestore
gsave
708.9 260.7 60.88 61.87 clipbox
415.995779 61.866113 m
421.162009 61.866113 l
421.162009 49.479325 l
415.995779 49.479325 l
cl
0.769 0.306 0.322 setrgbcolor
fill
grestore
gsave
708.9 260.7 60.88 61.87 clipbox
422.453567 61.866113 m
427.619798 61.866113 l
427.619798 121.293523 l
422.453567 121.293523 l
cl
0.769 0.306 0.322 setrgbcolor
fill
grestore
gsave
708.9 260.7 60.88 61.87 clipbox
428.911355 61.866113 m
434.077586 61.866113 l
434.077586 118.807412 l
428.911355 118.807412 l
cl
0.769 0.306 0.322 setrgbcolor
fill
grestore
gsave
708.9 260.7 60.88 61.87 clipbox
435.369144 61.866113 m
440.535374 61.866113 l
440.535374 119.153466 l
435.369144 119.153466 l
cl
0.769 0.306 0.322 setrgbcolor
fill
grestore
gsave
708.9 260.7 60.88 61.87 clipbox
441.826932 61.866113 m
446.993163 61.866113 l
446.993163 49.479325 l
441.826932 49.479325 l
cl
0.769 0.306 0.322 setrgbcolor
fill
grestore
gsave
708.9 260.7 60.88 61.87 clipbox
448.28472 61.866113 m
453.450951 61.866113 l
453.450951 49.479325 l
448.28472 49.479325 l
cl
0.769 0.306 0.322 setrgbcolor
fill
grestore
gsave
708.9 260.7 60.88 61.87 clipbox
454.742509 61.866113 m
459.908739 61.866113 l
459.908739 184.62891 l
454.742509 184.62891 l
cl
0.769 0.306 0.322 setrgbcolor
fill
grestore
gsave
708.9 260.7 60.88 61.87 clipbox
461.200297 61.866113 m
466.366528 61.866113 l
466.366528 214.98883 l
461.200297 214.98883 l
cl
0.769 0.306 0.322 setrgbcolor
fill
grestore
gsave
708.9 260.7 60.88 61.87 clipbox
467.658085 61.866113 m
472.824316 61.866113 l
472.824316 221.608679 l
467.658085 221.608679 l
cl
0.769 0.306 0.322 setrgbcolor
fill
grestore
gsave
708.9 260.7 60.88 61.87 clipbox
474.115874 61.866113 m
479.282104 61.866113 l
479.282104 49.479325 l
474.115874 49.479325 l
cl
0.769 0.306 0.322 setrgbcolor
fill
grestore
gsave
708.9 260.7 60.88 61.87 clipbox
480.573662 61.866113 m
485.739893 61.866113 l
485.739893 49.479325 l
480.573662 49.479325 l
cl
0.769 0.306 0.322 setrgbcolor
fill
grestore
gsave
708.9 260.7 60.88 61.87 clipbox
487.03145 61.866113 m
492.197681 61.866113 l
492.197681 96.10561 l
487.03145 96.10561 l
cl
0.769 0.306 0.322 setrgbcolor
fill
grestore
gsave
708.9 260.7 60.88 61.87 clipbox
493.489238 61.866113 m
498.655469 61.866113 l
498.655469 96.985211 l
493.489238 96.985211 l
cl
0.769 0.306 0.322 setrgbcolor
fill
grestore
gsave
708.9 260.7 60.88 61.87 clipbox
499.947027 61.866113 m
505.113257 61.866113 l
505.113257 96.985197 l
499.947027 96.985197 l
cl
0.769 0.306 0.322 setrgbcolor
fill
grestore
gsave
708.9 260.7 60.88 61.87 clipbox
506.404815 61.866113 m
511.571046 61.866113 l
511.571046 49.479325 l
506.404815 49.479325 l
cl
0.769 0.306 0.322 setrgbcolor
fill
grestore
gsave
708.9 260.7 60.88 61.87 clipbox
512.862603 61.866113 m
518.028834 61.866113 l
518.028834 49.479325 l
512.862603 49.479325 l
cl
0.769 0.306 0.322 setrgbcolor
fill
grestore
gsave
708.9 260.7 60.88 61.87 clipbox
519.320392 61.866113 m
524.486622 61.866113 l
524.486622 62.933225 l
519.320392 62.933225 l
cl
0.769 0.306 0.322 setrgbcolor
fill
grestore
gsave
708.9 260.7 60.88 61.87 clipbox
525.77818 61.866113 m
530.944411 61.866113 l
530.944411 63.389365 l
525.77818 63.389365 l
cl
0.769 0.306 0.322 setrgbcolor
fill
grestore
gsave
708.9 260.7 60.88 61.87 clipbox
532.235968 61.866113 m
537.402199 61.866113 l
537.402199 63.389361 l
532.235968 63.389361 l
cl
0.769 0.306 0.322 setrgbcolor
fill
grestore
gsave
708.9 260.7 60.88 61.87 clipbox
538.693757 61.866113 m
543.859987 61.866113 l
543.859987 49.479325 l
538.693757 49.479325 l
cl
0.769 0.306 0.322 setrgbcolor
fill
grestore
gsave
708.9 260.7 60.88 61.87 clipbox
545.151545 61.866113 m
550.317776 61.866113 l
550.317776 49.479325 l
545.151545 49.479325 l
cl
0.769 0.306 0.322 setrgbcolor
fill
grestore
gsave
708.9 260.7 60.88 61.87 clipbox
551.609333 61.866113 m
556.775564 61.866113 l
556.775564 156.926864 l
551.609333 156.926864 l
cl
0.769 0.306 0.322 setrgbcolor
fill
grestore
gsave
708.9 260.7 60.88 61.87 clipbox
558.067122 61.866113 m
563.233352 61.866113 l
563.233352 139.525605 l
558.067122 139.525605 l
cl
0.769 0.306 0.322 setrgbcolor
fill
grestore
gsave
708.9 260.7 60.88 61.87 clipbox
564.52491 61.866113 m
569.69114 61.866113 l
569.69114 139.525605 l
564.52491 139.525605 l
cl
0.769 0.306 0.322 setrgbcolor
fill
grestore
gsave
708.9 260.7 60.88 61.87 clipbox
570.982698 61.866113 m
576.148929 61.866113 l
576.148929 49.479325 l
570.982698 49.479325 l
cl
0.769 0.306 0.322 setrgbcolor
fill
grestore
gsave
708.9 260.7 60.88 61.87 clipbox
577.440486 61.866113 m
582.606717 61.866113 l
582.606717 49.479325 l
577.440486 49.479325 l
cl
0.769 0.306 0.322 setrgbcolor
fill
grestore
gsave
708.9 260.7 60.88 61.87 clipbox
583.898275 61.866113 m
589.064505 61.866113 l
589.064505 143.466051 l
583.898275 143.466051 l
cl
0.769 0.306 0.322 setrgbcolor
fill
grestore
gsave
708.9 260.7 60.88 61.87 clipbox
590.356063 61.866113 m
595.522294 61.866113 l
595.522294 159.775473 l
590.356063 159.775473 l
cl
0.769 0.306 0.322 setrgbcolor
fill
grestore
gsave
708.9 260.7 60.88 61.87 clipbox
596.813851 61.866113 m
601.980082 61.866113 l
601.980082 157.830666 l
596.813851 157.830666 l
cl
0.769 0.306 0.322 setrgbcolor
fill
grestore
gsave
708.9 260.7 60.88 61.87 clipbox
603.27164 61.866113 m
608.43787 61.866113 l
608.43787 49.479325 l
603.27164 49.479325 l
cl
0.769 0.306 0.322 setrgbcolor
fill
grestore
gsave
708.9 260.7 60.88 61.87 clipbox
609.729428 61.866113 m
614.895659 61.866113 l
614.895659 49.479325 l
609.729428 49.479325 l
cl
0.769 0.306 0.322 setrgbcolor
fill
grestore
gsave
708.9 260.7 60.88 61.87 clipbox
616.187216 61.866113 m
621.353447 61.866113 l
621.353447 65.008531 l
616.187216 65.008531 l
cl
0.769 0.306 0.322 setrgbcolor
fill
grestore
gsave
708.9 260.7 60.88 61.87 clipbox
622.645005 61.866113 m
627.811235 61.866113 l
627.811235 64.789984 l
622.645005 64.789984 l
cl
0.769 0.306 0.322 setrgbcolor
fill
grestore
gsave
708.9 260.7 60.88 61.87 clipbox
629.102793 61.866113 m
634.269024 61.866113 l
634.269024 64.782303 l
629.102793 64.782303 l
cl
0.769 0.306 0.322 setrgbcolor
fill
grestore
gsave
708.9 260.7 60.88 61.87 clipbox
635.560581 61.866113 m
640.726812 61.866113 l
640.726812 49.479325 l
635.560581 49.479325 l
cl
0.769 0.306 0.322 setrgbcolor
fill
grestore
gsave
708.9 260.7 60.88 61.87 clipbox
642.018369 61.866113 m
647.1846 61.866113 l
647.1846 49.479325 l
642.018369 49.479325 l
cl
0.769 0.306 0.322 setrgbcolor
fill
grestore
gsave
708.9 260.7 60.88 61.87 clipbox
648.476158 61.866113 m
653.642388 61.866113 l
653.642388 143.621492 l
648.476158 143.621492 l
cl
0.769 0.306 0.322 setrgbcolor
fill
grestore
gsave
708.9 260.7 60.88 61.87 clipbox
654.933946 61.866113 m
660.100177 61.866113 l
660.100177 114.855847 l
654.933946 114.855847 l
cl
0.769 0.306 0.322 setrgbcolor
fill
grestore
gsave
708.9 260.7 60.88 61.87 clipbox
661.391734 61.866113 m
666.557965 61.866113 l
666.557965 114.855847 l
661.391734 114.855847 l
cl
0.769 0.306 0.322 setrgbcolor
fill
grestore
gsave
708.9 260.7 60.88 61.87 clipbox
667.849523 61.866113 m
673.015753 61.866113 l
673.015753 49.479325 l
667.849523 49.479325 l
cl
0.769 0.306 0.322 setrgbcolor
fill
grestore
gsave
708.9 260.7 60.88 61.87 clipbox
674.307311 61.866113 m
679.473542 61.866113 l
679.473542 49.479325 l
674.307311 49.479325 l
cl
0.769 0.306 0.322 setrgbcolor
fill
grestore
gsave
708.9 260.7 60.88 61.87 clipbox
680.765099 61.866113 m
685.93133 61.866113 l
685.93133 217.475498 l
680.765099 217.475498 l
cl
0.769 0.306 0.322 setrgbcolor
fill
grestore
gsave
708.9 260.7 60.88 61.87 clipbox
687.222888 61.866113 m
692.389118 61.866113 l
692.389118 164.471684 l
687.222888 164.471684 l
cl
0.769 0.306 0.322 setrgbcolor
fill
grestore
gsave
708.9 260.7 60.88 61.87 clipbox
693.680676 61.866113 m
698.846907 61.866113 l
698.846907 171.453312 l
693.680676 171.453312 l
cl
0.769 0.306 0.322 setrgbcolor
fill
grestore
gsave
708.9 260.7 60.88 61.87 clipbox
700.138464 61.866113 m
705.304695 61.866113 l
705.304695 49.479325 l
700.138464 49.479325 l
cl
0.769 0.306 0.322 setrgbcolor
fill
grestore
gsave
708.9 260.7 60.88 61.87 clipbox
706.596253 61.866113 m
711.762483 61.866113 l
711.762483 49.479325 l
706.596253 49.479325 l
cl
0.769 0.306 0.322 setrgbcolor
fill
grestore
gsave
708.9 260.7 60.88 61.87 clipbox
713.054041 61.866113 m
718.220271 61.866113 l
718.220271 62.00311 l
713.054041 62.00311 l
cl
0.769 0.306 0.322 setrgbcolor
fill
grestore
gsave
708.9 260.7 60.88 61.87 clipbox
719.511829 61.866113 m
724.67806 61.866113 l
724.67806 62.14455 l
719.511829 62.14455 l
cl
0.769 0.306 0.322 setrgbcolor
fill
grestore
gsave
708.9 260.7 60.88 61.87 clipbox
725.969617 61.866113 m
731.135848 61.866113 l
731.135848 62.144551 l
725.969617 62.144551 l
cl
0.769 0.306 0.322 setrgbcolor
fill
grestore
gsave
708.9 260.7 60.88 61.87 clipbox
732.427406 61.866113 m
737.593636 61.866113 l
737.593636 49.479325 l
732.427406 49.479325 l
cl
0.769 0.306 0.322 setrgbcolor
fill
grestore
1.000 setlinewidth
0 setlinejoin
2 setlinecap
[] 0 setdash
0.800 setgray
gsave
60.882 61.866113 m
60.882 322.608 l
stroke
grestore
gsave
769.818 61.866113 m
769.818 322.608 l
stroke
grestore
gsave
60.882 61.866113 m
769.818 61.866113 l
stroke
grestore
gsave
60.882 322.608 m
769.818 322.608 l
stroke
grestore
0.150 setgray
/DejaVuSans-Bold findfont
20.000 scalefont
setfont
gsave
385.818750 328.608000 translate
0.000000 rotate
0.000000 0.000000 m /R glyphshow
15.400391 0.000000 m /a glyphshow
28.896484 0.000000 m /t glyphshow
38.457031 0.000000 m /i glyphshow
45.312500 0.000000 m /o glyphshow
grestore
gsave
780.618 206.549557 m
804.618 206.549557 l
804.618 214.949557 l
780.618 214.949557 l
cl
0.298 0.447 0.690 setrgbcolor
fill
grestore
/DejaVuSans findfont
12.000 scalefont
setfont
gsave
814.218000 206.549557 translate
0.000000 rotate
0.000000 0.000000 m /I glyphshow
3.539062 0.000000 m /N glyphshow
12.515625 0.000000 m /T glyphshow
grestore
gsave
780.618 188.924557 m
804.618 188.924557 l
804.618 197.324557 l
780.618 197.324557 l
cl
0.333 0.659 0.408 setrgbcolor
fill
grestore
gsave
814.218000 188.924557 translate
0.000000 rotate
0.000000 0.000000 m /F glyphshow
6.902344 0.000000 m /P glyphshow
14.138672 0.000000 m /three glyphshow
21.773438 0.000000 m /two glyphshow
grestore
gsave
780.618 171.299557 m
804.618 171.299557 l
804.618 179.699557 l
780.618 179.699557 l
cl
0.769 0.306 0.322 setrgbcolor
fill
grestore
gsave
814.218000 171.299557 translate
0.000000 rotate
0.000000 0.000000 m /F glyphshow
6.902344 0.000000 m /P glyphshow
14.138672 0.000000 m /six glyphshow
21.773438 0.000000 m /four glyphshow
grestore

end
showpage
