%!PS-Adobe-3.0 EPSF-3.0
%%Title: img/radar.eps
%%Creator: matplotlib version 2.2.2, http://matplotlib.org/
%%CreationDate: Fri Sep 28 16:31:10 2018
%%Orientation: portrait
%%BoundingBox: 90 180 522 612
%%EndComments
%%BeginProlog
/mpldict 8 dict def
mpldict begin
/m { moveto } bind def
/l { lineto } bind def
/r { rlineto } bind def
/c { curveto } bind def
/cl { closepath } bind def
/box {
m
1 index 0 r
0 exch r
neg 0 r
cl
} bind def
/clipbox {
box
clip
newpath
} bind def
%!PS-Adobe-3.0 Resource-Font
%%Title: DejaVu Sans
%%Copyright: Copyright (c) 2003 by Bitstream, Inc. All Rights Reserved. Copyright (c) 2006 by Tavmjong Bah. All Rights Reserved. DejaVu changes are in public domain 
%%Creator: Converted from TrueType to type 3 by PPR
25 dict begin
/_d{bind def}bind def
/_m{moveto}_d
/_l{lineto}_d
/_cl{closepath eofill}_d
/_c{curveto}_d
/_sc{7 -1 roll{setcachedevice}{pop pop pop pop pop pop}ifelse}_d
/_e{exec}_d
/FontName /DejaVuSans def
/PaintType 0 def
/FontMatrix[.001 0 0 .001 0 0]def
/FontBBox[-1021 -463 1793 1232]def
/FontType 3 def
/Encoding [ /space /percent /period /zero /one /two /three /four /five /six /seven /eight /nine /I /N /S /a /c /d /e /l /m /n /o /r /t /v ] def
/FontInfo 10 dict dup begin
/FamilyName (DejaVu Sans) def
/FullName (DejaVu Sans) def
/Notice (Copyright (c) 2003 by Bitstream, Inc. All Rights Reserved. Copyright (c) 2006 by Tavmjong Bah. All Rights Reserved. DejaVu changes are in public domain ) def
/Weight (Book) def
/Version (Version 2.35) def
/ItalicAngle 0.0 def
/isFixedPitch false def
/UnderlinePosition -130 def
/UnderlineThickness 90 def
end readonly def
/CharStrings 28 dict dup begin
/.notdef 0 def
/space{318 0 0 0 0 0 _sc
}_d
/percent{{950 0 55 -13 895 742 _sc
727 321 _m
699 321 676 309 660 285 _c
644 261 636 227 636 184 _c
636 142 644 108 660 84 _c
676 60 699 48 727 48 _c
755 48 777 60 793 84 _c
809 108 817 142 817 184 _c
817 226 809 260 793 284 _c
777 308 755 321 727 321 _c
727 383 _m
778 383 819 365 849 329 _c
879 293 895 244 895 184 _c
895 123 879 75 849 40 _c
819 4 778 -13 727 -13 _c
}_e{675 -13 633 4 603 40 _c
573 75 558 123 558 184 _c
558 245 573 293 603 329 _c
633 365 675 383 727 383 _c
223 680 _m
195 680 173 667 157 643 _c
141 619 133 586 133 544 _c
133 500 141 467 157 443 _c
173 419 195 407 223 407 _c
251 407 274 419 290 443 _c
306 467 314 500 314 544 _c
314 586 305 619 289 643 _c
273 667 251 680 223 680 _c
664 742 _m
742 742 _l
286 -13 _l
}_e{208 -13 _l
664 742 _l
223 742 _m
274 742 315 724 346 688 _c
376 652 392 604 392 544 _c
392 482 376 434 346 398 _c
316 362 275 345 223 345 _c
171 345 130 362 100 398 _c
70 434 55 482 55 544 _c
55 604 70 652 100 688 _c
130 724 171 742 223 742 _c
_cl}_e}_d
/period{318 0 107 0 210 124 _sc
107 124 _m
210 124 _l
210 0 _l
107 0 _l
107 124 _l
_cl}_d
/zero{636 0 66 -13 570 742 _sc
318 664 _m
267 664 229 639 203 589 _c
177 539 165 464 165 364 _c
165 264 177 189 203 139 _c
229 89 267 64 318 64 _c
369 64 407 89 433 139 _c
458 189 471 264 471 364 _c
471 464 458 539 433 589 _c
407 639 369 664 318 664 _c
318 742 _m
399 742 461 709 505 645 _c
548 580 570 486 570 364 _c
570 241 548 147 505 83 _c
461 19 399 -13 318 -13 _c
236 -13 173 19 130 83 _c
87 147 66 241 66 364 _c
66 486 87 580 130 645 _c
173 709 236 742 318 742 _c
_cl}_d
/one{636 0 110 0 544 729 _sc
124 83 _m
285 83 _l
285 639 _l
110 604 _l
110 694 _l
284 729 _l
383 729 _l
383 83 _l
544 83 _l
544 0 _l
124 0 _l
124 83 _l
_cl}_d
/two{{636 0 73 0 536 742 _sc
192 83 _m
536 83 _l
536 0 _l
73 0 _l
73 83 _l
110 121 161 173 226 239 _c
290 304 331 346 348 365 _c
380 400 402 430 414 455 _c
426 479 433 504 433 528 _c
433 566 419 598 392 622 _c
365 646 330 659 286 659 _c
255 659 222 653 188 643 _c
154 632 117 616 78 594 _c
78 694 _l
118 710 155 722 189 730 _c
223 738 255 742 284 742 _c
}_e{359 742 419 723 464 685 _c
509 647 532 597 532 534 _c
532 504 526 475 515 449 _c
504 422 484 390 454 354 _c
446 344 420 317 376 272 _c
332 227 271 164 192 83 _c
_cl}_e}_d
/three{{636 0 76 -13 556 742 _sc
406 393 _m
453 383 490 362 516 330 _c
542 298 556 258 556 212 _c
556 140 531 84 482 45 _c
432 6 362 -13 271 -13 _c
240 -13 208 -10 176 -4 _c
144 1 110 10 76 22 _c
76 117 _l
103 101 133 89 166 81 _c
198 73 232 69 268 69 _c
330 69 377 81 409 105 _c
441 129 458 165 458 212 _c
458 254 443 288 413 312 _c
383 336 341 349 287 349 _c
}_e{202 349 _l
202 430 _l
291 430 _l
339 430 376 439 402 459 _c
428 478 441 506 441 543 _c
441 580 427 609 401 629 _c
374 649 336 659 287 659 _c
260 659 231 656 200 650 _c
169 644 135 635 98 623 _c
98 711 _l
135 721 170 729 203 734 _c
235 739 266 742 296 742 _c
370 742 429 725 473 691 _c
517 657 539 611 539 553 _c
539 513 527 479 504 451 _c
481 423 448 403 406 393 _c
_cl}_e}_d
/four{636 0 49 0 580 729 _sc
378 643 _m
129 254 _l
378 254 _l
378 643 _l
352 729 _m
476 729 _l
476 254 _l
580 254 _l
580 172 _l
476 172 _l
476 0 _l
378 0 _l
378 172 _l
49 172 _l
49 267 _l
352 729 _l
_cl}_d
/five{{636 0 77 -13 549 729 _sc
108 729 _m
495 729 _l
495 646 _l
198 646 _l
198 467 _l
212 472 227 476 241 478 _c
255 480 270 482 284 482 _c
365 482 429 459 477 415 _c
525 370 549 310 549 234 _c
549 155 524 94 475 51 _c
426 8 357 -13 269 -13 _c
238 -13 207 -10 175 -6 _c
143 -1 111 6 77 17 _c
77 116 _l
106 100 136 88 168 80 _c
199 72 232 69 267 69 _c
}_e{323 69 368 83 401 113 _c
433 143 450 183 450 234 _c
450 284 433 324 401 354 _c
368 384 323 399 267 399 _c
241 399 214 396 188 390 _c
162 384 135 375 108 363 _c
108 729 _l
_cl}_e}_d
/six{{636 0 70 -13 573 742 _sc
330 404 _m
286 404 251 388 225 358 _c
199 328 186 286 186 234 _c
186 181 199 139 225 109 _c
251 79 286 64 330 64 _c
374 64 409 79 435 109 _c
461 139 474 181 474 234 _c
474 286 461 328 435 358 _c
409 388 374 404 330 404 _c
526 713 _m
526 623 _l
501 635 476 644 451 650 _c
425 656 400 659 376 659 _c
310 659 260 637 226 593 _c
}_e{192 549 172 482 168 394 _c
187 422 211 444 240 459 _c
269 474 301 482 336 482 _c
409 482 467 459 509 415 _c
551 371 573 310 573 234 _c
573 159 550 99 506 54 _c
462 9 403 -13 330 -13 _c
246 -13 181 19 137 83 _c
92 147 70 241 70 364 _c
70 479 97 571 152 639 _c
206 707 280 742 372 742 _c
396 742 421 739 447 735 _c
472 730 498 723 526 713 _c
_cl}_e}_d
/seven{636 0 82 0 551 729 _sc
82 729 _m
551 729 _l
551 687 _l
286 0 _l
183 0 _l
432 646 _l
82 646 _l
82 729 _l
_cl}_d
/eight{{636 0 68 -13 568 742 _sc
318 346 _m
271 346 234 333 207 308 _c
180 283 167 249 167 205 _c
167 161 180 126 207 101 _c
234 76 271 64 318 64 _c
364 64 401 76 428 102 _c
455 127 469 161 469 205 _c
469 249 455 283 429 308 _c
402 333 365 346 318 346 _c
219 388 _m
177 398 144 418 120 447 _c
96 476 85 511 85 553 _c
85 611 105 657 147 691 _c
188 725 245 742 318 742 _c
}_e{390 742 447 725 489 691 _c
530 657 551 611 551 553 _c
551 511 539 476 515 447 _c
491 418 459 398 417 388 _c
464 377 501 355 528 323 _c
554 291 568 251 568 205 _c
568 134 546 80 503 43 _c
459 5 398 -13 318 -13 _c
237 -13 175 5 132 43 _c
89 80 68 134 68 205 _c
68 251 81 291 108 323 _c
134 355 171 377 219 388 _c
183 544 _m
183 506 194 476 218 455 _c
}_e{242 434 275 424 318 424 _c
360 424 393 434 417 455 _c
441 476 453 506 453 544 _c
453 582 441 611 417 632 _c
393 653 360 664 318 664 _c
275 664 242 653 218 632 _c
194 611 183 582 183 544 _c
_cl}_e}_d
/nine{{636 0 63 -13 566 742 _sc
110 15 _m
110 105 _l
134 93 159 84 185 78 _c
210 72 235 69 260 69 _c
324 69 374 90 408 134 _c
442 178 462 244 468 334 _c
448 306 424 284 396 269 _c
367 254 335 247 300 247 _c
226 247 168 269 126 313 _c
84 357 63 417 63 494 _c
63 568 85 628 129 674 _c
173 719 232 742 306 742 _c
390 742 455 709 499 645 _c
543 580 566 486 566 364 _c
}_e{566 248 538 157 484 89 _c
429 21 356 -13 264 -13 _c
239 -13 214 -10 189 -6 _c
163 -2 137 5 110 15 _c
306 324 _m
350 324 385 339 411 369 _c
437 399 450 441 450 494 _c
450 546 437 588 411 618 _c
385 648 350 664 306 664 _c
262 664 227 648 201 618 _c
175 588 162 546 162 494 _c
162 441 175 399 201 369 _c
227 339 262 324 306 324 _c
_cl}_e}_d
/I{295 0 98 0 197 729 _sc
98 729 _m
197 729 _l
197 0 _l
98 0 _l
98 729 _l
_cl}_d
/N{748 0 98 0 650 729 _sc
98 729 _m
231 729 _l
554 119 _l
554 729 _l
650 729 _l
650 0 _l
517 0 _l
194 610 _l
194 0 _l
98 0 _l
98 729 _l
_cl}_d
/S{{635 0 66 -13 579 742 _sc
535 705 _m
535 609 _l
497 627 462 640 429 649 _c
395 657 363 662 333 662 _c
279 662 237 651 208 631 _c
179 610 165 580 165 542 _c
165 510 174 485 194 469 _c
213 452 250 439 304 429 _c
364 417 _l
437 403 491 378 526 343 _c
561 307 579 260 579 201 _c
579 130 555 77 508 41 _c
460 5 391 -13 300 -13 _c
265 -13 228 -9 189 -2 _c
}_e{150 5 110 16 69 32 _c
69 134 _l
109 111 148 94 186 83 _c
224 71 262 66 300 66 _c
356 66 399 77 430 99 _c
460 121 476 152 476 194 _c
476 230 465 258 443 278 _c
421 298 385 313 335 323 _c
275 335 _l
201 349 148 372 115 404 _c
82 435 66 478 66 534 _c
66 598 88 649 134 686 _c
179 723 242 742 322 742 _c
356 742 390 739 426 733 _c
461 727 497 717 535 705 _c
}_e{_cl}_e}_d
/a{{613 0 60 -13 522 560 _sc
343 275 _m
270 275 220 266 192 250 _c
164 233 150 205 150 165 _c
150 133 160 107 181 89 _c
202 70 231 61 267 61 _c
317 61 357 78 387 114 _c
417 149 432 196 432 255 _c
432 275 _l
343 275 _l
522 312 _m
522 0 _l
432 0 _l
432 83 _l
411 49 385 25 355 10 _c
325 -5 287 -13 243 -13 _c
187 -13 142 2 109 33 _c
76 64 60 106 60 159 _c
}_e{60 220 80 266 122 298 _c
163 329 224 345 306 345 _c
432 345 _l
432 354 _l
432 395 418 427 391 450 _c
364 472 326 484 277 484 _c
245 484 215 480 185 472 _c
155 464 127 453 100 439 _c
100 522 _l
132 534 164 544 195 550 _c
226 556 256 560 286 560 _c
365 560 424 539 463 498 _c
502 457 522 395 522 312 _c
_cl}_e}_d
/c{{550 0 55 -13 488 560 _sc
488 526 _m
488 442 _l
462 456 437 466 411 473 _c
385 480 360 484 334 484 _c
276 484 230 465 198 428 _c
166 391 150 339 150 273 _c
150 206 166 154 198 117 _c
230 80 276 62 334 62 _c
360 62 385 65 411 72 _c
437 79 462 90 488 104 _c
488 21 _l
462 9 436 0 410 -5 _c
383 -10 354 -13 324 -13 _c
242 -13 176 12 128 64 _c
}_e{79 115 55 185 55 273 _c
55 362 79 432 128 483 _c
177 534 244 560 330 560 _c
358 560 385 557 411 551 _c
437 545 463 537 488 526 _c
_cl}_e}_d
/d{{635 0 55 -13 544 760 _sc
454 464 _m
454 760 _l
544 760 _l
544 0 _l
454 0 _l
454 82 _l
435 49 411 25 382 10 _c
353 -5 319 -13 279 -13 _c
213 -13 159 13 117 65 _c
75 117 55 187 55 273 _c
55 359 75 428 117 481 _c
159 533 213 560 279 560 _c
319 560 353 552 382 536 _c
411 520 435 496 454 464 _c
148 273 _m
148 207 161 155 188 117 _c
215 79 253 61 301 61 _c
}_e{348 61 385 79 413 117 _c
440 155 454 207 454 273 _c
454 339 440 390 413 428 _c
385 466 348 485 301 485 _c
253 485 215 466 188 428 _c
161 390 148 339 148 273 _c
_cl}_e}_d
/e{{615 0 55 -13 562 560 _sc
562 296 _m
562 252 _l
149 252 _l
153 190 171 142 205 110 _c
238 78 284 62 344 62 _c
378 62 412 66 444 74 _c
476 82 509 95 541 113 _c
541 28 _l
509 14 476 3 442 -3 _c
408 -9 373 -13 339 -13 _c
251 -13 182 12 131 62 _c
80 112 55 181 55 268 _c
55 357 79 428 127 481 _c
175 533 241 560 323 560 _c
397 560 455 536 498 489 _c
}_e{540 441 562 377 562 296 _c
472 322 _m
471 371 457 410 431 440 _c
404 469 368 484 324 484 _c
274 484 234 469 204 441 _c
174 413 156 373 152 322 _c
472 322 _l
_cl}_e}_d
/l{278 0 94 0 184 760 _sc
94 760 _m
184 760 _l
184 0 _l
94 0 _l
94 760 _l
_cl}_d
/m{{974 0 91 0 889 560 _sc
520 442 _m
542 482 569 511 600 531 _c
631 550 668 560 711 560 _c
767 560 811 540 842 500 _c
873 460 889 403 889 330 _c
889 0 _l
799 0 _l
799 327 _l
799 379 789 418 771 444 _c
752 469 724 482 686 482 _c
639 482 602 466 575 435 _c
548 404 535 362 535 309 _c
535 0 _l
445 0 _l
445 327 _l
445 379 435 418 417 444 _c
398 469 369 482 331 482 _c
}_e{285 482 248 466 221 435 _c
194 404 181 362 181 309 _c
181 0 _l
91 0 _l
91 547 _l
181 547 _l
181 462 _l
201 495 226 520 255 536 _c
283 552 317 560 357 560 _c
397 560 430 550 458 530 _c
486 510 506 480 520 442 _c
_cl}_e}_d
/n{634 0 91 0 549 560 _sc
549 330 _m
549 0 _l
459 0 _l
459 327 _l
459 379 448 417 428 443 _c
408 469 378 482 338 482 _c
289 482 251 466 223 435 _c
195 404 181 362 181 309 _c
181 0 _l
91 0 _l
91 547 _l
181 547 _l
181 462 _l
202 494 227 519 257 535 _c
286 551 320 560 358 560 _c
420 560 468 540 500 501 _c
532 462 549 405 549 330 _c
_cl}_d
/o{612 0 55 -13 557 560 _sc
306 484 _m
258 484 220 465 192 427 _c
164 389 150 338 150 273 _c
150 207 163 156 191 118 _c
219 80 257 62 306 62 _c
354 62 392 80 420 118 _c
448 156 462 207 462 273 _c
462 337 448 389 420 427 _c
392 465 354 484 306 484 _c
306 560 _m
384 560 445 534 490 484 _c
534 433 557 363 557 273 _c
557 183 534 113 490 63 _c
445 12 384 -13 306 -13 _c
227 -13 165 12 121 63 _c
77 113 55 183 55 273 _c
55 363 77 433 121 484 _c
165 534 227 560 306 560 _c
_cl}_d
/r{411 0 91 0 411 560 _sc
411 463 _m
401 469 390 473 378 476 _c
366 478 353 480 339 480 _c
288 480 249 463 222 430 _c
194 397 181 350 181 288 _c
181 0 _l
91 0 _l
91 547 _l
181 547 _l
181 462 _l
199 495 224 520 254 536 _c
284 552 321 560 365 560 _c
371 560 378 559 386 559 _c
393 558 401 557 411 555 _c
411 463 _l
_cl}_d
/t{392 0 27 0 368 702 _sc
183 702 _m
183 547 _l
368 547 _l
368 477 _l
183 477 _l
183 180 _l
183 135 189 106 201 94 _c
213 81 238 75 276 75 _c
368 75 _l
368 0 _l
276 0 _l
206 0 158 13 132 39 _c
106 65 93 112 93 180 _c
93 477 _l
27 477 _l
27 547 _l
93 547 _l
93 702 _l
183 702 _l
_cl}_d
/v{592 0 30 0 562 547 _sc
30 547 _m
125 547 _l
296 88 _l
467 547 _l
562 547 _l
357 0 _l
235 0 _l
30 547 _l
_cl}_d
end readonly def

/BuildGlyph
 {exch begin
 CharStrings exch
 2 copy known not{pop /.notdef}if
 true 3 1 roll get exec
 end}_d

/BuildChar {
 1 index /Encoding get exch get
 1 index /BuildGlyph get exec
}_d

FontName currentdict end definefont pop
end
%%EndProlog
mpldict begin
90 180 translate
432 432 0 0 clipbox
gsave
0 0 m
432 0 l
432 432 l
0 432 l
cl
1.000 setgray
fill
grestore
gsave
432 237.6 m
432 263.128374 426.971467 288.408517 417.202181 311.993659 c
407.432895 335.578802 393.112845 357.010272 375.061558 375.061558 c
357.010272 393.112845 335.578802 407.432895 311.993659 417.202181 c
288.408517 426.971467 263.128374 432 237.6 432 c
212.071626 432 186.791483 426.971467 163.206341 417.202181 c
139.621198 407.432895 118.189728 393.112845 100.138442 375.061558 c
82.087155 357.010272 67.767105 335.578802 57.997819 311.993659 c
48.228533 288.408517 43.2 263.128374 43.2 237.6 c
43.2 212.071626 48.228533 186.791483 57.997819 163.206341 c
67.767105 139.621198 82.087155 118.189728 100.138442 100.138442 c
118.189728 82.087155 139.621198 67.767105 163.206341 57.997819 c
186.791483 48.228533 212.071626 43.2 237.6 43.2 c
263.128374 43.2 288.408517 48.228533 311.993659 57.997819 c
335.578802 67.767105 357.010272 82.087155 375.061558 100.138442 c
393.112845 118.189728 407.432895 139.621198 417.202181 163.206341 c
426.971467 186.791483 432 212.071626 432 237.6 c
237.6 237.6 m
237.6 237.6 237.6 237.6 237.6 237.6 c
237.6 237.6 237.6 237.6 237.6 237.6 c
237.6 237.6 237.6 237.6 237.6 237.6 c
237.6 237.6 237.6 237.6 237.6 237.6 c
237.6 237.6 237.6 237.6 237.6 237.6 c
237.6 237.6 237.6 237.6 237.6 237.6 c
237.6 237.6 237.6 237.6 237.6 237.6 c
237.6 237.6 237.6 237.6 237.6 237.6 c
237.6 237.6 237.6 237.6 237.6 237.6 c
237.6 237.6 237.6 237.6 237.6 237.6 c
237.6 237.6 237.6 237.6 237.6 237.6 c
237.6 237.6 237.6 237.6 237.6 237.6 c
237.6 237.6 237.6 237.6 237.6 237.6 c
237.6 237.6 237.6 237.6 237.6 237.6 c
237.6 237.6 237.6 237.6 237.6 237.6 c
237.6 237.6 237.6 237.6 237.6 237.6 c
432 237.6 m
cl
1.000 setgray
fill
grestore
gsave
/c0 {
432 237.6 m
432 263.128374 426.971467 288.408517 417.202181 311.993659 c
407.432895 335.578802 393.112845 357.010272 375.061558 375.061558 c
357.010272 393.112845 335.578802 407.432895 311.993659 417.202181 c
288.408517 426.971467 263.128374 432 237.6 432 c
212.071626 432 186.791483 426.971467 163.206341 417.202181 c
139.621198 407.432895 118.189728 393.112845 100.138442 375.061558 c
82.087155 357.010272 67.767105 335.578802 57.997819 311.993659 c
48.228533 288.408517 43.2 263.128374 43.2 237.6 c
43.2 212.071626 48.228533 186.791483 57.997819 163.206341 c
67.767105 139.621198 82.087155 118.189728 100.138442 100.138442 c
118.189728 82.087155 139.621198 67.767105 163.206341 57.997819 c
186.791483 48.228533 212.071626 43.2 237.6 43.2 c
263.128374 43.2 288.408517 48.228533 311.993659 57.997819 c
335.578802 67.767105 357.010272 82.087155 375.061558 100.138442 c
393.112845 118.189728 407.432895 139.621198 417.202181 163.206341 c
426.971467 186.791483 432 212.071626 432 237.6 c
237.6 237.6 m
237.6 237.6 237.6 237.6 237.6 237.6 c
237.6 237.6 237.6 237.6 237.6 237.6 c
237.6 237.6 237.6 237.6 237.6 237.6 c
237.6 237.6 237.6 237.6 237.6 237.6 c
237.6 237.6 237.6 237.6 237.6 237.6 c
237.6 237.6 237.6 237.6 237.6 237.6 c
237.6 237.6 237.6 237.6 237.6 237.6 c
237.6 237.6 237.6 237.6 237.6 237.6 c
237.6 237.6 237.6 237.6 237.6 237.6 c
237.6 237.6 237.6 237.6 237.6 237.6 c
237.6 237.6 237.6 237.6 237.6 237.6 c
237.6 237.6 237.6 237.6 237.6 237.6 c
237.6 237.6 237.6 237.6 237.6 237.6 c
237.6 237.6 237.6 237.6 237.6 237.6 c
237.6 237.6 237.6 237.6 237.6 237.6 c
237.6 237.6 237.6 237.6 237.6 237.6 c
432 237.6 m
cl

clip
newpath
} bind def
c0
384.283636 237.6 m
278.002139 288.26268 l
232.192741 261.290748 l
68.70695 318.934606 l
86.335518 164.754865 l
194.850849 50.303731 l
345.339038 102.49952 l
cl
0.122 0.467 0.706 setrgbcolor
fill
grestore
0.800 setlinewidth
1 setlinejoin
2 setlinecap
[] 0 setdash
0.690 setgray
gsave
c0
237.6 237.6 m
432 237.6 l
stroke
grestore
0.000 setgray
/DejaVuSans findfont
10.000 scalefont
setfont
gsave
412.765625 234.842188 translate
0.000000 rotate
0.000000 0.000000 m /N glyphshow
7.480469 0.000000 m /o glyphshow
13.598633 0.000000 m /r glyphshow
17.709961 0.000000 m /m glyphshow
27.451172 0.000000 m /a glyphshow
33.579102 0.000000 m /l glyphshow
36.357422 0.000000 m /space glyphshow
39.536133 0.000000 m /S glyphshow
45.883789 0.000000 m /c glyphshow
51.381836 0.000000 m /a glyphshow
57.509766 0.000000 m /l glyphshow
60.288086 0.000000 m /e glyphshow
grestore
0.690 setgray
gsave
c0
237.6 237.6 m
358.806417 389.58804 l
stroke
grestore
0.000 setgray
gsave
331.535275 397.775868 translate
0.000000 rotate
0.000000 0.000000 m /I glyphshow
2.949219 0.000000 m /n glyphshow
9.287109 0.000000 m /v glyphshow
15.205078 0.000000 m /e glyphshow
21.357422 0.000000 m /r glyphshow
25.468750 0.000000 m /t glyphshow
29.389648 0.000000 m /e glyphshow
35.541992 0.000000 m /d glyphshow
41.889648 0.000000 m /space glyphshow
45.068359 0.000000 m /S glyphshow
51.416016 0.000000 m /c glyphshow
56.914062 0.000000 m /a glyphshow
63.041992 0.000000 m /l glyphshow
65.820312 0.000000 m /e glyphshow
grestore
0.690 setgray
gsave
c0
237.6 237.6 m
194.34193 427.125986 l
stroke
grestore
0.000 setgray
gsave
165.500075 438.017164 translate
0.000000 rotate
0.000000 0.000000 m /I glyphshow
2.949219 0.000000 m /n glyphshow
9.287109 0.000000 m /v glyphshow
15.205078 0.000000 m /e glyphshow
21.357422 0.000000 m /r glyphshow
25.468750 0.000000 m /t glyphshow
29.389648 0.000000 m /e glyphshow
35.541992 0.000000 m /d glyphshow
41.889648 0.000000 m /space glyphshow
45.068359 0.000000 m /two glyphshow
grestore
0.690 setgray
gsave
c0
237.6 237.6 m
62.451652 321.946999 l
stroke
grestore
0.000 setgray
gsave
11.830275 325.263559 translate
0.000000 rotate
0.000000 0.000000 m /N glyphshow
7.480469 0.000000 m /o glyphshow
13.598633 0.000000 m /r glyphshow
17.709961 0.000000 m /m glyphshow
27.451172 0.000000 m /a glyphshow
33.579102 0.000000 m /l glyphshow
36.357422 0.000000 m /space glyphshow
39.536133 0.000000 m /S glyphshow
45.883789 0.000000 m /c glyphshow
51.381836 0.000000 m /a glyphshow
57.509766 0.000000 m /l glyphshow
60.288086 0.000000 m /e glyphshow
66.440430 0.000000 m /space glyphshow
69.619141 0.000000 m /two glyphshow
grestore
0.690 setgray
gsave
c0
237.6 237.6 m
62.451652 153.253001 l
stroke
grestore
0.000 setgray
gsave
26.877150 144.420816 translate
0.000000 rotate
0.000000 0.000000 m /N glyphshow
7.480469 0.000000 m /o glyphshow
13.598633 0.000000 m /r glyphshow
17.709961 0.000000 m /m glyphshow
27.451172 0.000000 m /a glyphshow
33.579102 0.000000 m /l glyphshow
36.357422 0.000000 m /space glyphshow
39.536133 0.000000 m /three glyphshow
grestore
0.690 setgray
gsave
c0
237.6 237.6 m
194.34193 48.074014 l
stroke
grestore
0.000 setgray
gsave
161.921950 31.667211 translate
0.000000 rotate
0.000000 0.000000 m /N glyphshow
7.480469 0.000000 m /o glyphshow
13.598633 0.000000 m /r glyphshow
17.709961 0.000000 m /m glyphshow
27.451172 0.000000 m /a glyphshow
33.579102 0.000000 m /l glyphshow
36.357422 0.000000 m /space glyphshow
39.536133 0.000000 m /four glyphshow
45.898438 0.000000 m /space glyphshow
49.077148 0.000000 m /percent glyphshow
grestore
0.690 setgray
gsave
c0
237.6 237.6 m
358.806417 85.61196 l
stroke
grestore
0.000 setgray
gsave
335.464962 71.908507 translate
0.000000 rotate
0.000000 0.000000 m /I glyphshow
2.949219 0.000000 m /n glyphshow
9.287109 0.000000 m /v glyphshow
15.205078 0.000000 m /e glyphshow
21.357422 0.000000 m /r glyphshow
25.468750 0.000000 m /t glyphshow
29.389648 0.000000 m /e glyphshow
35.541992 0.000000 m /d glyphshow
41.889648 0.000000 m /space glyphshow
45.068359 0.000000 m /three glyphshow
51.430664 0.000000 m /space glyphshow
54.609375 0.000000 m /percent glyphshow
grestore
0.690 setgray
gsave
c0
237.6 237.6 m
237.6 237.6 l
stroke
grestore
gsave
c0
276.48 237.6 m
276.38529 240.312132 l
276.101623 243.01105 l
275.630379 245.683607 l
274.973855 248.31678 l
274.135249 250.897743 l
273.118647 253.413921 l
271.929002 255.853054 l
270.57211 258.203261 l
269.054581 260.453091 l
267.383808 262.591582 l
265.567931 264.608317 l
263.615798 266.493471 l
261.536918 268.237858 l
259.34142 269.832981 l
257.04 271.271068 l
254.64387 272.545113 l
252.164704 273.648908 l
249.614581 274.577077 l
247.005923 275.325098 l
244.351441 275.889325 l
241.664067 276.267011 l
238.956892 276.456315 l
236.243108 276.456315 l
233.535933 276.267011 l
230.848559 275.889325 l
228.194077 275.325098 l
225.585419 274.577077 l
223.035296 273.648908 l
220.55613 272.545113 l
218.16 271.271068 l
215.85858 269.832981 l
213.663082 268.237858 l
211.584202 266.493471 l
209.632069 264.608317 l
207.816192 262.591582 l
206.145419 260.453091 l
204.62789 258.203261 l
203.270998 255.853054 l
202.081353 253.413921 l
201.064751 250.897743 l
200.226145 248.31678 l
199.569621 245.683607 l
199.098377 243.01105 l
198.81471 240.312132 l
198.72 237.6 l
198.81471 234.887868 l
199.098377 232.18895 l
199.569621 229.516393 l
200.226145 226.88322 l
201.064751 224.302257 l
202.081353 221.786079 l
203.270998 219.346946 l
204.62789 216.996739 l
206.145419 214.746909 l
207.816192 212.608418 l
209.632069 210.591683 l
211.584202 208.706529 l
213.663082 206.962142 l
215.85858 205.367019 l
218.16 203.928932 l
220.55613 202.654887 l
223.035296 201.551092 l
225.585419 200.622923 l
228.194077 199.874902 l
230.848559 199.310675 l
233.535933 198.932989 l
236.243108 198.743685 l
238.956892 198.743685 l
241.664067 198.932989 l
244.351441 199.310675 l
247.005923 199.874902 l
249.614581 200.622923 l
252.164704 201.551092 l
254.64387 202.654887 l
257.04 203.928932 l
259.34142 205.367019 l
261.536918 206.962142 l
263.615798 208.706529 l
265.567931 210.591683 l
267.383808 212.608418 l
269.054581 214.746909 l
270.57211 216.996739 l
271.929002 219.346946 l
273.118647 221.786079 l
274.135249 224.302257 l
274.973855 226.88322 l
275.630379 229.516393 l
276.101623 232.18895 l
276.38529 234.887868 l
276.48 237.6 l
276.48 237.6 l
stroke
grestore
0.000 setgray
gsave
276.480000 239.678125 translate
0.000000 rotate
0.000000 0.000000 m /zero glyphshow
6.362305 0.000000 m /period glyphshow
9.541016 0.000000 m /five glyphshow
15.903320 0.000000 m /four glyphshow
grestore
0.690 setgray
gsave
c0
315.36 237.6 m
315.170581 243.024263 l
314.603245 248.4221 l
313.660757 253.767213 l
312.347709 259.033561 l
310.670498 264.195486 l
308.637295 269.227841 l
306.258005 274.106109 l
303.54422 278.806522 l
300.509161 283.306181 l
297.167616 287.583165 l
293.535863 291.616635 l
289.631596 295.386942 l
285.473836 298.875716 l
281.08284 302.065962 l
276.48 304.942135 l
271.68774 307.490225 l
266.729409 309.697817 l
261.629161 311.554155 l
256.411847 313.050196 l
251.102882 314.178651 l
245.728133 314.934023 l
240.313785 315.312631 l
234.886215 315.312631 l
229.471867 314.934023 l
224.097118 314.178651 l
218.788153 313.050196 l
213.570839 311.554155 l
208.470591 309.697817 l
203.51226 307.490225 l
198.72 304.942135 l
194.11716 302.065962 l
189.726164 298.875716 l
185.568404 295.386942 l
181.664137 291.616635 l
178.032384 287.583165 l
174.690839 283.306181 l
171.65578 278.806522 l
168.941995 274.106109 l
166.562705 269.227841 l
164.529502 264.195486 l
162.852291 259.033561 l
161.539243 253.767213 l
160.596755 248.4221 l
160.029419 243.024263 l
159.84 237.6 l
160.029419 232.175737 l
160.596755 226.7779 l
161.539243 221.432787 l
162.852291 216.166439 l
164.529502 211.004514 l
166.562705 205.972159 l
168.941995 201.093891 l
171.65578 196.393478 l
174.690839 191.893819 l
178.032384 187.616835 l
181.664137 183.583365 l
185.568404 179.813058 l
189.726164 176.324284 l
194.11716 173.134038 l
198.72 170.257865 l
203.51226 167.709775 l
208.470591 165.502183 l
213.570839 163.645845 l
218.788153 162.149804 l
224.097118 161.021349 l
229.471867 160.265977 l
234.886215 159.887369 l
240.313785 159.887369 l
245.728133 160.265977 l
251.102882 161.021349 l
256.411847 162.149804 l
261.629161 163.645845 l
266.729409 165.502183 l
271.68774 167.709775 l
276.48 170.257865 l
281.08284 173.134038 l
285.473836 176.324284 l
289.631596 179.813058 l
293.535863 183.583365 l
297.167616 187.616835 l
300.509161 191.893819 l
303.54422 196.393478 l
306.258005 201.093891 l
308.637295 205.972159 l
310.670498 211.004514 l
312.347709 216.166439 l
313.660757 221.432787 l
314.603245 226.7779 l
315.170581 232.175737 l
315.36 237.6 l
315.36 237.6 l
stroke
grestore
0.000 setgray
gsave
315.360000 239.678125 translate
0.000000 rotate
0.000000 0.000000 m /zero glyphshow
6.362305 0.000000 m /period glyphshow
9.541016 0.000000 m /nine glyphshow
15.903320 0.000000 m /eight glyphshow
grestore
0.690 setgray
gsave
c0
354.24 237.6 m
354.168946 241.670677 l
353.955871 245.736395 l
353.601034 249.7922 l
353.104868 253.83315 l
352.467976 257.854323 l
351.691136 261.85082 l
350.775294 265.81777 l
349.721564 269.750341 l
348.531232 273.643742 l
347.205747 277.49323 l
345.746725 281.294113 l
344.155942 285.041762 l
342.435338 288.731611 l
340.587007 292.359163 l
338.613203 295.92 l
336.51633 299.409783 l
334.298942 302.82426 l
331.963742 306.159272 l
329.513574 309.410754 l
326.951424 312.574747 l
324.280412 315.647394 l
321.503794 318.624952 l
318.624952 321.503794 l
315.647394 324.280412 l
312.574747 326.951424 l
309.410754 329.513574 l
306.159272 331.963742 l
302.82426 334.298942 l
299.409783 336.51633 l
295.92 338.613203 l
292.359163 340.587007 l
288.731611 342.435338 l
285.041762 344.155942 l
281.294113 345.746725 l
277.49323 347.205747 l
273.643742 348.531232 l
269.750341 349.721564 l
265.81777 350.775294 l
261.85082 351.691136 l
257.854323 352.467976 l
253.83315 353.104868 l
249.7922 353.601034 l
245.736395 353.955871 l
241.670677 354.168946 l
237.6 354.24 l
233.529323 354.168946 l
229.463605 353.955871 l
225.4078 353.601034 l
221.36685 353.104868 l
217.345677 352.467976 l
213.34918 351.691136 l
209.38223 350.775294 l
205.449659 349.721564 l
201.556258 348.531232 l
197.70677 347.205747 l
193.905887 345.746725 l
190.158238 344.155942 l
186.468389 342.435338 l
182.840837 340.587007 l
179.28 338.613203 l
175.790217 336.51633 l
172.37574 334.298942 l
169.040728 331.963742 l
165.789246 329.513574 l
162.625253 326.951424 l
159.552606 324.280412 l
156.575048 321.503794 l
153.696206 318.624952 l
150.919588 315.647394 l
148.248576 312.574747 l
145.686426 309.410754 l
143.236258 306.159272 l
140.901058 302.82426 l
138.68367 299.409783 l
136.586797 295.92 l
134.612993 292.359163 l
132.764662 288.731611 l
131.044058 285.041762 l
129.453275 281.294113 l
127.994253 277.49323 l
126.668768 273.643742 l
125.478436 269.750341 l
124.424706 265.81777 l
123.508864 261.85082 l
122.732024 257.854323 l
122.095132 253.83315 l
121.598966 249.7922 l
121.244129 245.736395 l
121.031054 241.670677 l
120.96 237.6 l
121.031054 233.529323 l
121.244129 229.463605 l
121.598966 225.4078 l
122.095132 221.36685 l
122.732024 217.345677 l
123.508864 213.34918 l
124.424706 209.38223 l
125.478436 205.449659 l
126.668768 201.556258 l
127.994253 197.70677 l
129.453275 193.905887 l
131.044058 190.158238 l
132.764662 186.468389 l
134.612993 182.840837 l
136.586797 179.28 l
138.68367 175.790217 l
140.901058 172.37574 l
143.236258 169.040728 l
145.686426 165.789246 l
148.248576 162.625253 l
150.919588 159.552606 l
153.696206 156.575048 l
156.575048 153.696206 l
159.552606 150.919588 l
162.625253 148.248576 l
165.789246 145.686426 l
169.040728 143.236258 l
172.37574 140.901058 l
175.790217 138.68367 l
179.28 136.586797 l
182.840837 134.612993 l
186.468389 132.764662 l
190.158238 131.044058 l
193.905887 129.453275 l
197.70677 127.994253 l
201.556258 126.668768 l
205.449659 125.478436 l
209.38223 124.424706 l
213.34918 123.508864 l
217.345677 122.732024 l
221.36685 122.095132 l
225.4078 121.598966 l
229.463605 121.244129 l
233.529323 121.031054 l
237.6 120.96 l
241.670677 121.031054 l
245.736395 121.244129 l
249.7922 121.598966 l
253.83315 122.095132 l
257.854323 122.732024 l
261.85082 123.508864 l
265.81777 124.424706 l
269.750341 125.478436 l
273.643742 126.668768 l
277.49323 127.994253 l
281.294113 129.453275 l
285.041762 131.044058 l
288.731611 132.764662 l
292.359163 134.612993 l
295.92 136.586797 l
299.409783 138.68367 l
302.82426 140.901058 l
306.159272 143.236258 l
309.410754 145.686426 l
312.574747 148.248576 l
315.647394 150.919588 l
318.624952 153.696206 l
321.503794 156.575048 l
324.280412 159.552606 l
326.951424 162.625253 l
329.513574 165.789246 l
331.963742 169.040728 l
334.298942 172.37574 l
336.51633 175.790217 l
338.613203 179.28 l
340.587007 182.840837 l
342.435338 186.468389 l
344.155942 190.158238 l
345.746725 193.905887 l
347.205747 197.70677 l
348.531232 201.556258 l
349.721564 205.449659 l
350.775294 209.38223 l
351.691136 213.34918 l
352.467976 217.345677 l
353.104868 221.36685 l
353.601034 225.4078 l
353.955871 229.463605 l
354.168946 233.529323 l
354.24 237.6 l
354.24 237.6 l
stroke
grestore
0.000 setgray
gsave
354.240000 239.678125 translate
0.000000 rotate
0.000000 0.000000 m /one glyphshow
6.362305 0.000000 m /period glyphshow
9.541016 0.000000 m /four glyphshow
15.903320 0.000000 m /two glyphshow
grestore
0.690 setgray
gsave
c0
393.12 237.6 m
393.025261 243.02757 l
392.741161 248.448527 l
392.268045 253.856267 l
391.60649 259.244201 l
390.757302 264.605765 l
389.721515 269.934426 l
388.500391 275.223693 l
387.095419 280.467122 l
385.508309 285.658323 l
383.740996 290.790973 l
381.795633 295.858817 l
379.67459 300.855683 l
377.38045 305.775481 l
374.91601 310.612217 l
372.284271 315.36 l
369.48844 320.013044 l
366.531923 324.56568 l
363.418323 329.012362 l
360.151432 333.347673 l
356.735232 337.566329 l
353.173883 341.663192 l
349.471726 345.63327 l
345.63327 349.471726 l
341.663192 353.173883 l
337.566329 356.735232 l
333.347673 360.151432 l
329.012362 363.418323 l
324.56568 366.531923 l
320.013044 369.48844 l
315.36 372.284271 l
310.612217 374.91601 l
305.775481 377.38045 l
300.855683 379.67459 l
295.858817 381.795633 l
290.790973 383.740996 l
285.658323 385.508309 l
280.467122 387.095419 l
275.223693 388.500391 l
269.934426 389.721515 l
264.605765 390.757302 l
259.244201 391.60649 l
253.856267 392.268045 l
248.448527 392.741161 l
243.02757 393.025261 l
237.6 393.12 l
232.17243 393.025261 l
226.751473 392.741161 l
221.343733 392.268045 l
215.955799 391.60649 l
210.594235 390.757302 l
205.265574 389.721515 l
199.976307 388.500391 l
194.732878 387.095419 l
189.541677 385.508309 l
184.409027 383.740996 l
179.341183 381.795633 l
174.344317 379.67459 l
169.424519 377.38045 l
164.587783 374.91601 l
159.84 372.284271 l
155.186956 369.48844 l
150.63432 366.531923 l
146.187638 363.418323 l
141.852327 360.151432 l
137.633671 356.735232 l
133.536808 353.173883 l
129.56673 349.471726 l
125.728274 345.63327 l
122.026117 341.663192 l
118.464768 337.566329 l
115.048568 333.347673 l
111.781677 329.012362 l
108.668077 324.56568 l
105.71156 320.013044 l
102.915729 315.36 l
100.28399 310.612217 l
97.81955 305.775481 l
95.52541 300.855683 l
93.404367 295.858817 l
91.459004 290.790973 l
89.691691 285.658323 l
88.104581 280.467122 l
86.699609 275.223693 l
85.478485 269.934426 l
84.442698 264.605765 l
83.59351 259.244201 l
82.931955 253.856267 l
82.458839 248.448527 l
82.174739 243.02757 l
82.08 237.6 l
82.174739 232.17243 l
82.458839 226.751473 l
82.931955 221.343733 l
83.59351 215.955799 l
84.442698 210.594235 l
85.478485 205.265574 l
86.699609 199.976307 l
88.104581 194.732878 l
89.691691 189.541677 l
91.459004 184.409027 l
93.404367 179.341183 l
95.52541 174.344317 l
97.81955 169.424519 l
100.28399 164.587783 l
102.915729 159.84 l
105.71156 155.186956 l
108.668077 150.63432 l
111.781677 146.187638 l
115.048568 141.852327 l
118.464768 137.633671 l
122.026117 133.536808 l
125.728274 129.56673 l
129.56673 125.728274 l
133.536808 122.026117 l
137.633671 118.464768 l
141.852327 115.048568 l
146.187638 111.781677 l
150.63432 108.668077 l
155.186956 105.71156 l
159.84 102.915729 l
164.587783 100.28399 l
169.424519 97.81955 l
174.344317 95.52541 l
179.341183 93.404367 l
184.409027 91.459004 l
189.541677 89.691691 l
194.732878 88.104581 l
199.976307 86.699609 l
205.265574 85.478485 l
210.594235 84.442698 l
215.955799 83.59351 l
221.343733 82.931955 l
226.751473 82.458839 l
232.17243 82.174739 l
237.6 82.08 l
243.02757 82.174739 l
248.448527 82.458839 l
253.856267 82.931955 l
259.244201 83.59351 l
264.605765 84.442698 l
269.934426 85.478485 l
275.223693 86.699609 l
280.467122 88.104581 l
285.658323 89.691691 l
290.790973 91.459004 l
295.858817 93.404367 l
300.855683 95.52541 l
305.775481 97.81955 l
310.612217 100.28399 l
315.36 102.915729 l
320.013044 105.71156 l
324.56568 108.668077 l
329.012362 111.781677 l
333.347673 115.048568 l
337.566329 118.464768 l
341.663192 122.026117 l
345.63327 125.728274 l
349.471726 129.56673 l
353.173883 133.536808 l
356.735232 137.633671 l
360.151432 141.852327 l
363.418323 146.187638 l
366.531923 150.63432 l
369.48844 155.186956 l
372.284271 159.84 l
374.91601 164.587783 l
377.38045 169.424519 l
379.67459 174.344317 l
381.795633 179.341183 l
383.740996 184.409027 l
385.508309 189.541677 l
387.095419 194.732878 l
388.500391 199.976307 l
389.721515 205.265574 l
390.757302 210.594235 l
391.60649 215.955799 l
392.268045 221.343733 l
392.741161 226.751473 l
393.025261 232.17243 l
393.12 237.6 l
393.12 237.6 l
stroke
grestore
0.000 setgray
gsave
393.120000 239.678125 translate
0.000000 rotate
0.000000 0.000000 m /one glyphshow
6.362305 0.000000 m /period glyphshow
9.541016 0.000000 m /eight glyphshow
15.903320 0.000000 m /six glyphshow
grestore
0.690 setgray
gsave
c0
432 237.6 m
431.881577 244.384462 l
431.526451 251.160658 l
430.935056 257.920333 l
430.108113 264.655251 l
429.046627 271.357206 l
427.751894 278.018033 l
426.225489 284.629617 l
424.469274 291.183902 l
422.485387 297.672904 l
420.276245 304.088716 l
417.844541 310.423522 l
415.193237 316.669603 l
412.325563 322.819351 l
409.245012 328.865272 l
405.955338 334.8 l
402.46055 340.616305 l
398.764904 346.3071 l
394.872904 351.865453 l
390.789291 357.284591 l
386.51904 362.557911 l
382.067354 367.67899 l
377.439657 372.641587 l
372.641587 377.439657 l
367.67899 382.067354 l
362.557911 386.51904 l
357.284591 390.789291 l
351.865453 394.872904 l
346.3071 398.764904 l
340.616305 402.46055 l
334.8 405.955338 l
328.865272 409.245012 l
322.819351 412.325563 l
316.669603 415.193237 l
310.423522 417.844541 l
304.088716 420.276245 l
297.672904 422.485387 l
291.183902 424.469274 l
284.629617 426.225489 l
278.018033 427.751894 l
271.357206 429.046627 l
264.655251 430.108113 l
257.920333 430.935056 l
251.160658 431.526451 l
244.384462 431.881577 l
237.6 432 l
230.815538 431.881577 l
224.039342 431.526451 l
217.279667 430.935056 l
210.544749 430.108113 l
203.842794 429.046627 l
197.181967 427.751894 l
190.570383 426.225489 l
184.016098 424.469274 l
177.527096 422.485387 l
171.111284 420.276245 l
164.776478 417.844541 l
158.530397 415.193237 l
152.380649 412.325563 l
146.334728 409.245012 l
140.4 405.955338 l
134.583695 402.46055 l
128.8929 398.764904 l
123.334547 394.872904 l
117.915409 390.789291 l
112.642089 386.51904 l
107.52101 382.067354 l
102.558413 377.439657 l
97.760343 372.641587 l
93.132646 367.67899 l
88.68096 362.557911 l
84.410709 357.284591 l
80.327096 351.865453 l
76.435096 346.3071 l
72.73945 340.616305 l
69.244662 334.8 l
65.954988 328.865272 l
62.874437 322.819351 l
60.006763 316.669603 l
57.355459 310.423522 l
54.923755 304.088716 l
52.714613 297.672904 l
50.730726 291.183902 l
48.974511 284.629617 l
47.448106 278.018033 l
46.153373 271.357206 l
45.091887 264.655251 l
44.264944 257.920333 l
43.673549 251.160658 l
43.318423 244.384462 l
43.2 237.6 l
43.318423 230.815538 l
43.673549 224.039342 l
44.264944 217.279667 l
45.091887 210.544749 l
46.153373 203.842794 l
47.448106 197.181967 l
48.974511 190.570383 l
50.730726 184.016098 l
52.714613 177.527096 l
54.923755 171.111284 l
57.355459 164.776478 l
60.006763 158.530397 l
62.874437 152.380649 l
65.954988 146.334728 l
69.244662 140.4 l
72.73945 134.583695 l
76.435096 128.8929 l
80.327096 123.334547 l
84.410709 117.915409 l
88.68096 112.642089 l
93.132646 107.52101 l
97.760343 102.558413 l
102.558413 97.760343 l
107.52101 93.132646 l
112.642089 88.68096 l
117.915409 84.410709 l
123.334547 80.327096 l
128.8929 76.435096 l
134.583695 72.73945 l
140.4 69.244662 l
146.334728 65.954988 l
152.380649 62.874437 l
158.530397 60.006763 l
164.776478 57.355459 l
171.111284 54.923755 l
177.527096 52.714613 l
184.016098 50.730726 l
190.570383 48.974511 l
197.181967 47.448106 l
203.842794 46.153373 l
210.544749 45.091887 l
217.279667 44.264944 l
224.039342 43.673549 l
230.815538 43.318423 l
237.6 43.2 l
244.384462 43.318423 l
251.160658 43.673549 l
257.920333 44.264944 l
264.655251 45.091887 l
271.357206 46.153373 l
278.018033 47.448106 l
284.629617 48.974511 l
291.183902 50.730726 l
297.672904 52.714613 l
304.088716 54.923755 l
310.423522 57.355459 l
316.669603 60.006763 l
322.819351 62.874437 l
328.865272 65.954988 l
334.8 69.244662 l
340.616305 72.73945 l
346.3071 76.435096 l
351.865453 80.327096 l
357.284591 84.410709 l
362.557911 88.68096 l
367.67899 93.132646 l
372.641587 97.760343 l
377.439657 102.558413 l
382.067354 107.52101 l
386.51904 112.642089 l
390.789291 117.915409 l
394.872904 123.334547 l
398.764904 128.8929 l
402.46055 134.583695 l
405.955338 140.4 l
409.245012 146.334728 l
412.325563 152.380649 l
415.193237 158.530397 l
417.844541 164.776478 l
420.276245 171.111284 l
422.485387 177.527096 l
424.469274 184.016098 l
426.225489 190.570383 l
427.751894 197.181967 l
429.046627 203.842794 l
430.108113 210.544749 l
430.935056 217.279667 l
431.526451 224.039342 l
431.881577 230.815538 l
432 237.6 l
432 237.6 l
stroke
grestore
0.000 setgray
gsave
432.000000 239.678125 translate
0.000000 rotate
0.000000 0.000000 m /two glyphshow
6.362305 0.000000 m /period glyphshow
9.541016 0.000000 m /three glyphshow
grestore
1.500 setlinewidth
0.122 0.467 0.706 setrgbcolor
gsave
c0
384.283636 237.6 m
278.002139 288.26268 l
232.192741 261.290748 l
68.70695 318.934606 l
86.335518 164.754865 l
194.850849 50.303731 l
345.339038 102.49952 l
384.283636 237.6 l
stroke
grestore
0.800 setlinewidth
0 setlinejoin
[] 0 setdash
0.000 setgray
gsave
432 237.6 m
432 263.128374 426.971467 288.408517 417.202181 311.993659 c
407.432895 335.578802 393.112845 357.010272 375.061558 375.061558 c
357.010272 393.112845 335.578802 407.432895 311.993659 417.202181 c
288.408517 426.971467 263.128374 432 237.6 432 c
212.071626 432 186.791483 426.971467 163.206341 417.202181 c
139.621198 407.432895 118.189728 393.112845 100.138442 375.061558 c
82.087155 357.010272 67.767105 335.578802 57.997819 311.993659 c
48.228533 288.408517 43.2 263.128374 43.2 237.6 c
43.2 212.071626 48.228533 186.791483 57.997819 163.206341 c
67.767105 139.621198 82.087155 118.189728 100.138442 100.138442 c
118.189728 82.087155 139.621198 67.767105 163.206341 57.997819 c
186.791483 48.228533 212.071626 43.2 237.6 43.2 c
263.128374 43.2 288.408517 48.228533 311.993659 57.997819 c
335.578802 67.767105 357.010272 82.087155 375.061558 100.138442 c
393.112845 118.189728 407.432895 139.621198 417.202181 163.206341 c
426.971467 186.791483 432 212.071626 432 237.6 c
stroke
grestore
gsave
237.600000 239.678125 translate
0.000000 rotate
0.000000 0.000000 m /zero glyphshow
6.362305 0.000000 m /period glyphshow
9.541016 0.000000 m /three glyphshow
grestore
gsave
432 237.6 m
432 263.128374 426.971467 288.408517 417.202181 311.993659 c
407.432895 335.578802 393.112845 357.010272 375.061558 375.061558 c
357.010272 393.112845 335.578802 407.432895 311.993659 417.202181 c
288.408517 426.971467 263.128374 432 237.6 432 c
212.071626 432 186.791483 426.971467 163.206341 417.202181 c
139.621198 407.432895 118.189728 393.112845 100.138442 375.061558 c
82.087155 357.010272 67.767105 335.578802 57.997819 311.993659 c
48.228533 288.408517 43.2 263.128374 43.2 237.6 c
43.2 212.071626 48.228533 186.791483 57.997819 163.206341 c
67.767105 139.621198 82.087155 118.189728 100.138442 100.138442 c
118.189728 82.087155 139.621198 67.767105 163.206341 57.997819 c
186.791483 48.228533 212.071626 43.2 237.6 43.2 c
263.128374 43.2 288.408517 48.228533 311.993659 57.997819 c
335.578802 67.767105 357.010272 82.087155 375.061558 100.138442 c
393.112845 118.189728 407.432895 139.621198 417.202181 163.206341 c
426.971467 186.791483 432 212.071626 432 237.6 c
stroke
grestore
gsave
237.600000 239.678125 translate
0.000000 rotate
0.000000 0.000000 m /zero glyphshow
6.362305 0.000000 m /period glyphshow
9.541016 0.000000 m /five glyphshow
grestore
gsave
432 237.6 m
432 263.128374 426.971467 288.408517 417.202181 311.993659 c
407.432895 335.578802 393.112845 357.010272 375.061558 375.061558 c
357.010272 393.112845 335.578802 407.432895 311.993659 417.202181 c
288.408517 426.971467 263.128374 432 237.6 432 c
212.071626 432 186.791483 426.971467 163.206341 417.202181 c
139.621198 407.432895 118.189728 393.112845 100.138442 375.061558 c
82.087155 357.010272 67.767105 335.578802 57.997819 311.993659 c
48.228533 288.408517 43.2 263.128374 43.2 237.6 c
43.2 212.071626 48.228533 186.791483 57.997819 163.206341 c
67.767105 139.621198 82.087155 118.189728 100.138442 100.138442 c
118.189728 82.087155 139.621198 67.767105 163.206341 57.997819 c
186.791483 48.228533 212.071626 43.2 237.6 43.2 c
263.128374 43.2 288.408517 48.228533 311.993659 57.997819 c
335.578802 67.767105 357.010272 82.087155 375.061558 100.138442 c
393.112845 118.189728 407.432895 139.621198 417.202181 163.206341 c
426.971467 186.791483 432 212.071626 432 237.6 c
stroke
grestore
gsave
202.570330 256.547525 translate
0.000000 rotate
0.000000 0.000000 m /two glyphshow
6.362305 0.000000 m /period glyphshow
9.541016 0.000000 m /two glyphshow
15.903320 0.000000 m /six glyphshow
grestore
gsave
167.540661 273.416925 translate
0.000000 rotate
0.000000 0.000000 m /two glyphshow
6.362305 0.000000 m /period glyphshow
9.541016 0.000000 m /eight glyphshow
15.903320 0.000000 m /two glyphshow
grestore
gsave
132.510991 290.286324 translate
0.000000 rotate
0.000000 0.000000 m /three glyphshow
6.362305 0.000000 m /period glyphshow
9.541016 0.000000 m /three glyphshow
15.903320 0.000000 m /eight glyphshow
grestore
gsave
97.481322 307.155724 translate
0.000000 rotate
0.000000 0.000000 m /three glyphshow
6.362305 0.000000 m /period glyphshow
9.541016 0.000000 m /nine glyphshow
15.903320 0.000000 m /four glyphshow
grestore
gsave
62.451652 324.025124 translate
0.000000 rotate
0.000000 0.000000 m /four glyphshow
6.362305 0.000000 m /period glyphshow
9.541016 0.000000 m /five glyphshow
grestore
gsave
432 237.6 m
432 263.128374 426.971467 288.408517 417.202181 311.993659 c
407.432895 335.578802 393.112845 357.010272 375.061558 375.061558 c
357.010272 393.112845 335.578802 407.432895 311.993659 417.202181 c
288.408517 426.971467 263.128374 432 237.6 432 c
212.071626 432 186.791483 426.971467 163.206341 417.202181 c
139.621198 407.432895 118.189728 393.112845 100.138442 375.061558 c
82.087155 357.010272 67.767105 335.578802 57.997819 311.993659 c
48.228533 288.408517 43.2 263.128374 43.2 237.6 c
43.2 212.071626 48.228533 186.791483 57.997819 163.206341 c
67.767105 139.621198 82.087155 118.189728 100.138442 100.138442 c
118.189728 82.087155 139.621198 67.767105 163.206341 57.997819 c
186.791483 48.228533 212.071626 43.2 237.6 43.2 c
263.128374 43.2 288.408517 48.228533 311.993659 57.997819 c
335.578802 67.767105 357.010272 82.087155 375.061558 100.138442 c
393.112845 118.189728 407.432895 139.621198 417.202181 163.206341 c
426.971467 186.791483 432 212.071626 432 237.6 c
stroke
grestore
gsave
202.570330 222.808725 translate
0.000000 rotate
0.000000 0.000000 m /one glyphshow
6.362305 0.000000 m /period glyphshow
9.541016 0.000000 m /nine glyphshow
15.903320 0.000000 m /four glyphshow
grestore
gsave
167.540661 205.939325 translate
0.000000 rotate
0.000000 0.000000 m /two glyphshow
6.362305 0.000000 m /period glyphshow
9.541016 0.000000 m /three glyphshow
15.903320 0.000000 m /eight glyphshow
grestore
gsave
132.510991 189.069926 translate
0.000000 rotate
0.000000 0.000000 m /two glyphshow
6.362305 0.000000 m /period glyphshow
9.541016 0.000000 m /eight glyphshow
15.903320 0.000000 m /two glyphshow
grestore
gsave
97.481322 172.200526 translate
0.000000 rotate
0.000000 0.000000 m /three glyphshow
6.362305 0.000000 m /period glyphshow
9.541016 0.000000 m /two glyphshow
15.903320 0.000000 m /six glyphshow
grestore
gsave
62.451652 155.331126 translate
0.000000 rotate
0.000000 0.000000 m /three glyphshow
6.362305 0.000000 m /period glyphshow
9.541016 0.000000 m /seven glyphshow
grestore
gsave
432 237.6 m
432 263.128374 426.971467 288.408517 417.202181 311.993659 c
407.432895 335.578802 393.112845 357.010272 375.061558 375.061558 c
357.010272 393.112845 335.578802 407.432895 311.993659 417.202181 c
288.408517 426.971467 263.128374 432 237.6 432 c
212.071626 432 186.791483 426.971467 163.206341 417.202181 c
139.621198 407.432895 118.189728 393.112845 100.138442 375.061558 c
82.087155 357.010272 67.767105 335.578802 57.997819 311.993659 c
48.228533 288.408517 43.2 263.128374 43.2 237.6 c
43.2 212.071626 48.228533 186.791483 57.997819 163.206341 c
67.767105 139.621198 82.087155 118.189728 100.138442 100.138442 c
118.189728 82.087155 139.621198 67.767105 163.206341 57.997819 c
186.791483 48.228533 212.071626 43.2 237.6 43.2 c
263.128374 43.2 288.408517 48.228533 311.993659 57.997819 c
335.578802 67.767105 357.010272 82.087155 375.061558 100.138442 c
393.112845 118.189728 407.432895 139.621198 417.202181 163.206341 c
426.971467 186.791483 432 212.071626 432 237.6 c
stroke
grestore
gsave
228.948386 201.772928 translate
0.000000 rotate
0.000000 0.000000 m /seven glyphshow
6.362305 0.000000 m /three glyphshow
12.724609 0.000000 m /period glyphshow
15.903320 0.000000 m /four glyphshow
grestore
gsave
220.296772 163.867731 translate
0.000000 rotate
0.000000 0.000000 m /seven glyphshow
6.362305 0.000000 m /six glyphshow
12.724609 0.000000 m /period glyphshow
15.903320 0.000000 m /eight glyphshow
grestore
gsave
211.645158 125.962533 translate
0.000000 rotate
0.000000 0.000000 m /eight glyphshow
6.362305 0.000000 m /zero glyphshow
12.724609 0.000000 m /period glyphshow
15.903320 0.000000 m /two glyphshow
grestore
gsave
202.993544 88.057336 translate
0.000000 rotate
0.000000 0.000000 m /eight glyphshow
6.362305 0.000000 m /three glyphshow
12.724609 0.000000 m /period glyphshow
15.903320 0.000000 m /six glyphshow
grestore
gsave
194.341930 50.152139 translate
0.000000 rotate
0.000000 0.000000 m /eight glyphshow
6.362305 0.000000 m /seven glyphshow
12.724609 0.000000 m /period glyphshow
15.903320 0.000000 m /zero glyphshow
grestore
gsave
432 237.6 m
432 263.128374 426.971467 288.408517 417.202181 311.993659 c
407.432895 335.578802 393.112845 357.010272 375.061558 375.061558 c
357.010272 393.112845 335.578802 407.432895 311.993659 417.202181 c
288.408517 426.971467 263.128374 432 237.6 432 c
212.071626 432 186.791483 426.971467 163.206341 417.202181 c
139.621198 407.432895 118.189728 393.112845 100.138442 375.061558 c
82.087155 357.010272 67.767105 335.578802 57.997819 311.993659 c
48.228533 288.408517 43.2 263.128374 43.2 237.6 c
43.2 212.071626 48.228533 186.791483 57.997819 163.206341 c
67.767105 139.621198 82.087155 118.189728 100.138442 100.138442 c
118.189728 82.087155 139.621198 67.767105 163.206341 57.997819 c
186.791483 48.228533 212.071626 43.2 237.6 43.2 c
263.128374 43.2 288.408517 48.228533 311.993659 57.997819 c
335.578802 67.767105 357.010272 82.087155 375.061558 100.138442 c
393.112845 118.189728 407.432895 139.621198 417.202181 163.206341 c
426.971467 186.791483 432 212.071626 432 237.6 c
stroke
grestore
gsave
237.600000 239.678125 translate
0.000000 rotate
0.000000 0.000000 m /one glyphshow
6.362305 0.000000 m /zero glyphshow
12.724609 0.000000 m /period glyphshow
15.903320 0.000000 m /zero glyphshow
grestore
gsave
432 237.6 m
432 263.128374 426.971467 288.408517 417.202181 311.993659 c
407.432895 335.578802 393.112845 357.010272 375.061558 375.061558 c
357.010272 393.112845 335.578802 407.432895 311.993659 417.202181 c
288.408517 426.971467 263.128374 432 237.6 432 c
212.071626 432 186.791483 426.971467 163.206341 417.202181 c
139.621198 407.432895 118.189728 393.112845 100.138442 375.061558 c
82.087155 357.010272 67.767105 335.578802 57.997819 311.993659 c
48.228533 288.408517 43.2 263.128374 43.2 237.6 c
43.2 212.071626 48.228533 186.791483 57.997819 163.206341 c
67.767105 139.621198 82.087155 118.189728 100.138442 100.138442 c
118.189728 82.087155 139.621198 67.767105 163.206341 57.997819 c
186.791483 48.228533 212.071626 43.2 237.6 43.2 c
263.128374 43.2 288.408517 48.228533 311.993659 57.997819 c
335.578802 67.767105 357.010272 82.087155 375.061558 100.138442 c
393.112845 118.189728 407.432895 139.621198 417.202181 163.206341 c
426.971467 186.791483 432 212.071626 432 237.6 c
stroke
grestore

end
showpage
