%!PS-Adobe-3.0 EPSF-3.0
%%Title: img/throughput.eps
%%Creator: matplotlib version 2.2.2, http://matplotlib.org/
%%CreationDate: Fri Sep 28 15:48:44 2018
%%Orientation: portrait
%%BoundingBox: -54 216 666 576
%%EndComments
%%BeginProlog
/mpldict 9 dict def
mpldict begin
/m { moveto } bind def
/l { lineto } bind def
/r { rlineto } bind def
/c { curveto } bind def
/cl { closepath } bind def
/box {
m
1 index 0 r
0 exch r
neg 0 r
cl
} bind def
/clipbox {
box
clip
newpath
} bind def
%!PS-Adobe-3.0 Resource-Font
%%Title: DejaVu Sans
%%Copyright: Copyright (c) 2003 by Bitstream, Inc. All Rights Reserved. Copyright (c) 2006 by Tavmjong Bah. All Rights Reserved. DejaVu changes are in public domain 
%%Creator: Converted from TrueType to type 3 by PPR
25 dict begin
/_d{bind def}bind def
/_m{moveto}_d
/_l{lineto}_d
/_cl{closepath eofill}_d
/_c{curveto}_d
/_sc{7 -1 roll{setcachedevice}{pop pop pop pop pop pop}ifelse}_d
/_e{exec}_d
/FontName /DejaVuSans def
/PaintType 0 def
/FontMatrix[.001 0 0 .001 0 0]def
/FontBBox[-1021 -463 1793 1232]def
/FontType 3 def
/Encoding [ /slash /zero /one /two /three /four /five /A /B /C /D /E /F /G /I /K /L /M /N /O /Q /R /S /T /V /W /X /Y /a /b /c /e /g /h /k /l /m /n /o /s ] def
/FontInfo 10 dict dup begin
/FamilyName (DejaVu Sans) def
/FullName (DejaVu Sans) def
/Notice (Copyright (c) 2003 by Bitstream, Inc. All Rights Reserved. Copyright (c) 2006 by Tavmjong Bah. All Rights Reserved. DejaVu changes are in public domain ) def
/Weight (Book) def
/Version (Version 2.35) def
/ItalicAngle 0.0 def
/isFixedPitch false def
/UnderlinePosition -130 def
/UnderlineThickness 90 def
end readonly def
/CharStrings 41 dict dup begin
/.notdef 0 def
/slash{337 0 0 -92 337 729 _sc
254 729 _m
337 729 _l
83 -92 _l
0 -92 _l
254 729 _l
_cl}_d
/zero{636 0 66 -13 570 742 _sc
318 664 _m
267 664 229 639 203 589 _c
177 539 165 464 165 364 _c
165 264 177 189 203 139 _c
229 89 267 64 318 64 _c
369 64 407 89 433 139 _c
458 189 471 264 471 364 _c
471 464 458 539 433 589 _c
407 639 369 664 318 664 _c
318 742 _m
399 742 461 709 505 645 _c
548 580 570 486 570 364 _c
570 241 548 147 505 83 _c
461 19 399 -13 318 -13 _c
236 -13 173 19 130 83 _c
87 147 66 241 66 364 _c
66 486 87 580 130 645 _c
173 709 236 742 318 742 _c
_cl}_d
/one{636 0 110 0 544 729 _sc
124 83 _m
285 83 _l
285 639 _l
110 604 _l
110 694 _l
284 729 _l
383 729 _l
383 83 _l
544 83 _l
544 0 _l
124 0 _l
124 83 _l
_cl}_d
/two{{636 0 73 0 536 742 _sc
192 83 _m
536 83 _l
536 0 _l
73 0 _l
73 83 _l
110 121 161 173 226 239 _c
290 304 331 346 348 365 _c
380 400 402 430 414 455 _c
426 479 433 504 433 528 _c
433 566 419 598 392 622 _c
365 646 330 659 286 659 _c
255 659 222 653 188 643 _c
154 632 117 616 78 594 _c
78 694 _l
118 710 155 722 189 730 _c
223 738 255 742 284 742 _c
}_e{359 742 419 723 464 685 _c
509 647 532 597 532 534 _c
532 504 526 475 515 449 _c
504 422 484 390 454 354 _c
446 344 420 317 376 272 _c
332 227 271 164 192 83 _c
_cl}_e}_d
/three{{636 0 76 -13 556 742 _sc
406 393 _m
453 383 490 362 516 330 _c
542 298 556 258 556 212 _c
556 140 531 84 482 45 _c
432 6 362 -13 271 -13 _c
240 -13 208 -10 176 -4 _c
144 1 110 10 76 22 _c
76 117 _l
103 101 133 89 166 81 _c
198 73 232 69 268 69 _c
330 69 377 81 409 105 _c
441 129 458 165 458 212 _c
458 254 443 288 413 312 _c
383 336 341 349 287 349 _c
}_e{202 349 _l
202 430 _l
291 430 _l
339 430 376 439 402 459 _c
428 478 441 506 441 543 _c
441 580 427 609 401 629 _c
374 649 336 659 287 659 _c
260 659 231 656 200 650 _c
169 644 135 635 98 623 _c
98 711 _l
135 721 170 729 203 734 _c
235 739 266 742 296 742 _c
370 742 429 725 473 691 _c
517 657 539 611 539 553 _c
539 513 527 479 504 451 _c
481 423 448 403 406 393 _c
_cl}_e}_d
/four{636 0 49 0 580 729 _sc
378 643 _m
129 254 _l
378 254 _l
378 643 _l
352 729 _m
476 729 _l
476 254 _l
580 254 _l
580 172 _l
476 172 _l
476 0 _l
378 0 _l
378 172 _l
49 172 _l
49 267 _l
352 729 _l
_cl}_d
/five{{636 0 77 -13 549 729 _sc
108 729 _m
495 729 _l
495 646 _l
198 646 _l
198 467 _l
212 472 227 476 241 478 _c
255 480 270 482 284 482 _c
365 482 429 459 477 415 _c
525 370 549 310 549 234 _c
549 155 524 94 475 51 _c
426 8 357 -13 269 -13 _c
238 -13 207 -10 175 -6 _c
143 -1 111 6 77 17 _c
77 116 _l
106 100 136 88 168 80 _c
199 72 232 69 267 69 _c
}_e{323 69 368 83 401 113 _c
433 143 450 183 450 234 _c
450 284 433 324 401 354 _c
368 384 323 399 267 399 _c
241 399 214 396 188 390 _c
162 384 135 375 108 363 _c
108 729 _l
_cl}_e}_d
/A{684 0 8 0 676 729 _sc
342 632 _m
208 269 _l
476 269 _l
342 632 _l
286 729 _m
398 729 _l
676 0 _l
573 0 _l
507 187 _l
178 187 _l
112 0 _l
8 0 _l
286 729 _l
_cl}_d
/B{{686 0 98 0 615 729 _sc
197 348 _m
197 81 _l
355 81 _l
408 81 447 92 473 114 _c
498 136 511 169 511 215 _c
511 260 498 293 473 315 _c
447 337 408 348 355 348 _c
197 348 _l
197 648 _m
197 428 _l
343 428 _l
391 428 426 437 450 455 _c
474 473 486 500 486 538 _c
486 574 474 602 450 620 _c
426 638 391 648 343 648 _c
197 648 _l
98 729 _m
350 729 _l
}_e{425 729 483 713 524 682 _c
564 650 585 606 585 549 _c
585 504 574 468 553 442 _c
532 416 502 399 462 393 _c
510 382 548 360 575 327 _c
601 294 615 253 615 204 _c
615 138 592 88 548 53 _c
504 17 441 0 360 0 _c
98 0 _l
98 729 _l
_cl}_e}_d
/C{{698 0 56 -13 644 742 _sc
644 673 _m
644 569 _l
610 599 575 622 537 638 _c
499 653 460 661 418 661 _c
334 661 270 635 226 584 _c
182 533 160 460 160 364 _c
160 268 182 194 226 143 _c
270 92 334 67 418 67 _c
460 67 499 74 537 90 _c
575 105 610 128 644 159 _c
644 56 _l
609 32 572 15 534 4 _c
496 -7 455 -13 412 -13 _c
302 -13 215 20 151 87 _c
}_e{87 154 56 246 56 364 _c
56 481 87 573 151 641 _c
215 708 302 742 412 742 _c
456 742 497 736 535 725 _c
573 713 610 696 644 673 _c
_cl}_e}_d
/D{770 0 98 0 711 729 _sc
197 648 _m
197 81 _l
316 81 _l
416 81 490 103 537 149 _c
583 195 607 267 607 365 _c
607 463 583 534 537 580 _c
490 625 416 648 316 648 _c
197 648 _l
98 729 _m
301 729 _l
442 729 546 699 612 641 _c
678 582 711 490 711 365 _c
711 239 677 147 611 88 _c
545 29 441 0 301 0 _c
98 0 _l
98 729 _l
_cl}_d
/E{632 0 98 0 568 729 _sc
98 729 _m
559 729 _l
559 646 _l
197 646 _l
197 430 _l
544 430 _l
544 347 _l
197 347 _l
197 83 _l
568 83 _l
568 0 _l
98 0 _l
98 729 _l
_cl}_d
/F{575 0 98 0 517 729 _sc
98 729 _m
517 729 _l
517 646 _l
197 646 _l
197 431 _l
486 431 _l
486 348 _l
197 348 _l
197 0 _l
98 0 _l
98 729 _l
_cl}_d
/G{{775 0 56 -13 693 742 _sc
595 104 _m
595 300 _l
434 300 _l
434 381 _l
693 381 _l
693 68 _l
655 40 613 20 567 7 _c
521 -6 472 -13 420 -13 _c
306 -13 216 20 152 86 _c
88 152 56 245 56 364 _c
56 482 88 575 152 642 _c
216 708 306 742 420 742 _c
467 742 512 736 555 724 _c
598 712 638 695 674 673 _c
674 568 _l
637 598 598 621 557 637 _c
516 653 473 661 428 661 _c
}_e{338 661 271 636 227 586 _c
182 536 160 462 160 364 _c
160 265 182 191 227 141 _c
271 91 338 67 428 67 _c
462 67 493 70 521 76 _c
549 82 573 91 595 104 _c
_cl}_e}_d
/I{295 0 98 0 197 729 _sc
98 729 _m
197 729 _l
197 0 _l
98 0 _l
98 729 _l
_cl}_d
/K{656 0 98 0 677 729 _sc
98 729 _m
197 729 _l
197 421 _l
524 729 _l
651 729 _l
289 389 _l
677 0 _l
547 0 _l
197 351 _l
197 0 _l
98 0 _l
98 729 _l
_cl}_d
/L{557 0 98 0 552 729 _sc
98 729 _m
197 729 _l
197 83 _l
552 83 _l
552 0 _l
98 0 _l
98 729 _l
_cl}_d
/M{863 0 98 0 765 729 _sc
98 729 _m
245 729 _l
431 233 _l
618 729 _l
765 729 _l
765 0 _l
669 0 _l
669 640 _l
481 140 _l
382 140 _l
194 640 _l
194 0 _l
98 0 _l
98 729 _l
_cl}_d
/N{748 0 98 0 650 729 _sc
98 729 _m
231 729 _l
554 119 _l
554 729 _l
650 729 _l
650 0 _l
517 0 _l
194 610 _l
194 0 _l
98 0 _l
98 729 _l
_cl}_d
/O{787 0 56 -13 731 742 _sc
394 662 _m
322 662 265 635 223 582 _c
181 528 160 456 160 364 _c
160 272 181 199 223 146 _c
265 92 322 66 394 66 _c
465 66 522 92 564 146 _c
606 199 627 272 627 364 _c
627 456 606 528 564 582 _c
522 635 465 662 394 662 _c
394 742 _m
496 742 577 707 639 639 _c
700 571 731 479 731 364 _c
731 248 700 157 639 89 _c
577 21 496 -13 394 -13 _c
291 -13 209 21 148 89 _c
86 157 56 248 56 364 _c
56 479 86 571 148 639 _c
209 707 291 742 394 742 _c
_cl}_d
/Q{{787 0 56 -128 731 742 _sc
394 662 _m
322 662 265 635 223 582 _c
181 528 160 456 160 364 _c
160 272 181 199 223 146 _c
265 92 322 66 394 66 _c
465 66 522 92 564 146 _c
606 199 627 272 627 364 _c
627 456 606 528 564 582 _c
522 635 465 662 394 662 _c
532 13 _m
662 -128 _l
543 -128 _l
435 -11 _l
424 -11 416 -12 410 -12 _c
404 -12 399 -13 394 -13 _c
291 -13 209 21 148 89 _c
}_e{86 157 56 248 56 364 _c
56 479 86 571 148 639 _c
209 707 291 742 394 742 _c
496 742 577 707 639 639 _c
700 571 731 479 731 364 _c
731 279 714 206 680 146 _c
646 86 596 41 532 13 _c
_cl}_e}_d
/R{{695 0 98 0 666 729 _sc
444 342 _m
465 334 486 319 506 296 _c
526 272 546 240 566 199 _c
666 0 _l
560 0 _l
467 187 _l
443 235 419 268 397 284 _c
374 300 343 308 304 308 _c
197 308 _l
197 0 _l
98 0 _l
98 729 _l
321 729 _l
404 729 466 711 507 677 _c
548 642 569 589 569 519 _c
569 473 558 434 537 404 _c
515 374 484 353 444 342 _c
197 648 _m
197 389 _l
321 389 _l
}_e{368 389 404 400 428 422 _c
452 444 465 476 465 519 _c
465 561 452 593 428 615 _c
404 637 368 648 321 648 _c
197 648 _l
_cl}_e}_d
/S{{635 0 66 -13 579 742 _sc
535 705 _m
535 609 _l
497 627 462 640 429 649 _c
395 657 363 662 333 662 _c
279 662 237 651 208 631 _c
179 610 165 580 165 542 _c
165 510 174 485 194 469 _c
213 452 250 439 304 429 _c
364 417 _l
437 403 491 378 526 343 _c
561 307 579 260 579 201 _c
579 130 555 77 508 41 _c
460 5 391 -13 300 -13 _c
265 -13 228 -9 189 -2 _c
}_e{150 5 110 16 69 32 _c
69 134 _l
109 111 148 94 186 83 _c
224 71 262 66 300 66 _c
356 66 399 77 430 99 _c
460 121 476 152 476 194 _c
476 230 465 258 443 278 _c
421 298 385 313 335 323 _c
275 335 _l
201 349 148 372 115 404 _c
82 435 66 478 66 534 _c
66 598 88 649 134 686 _c
179 723 242 742 322 742 _c
356 742 390 739 426 733 _c
461 727 497 717 535 705 _c
}_e{_cl}_e}_d
/T{611 0 -2 0 614 729 _sc
-2 729 _m
614 729 _l
614 646 _l
355 646 _l
355 0 _l
256 0 _l
256 646 _l
-2 646 _l
-2 729 _l
_cl}_d
/V{684 0 8 0 676 729 _sc
286 0 _m
8 729 _l
111 729 _l
342 115 _l
573 729 _l
676 729 _l
398 0 _l
286 0 _l
_cl}_d
/W{989 0 33 0 956 729 _sc
33 729 _m
133 729 _l
286 113 _l
439 729 _l
550 729 _l
703 113 _l
856 729 _l
956 729 _l
773 0 _l
649 0 _l
495 633 _l
340 0 _l
216 0 _l
33 729 _l
_cl}_d
/X{685 0 30 0 654 729 _sc
63 729 _m
169 729 _l
350 458 _l
532 729 _l
638 729 _l
404 379 _l
654 0 _l
548 0 _l
343 310 _l
136 0 _l
30 0 _l
290 389 _l
63 729 _l
_cl}_d
/Y{611 0 -1 0 613 729 _sc
-1 729 _m
104 729 _l
306 429 _l
507 729 _l
613 729 _l
355 347 _l
355 0 _l
256 0 _l
256 347 _l
-1 729 _l
_cl}_d
/a{{613 0 60 -13 522 560 _sc
343 275 _m
270 275 220 266 192 250 _c
164 233 150 205 150 165 _c
150 133 160 107 181 89 _c
202 70 231 61 267 61 _c
317 61 357 78 387 114 _c
417 149 432 196 432 255 _c
432 275 _l
343 275 _l
522 312 _m
522 0 _l
432 0 _l
432 83 _l
411 49 385 25 355 10 _c
325 -5 287 -13 243 -13 _c
187 -13 142 2 109 33 _c
76 64 60 106 60 159 _c
}_e{60 220 80 266 122 298 _c
163 329 224 345 306 345 _c
432 345 _l
432 354 _l
432 395 418 427 391 450 _c
364 472 326 484 277 484 _c
245 484 215 480 185 472 _c
155 464 127 453 100 439 _c
100 522 _l
132 534 164 544 195 550 _c
226 556 256 560 286 560 _c
365 560 424 539 463 498 _c
502 457 522 395 522 312 _c
_cl}_e}_d
/b{{635 0 91 -13 580 760 _sc
487 273 _m
487 339 473 390 446 428 _c
418 466 381 485 334 485 _c
286 485 249 466 222 428 _c
194 390 181 339 181 273 _c
181 207 194 155 222 117 _c
249 79 286 61 334 61 _c
381 61 418 79 446 117 _c
473 155 487 207 487 273 _c
181 464 _m
199 496 223 520 252 536 _c
281 552 316 560 356 560 _c
422 560 476 533 518 481 _c
559 428 580 359 580 273 _c
}_e{580 187 559 117 518 65 _c
476 13 422 -13 356 -13 _c
316 -13 281 -5 252 10 _c
223 25 199 49 181 82 _c
181 0 _l
91 0 _l
91 760 _l
181 760 _l
181 464 _l
_cl}_e}_d
/c{{550 0 55 -13 488 560 _sc
488 526 _m
488 442 _l
462 456 437 466 411 473 _c
385 480 360 484 334 484 _c
276 484 230 465 198 428 _c
166 391 150 339 150 273 _c
150 206 166 154 198 117 _c
230 80 276 62 334 62 _c
360 62 385 65 411 72 _c
437 79 462 90 488 104 _c
488 21 _l
462 9 436 0 410 -5 _c
383 -10 354 -13 324 -13 _c
242 -13 176 12 128 64 _c
}_e{79 115 55 185 55 273 _c
55 362 79 432 128 483 _c
177 534 244 560 330 560 _c
358 560 385 557 411 551 _c
437 545 463 537 488 526 _c
_cl}_e}_d
/e{{615 0 55 -13 562 560 _sc
562 296 _m
562 252 _l
149 252 _l
153 190 171 142 205 110 _c
238 78 284 62 344 62 _c
378 62 412 66 444 74 _c
476 82 509 95 541 113 _c
541 28 _l
509 14 476 3 442 -3 _c
408 -9 373 -13 339 -13 _c
251 -13 182 12 131 62 _c
80 112 55 181 55 268 _c
55 357 79 428 127 481 _c
175 533 241 560 323 560 _c
397 560 455 536 498 489 _c
}_e{540 441 562 377 562 296 _c
472 322 _m
471 371 457 410 431 440 _c
404 469 368 484 324 484 _c
274 484 234 469 204 441 _c
174 413 156 373 152 322 _c
472 322 _l
_cl}_e}_d
/g{{635 0 55 -207 544 560 _sc
454 280 _m
454 344 440 395 414 431 _c
387 467 349 485 301 485 _c
253 485 215 467 188 431 _c
161 395 148 344 148 280 _c
148 215 161 165 188 129 _c
215 93 253 75 301 75 _c
349 75 387 93 414 129 _c
440 165 454 215 454 280 _c
544 68 _m
544 -24 523 -93 482 -139 _c
440 -184 377 -207 292 -207 _c
260 -207 231 -204 203 -200 _c
175 -195 147 -188 121 -178 _c
}_e{121 -91 _l
147 -105 173 -115 199 -122 _c
225 -129 251 -133 278 -133 _c
336 -133 380 -117 410 -87 _c
439 -56 454 -10 454 52 _c
454 96 _l
435 64 411 40 382 24 _c
353 8 319 0 279 0 _c
211 0 157 25 116 76 _c
75 127 55 195 55 280 _c
55 364 75 432 116 483 _c
157 534 211 560 279 560 _c
319 560 353 552 382 536 _c
411 520 435 496 454 464 _c
454 547 _l
544 547 _l
}_e{544 68 _l
_cl}_e}_d
/h{634 0 91 0 549 760 _sc
549 330 _m
549 0 _l
459 0 _l
459 327 _l
459 379 448 417 428 443 _c
408 469 378 482 338 482 _c
289 482 251 466 223 435 _c
195 404 181 362 181 309 _c
181 0 _l
91 0 _l
91 760 _l
181 760 _l
181 462 _l
202 494 227 519 257 535 _c
286 551 320 560 358 560 _c
420 560 468 540 500 501 _c
532 462 549 405 549 330 _c
_cl}_d
/k{579 0 91 0 576 760 _sc
91 760 _m
181 760 _l
181 311 _l
449 547 _l
564 547 _l
274 291 _l
576 0 _l
459 0 _l
181 267 _l
181 0 _l
91 0 _l
91 760 _l
_cl}_d
/l{278 0 94 0 184 760 _sc
94 760 _m
184 760 _l
184 0 _l
94 0 _l
94 760 _l
_cl}_d
/m{{974 0 91 0 889 560 _sc
520 442 _m
542 482 569 511 600 531 _c
631 550 668 560 711 560 _c
767 560 811 540 842 500 _c
873 460 889 403 889 330 _c
889 0 _l
799 0 _l
799 327 _l
799 379 789 418 771 444 _c
752 469 724 482 686 482 _c
639 482 602 466 575 435 _c
548 404 535 362 535 309 _c
535 0 _l
445 0 _l
445 327 _l
445 379 435 418 417 444 _c
398 469 369 482 331 482 _c
}_e{285 482 248 466 221 435 _c
194 404 181 362 181 309 _c
181 0 _l
91 0 _l
91 547 _l
181 547 _l
181 462 _l
201 495 226 520 255 536 _c
283 552 317 560 357 560 _c
397 560 430 550 458 530 _c
486 510 506 480 520 442 _c
_cl}_e}_d
/n{634 0 91 0 549 560 _sc
549 330 _m
549 0 _l
459 0 _l
459 327 _l
459 379 448 417 428 443 _c
408 469 378 482 338 482 _c
289 482 251 466 223 435 _c
195 404 181 362 181 309 _c
181 0 _l
91 0 _l
91 547 _l
181 547 _l
181 462 _l
202 494 227 519 257 535 _c
286 551 320 560 358 560 _c
420 560 468 540 500 501 _c
532 462 549 405 549 330 _c
_cl}_d
/o{612 0 55 -13 557 560 _sc
306 484 _m
258 484 220 465 192 427 _c
164 389 150 338 150 273 _c
150 207 163 156 191 118 _c
219 80 257 62 306 62 _c
354 62 392 80 420 118 _c
448 156 462 207 462 273 _c
462 337 448 389 420 427 _c
392 465 354 484 306 484 _c
306 560 _m
384 560 445 534 490 484 _c
534 433 557 363 557 273 _c
557 183 534 113 490 63 _c
445 12 384 -13 306 -13 _c
227 -13 165 12 121 63 _c
77 113 55 183 55 273 _c
55 363 77 433 121 484 _c
165 534 227 560 306 560 _c
_cl}_d
/s{{521 0 54 -13 472 560 _sc
443 531 _m
443 446 _l
417 458 391 468 364 475 _c
336 481 308 485 279 485 _c
234 485 200 478 178 464 _c
156 450 145 430 145 403 _c
145 382 153 366 169 354 _c
185 342 217 330 265 320 _c
296 313 _l
360 299 405 279 432 255 _c
458 230 472 195 472 151 _c
472 100 452 60 412 31 _c
372 1 316 -13 246 -13 _c
216 -13 186 -10 154 -5 _c
}_e{122 0 89 8 54 20 _c
54 113 _l
87 95 120 82 152 74 _c
184 65 216 61 248 61 _c
290 61 323 68 346 82 _c
368 96 380 117 380 144 _c
380 168 371 187 355 200 _c
339 213 303 226 247 238 _c
216 245 _l
160 257 119 275 95 299 _c
70 323 58 356 58 399 _c
58 450 76 490 112 518 _c
148 546 200 560 268 560 _c
301 560 332 557 362 552 _c
391 547 418 540 443 531 _c
}_e{_cl}_e}_d
end readonly def

/BuildGlyph
 {exch begin
 CharStrings exch
 2 copy known not{pop /.notdef}if
 true 3 1 roll get exec
 end}_d

/BuildChar {
 1 index /Encoding get exch get
 1 index /BuildGlyph get exec
}_d

FontName currentdict end definefont pop
%!PS-Adobe-3.0 Resource-Font
%%Title: DejaVu Sans Bold
%%Copyright: Copyright (c) 2003 by Bitstream, Inc. All Rights Reserved. Copyright (c) 2006 by Tavmjong Bah. All Rights Reserved. DejaVu changes are in public domain 
%%Creator: Converted from TrueType to type 3 by PPR
25 dict begin
/_d{bind def}bind def
/_m{moveto}_d
/_l{lineto}_d
/_cl{closepath eofill}_d
/_c{curveto}_d
/_sc{7 -1 roll{setcachedevice}{pop pop pop pop pop pop}ifelse}_d
/_e{exec}_d
/FontName /DejaVuSans-Bold def
/PaintType 0 def
/FontMatrix[.001 0 0 .001 0 0]def
/FontBBox[-1069 -415 1975 1174]def
/FontType 3 def
/Encoding [ /T /g /h /o /p /r /t /u ] def
/FontInfo 10 dict dup begin
/FamilyName (DejaVu Sans) def
/FullName (DejaVu Sans Bold) def
/Notice (Copyright (c) 2003 by Bitstream, Inc. All Rights Reserved. Copyright (c) 2006 by Tavmjong Bah. All Rights Reserved. DejaVu changes are in public domain ) def
/Weight (Bold) def
/Version (Version 2.35) def
/ItalicAngle 0.0 def
/isFixedPitch false def
/UnderlinePosition -130 def
/UnderlineThickness 90 def
end readonly def
/CharStrings 9 dict dup begin
/.notdef 0 def
/T{682 0 5 0 677 729 _sc
5 729 _m
677 729 _l
677 587 _l
435 587 _l
435 0 _l
247 0 _l
247 587 _l
5 587 _l
5 729 _l
_cl}_d
/g{{716 0 45 -215 632 559 _sc
456 93 _m
432 61 405 37 376 22 _c
347 7 314 0 276 0 _c
209 0 154 26 110 79 _c
66 131 45 198 45 280 _c
45 361 66 428 110 480 _c
154 532 209 559 276 559 _c
314 559 347 551 376 536 _c
405 521 432 498 456 466 _c
456 547 _l
632 547 _l
632 55 _l
632 -32 604 -99 548 -145 _c
492 -191 412 -215 307 -215 _c
273 -215 240 -212 208 -207 _c
}_e{176 -201 144 -193 112 -183 _c
112 -47 _l
142 -64 172 -77 202 -86 _c
231 -94 260 -99 290 -99 _c
347 -99 389 -86 416 -61 _c
442 -36 456 2 456 55 _c
456 93 _l
341 433 _m
305 433 276 419 256 393 _c
236 366 226 328 226 280 _c
226 230 235 192 255 166 _c
275 140 303 127 341 127 _c
377 127 406 140 426 167 _c
446 193 456 231 456 280 _c
456 328 446 366 426 393 _c
}_e{406 419 377 433 341 433 _c
_cl}_e}_d
/h{712 0 84 0 634 760 _sc
634 333 _m
634 0 _l
458 0 _l
458 54 _l
458 254 _l
458 302 457 334 455 352 _c
453 370 449 383 444 392 _c
437 403 428 412 416 418 _c
404 424 390 428 376 428 _c
339 428 310 414 290 386 _c
269 358 259 319 259 269 _c
259 0 _l
84 0 _l
84 760 _l
259 760 _l
259 467 _l
285 499 312 522 342 537 _c
372 552 405 560 441 560 _c
504 560 552 540 585 502 _c
617 463 634 407 634 333 _c
_cl}_d
/o{687 0 43 -13 644 560 _sc
344 435 _m
305 435 275 421 255 393 _c
235 365 225 325 225 273 _c
225 220 235 180 255 152 _c
275 124 305 111 344 111 _c
382 111 411 124 431 152 _c
451 180 462 220 462 273 _c
462 325 451 365 431 393 _c
411 421 382 435 344 435 _c
344 560 _m
438 560 511 534 564 484 _c
617 433 644 363 644 273 _c
644 183 617 112 564 62 _c
511 12 438 -13 344 -13 _c
250 -13 176 12 123 62 _c
69 112 43 183 43 273 _c
43 363 69 433 123 484 _c
176 534 250 560 344 560 _c
_cl}_d
/p{{716 0 84 -207 671 560 _sc
259 79 _m
259 -207 _l
84 -207 _l
84 547 _l
259 547 _l
259 467 _l
283 499 309 522 339 537 _c
368 552 402 560 440 560 _c
507 560 562 533 606 479 _c
649 425 671 357 671 273 _c
671 188 649 119 606 66 _c
562 13 507 -13 440 -13 _c
402 -13 368 -5 339 9 _c
309 23 283 47 259 79 _c
375 433 _m
337 433 309 419 289 392 _c
269 364 259 325 259 273 _c
}_e{259 221 269 181 289 154 _c
309 126 337 113 375 113 _c
412 113 440 126 460 154 _c
480 181 490 221 490 273 _c
490 325 480 364 460 392 _c
440 419 412 433 375 433 _c
_cl}_e}_d
/r{493 0 84 0 490 560 _sc
490 398 _m
474 405 459 410 444 414 _c
429 417 414 419 399 419 _c
354 419 319 404 295 376 _c
271 347 259 306 259 252 _c
259 0 _l
84 0 _l
84 547 _l
259 547 _l
259 457 _l
281 493 306 519 336 535 _c
365 551 400 560 441 560 _c
447 560 453 559 460 559 _c
466 559 476 558 490 556 _c
490 398 _l
_cl}_d
/t{478 0 13 0 455 702 _sc
275 702 _m
275 547 _l
455 547 _l
455 422 _l
275 422 _l
275 190 _l
275 164 280 147 290 138 _c
300 129 320 125 350 125 _c
440 125 _l
440 0 _l
290 0 _l
221 0 172 14 143 43 _c
114 71 100 120 100 190 _c
100 422 _l
13 422 _l
13 547 _l
100 547 _l
100 702 _l
275 702 _l
_cl}_d
/u{{712 0 78 -13 628 547 _sc
78 213 _m
78 547 _l
254 547 _l
254 492 _l
254 462 253 425 253 380 _c
253 335 253 305 253 291 _c
253 247 254 215 256 196 _c
258 176 262 162 268 154 _c
275 142 284 133 296 127 _c
307 121 320 118 336 118 _c
372 118 401 132 422 160 _c
442 188 453 227 453 277 _c
453 547 _l
628 547 _l
628 0 _l
453 0 _l
453 79 _l
427 47 399 23 369 9 _c
}_e{339 -5 307 -13 272 -13 _c
208 -13 160 6 127 44 _c
94 82 78 139 78 213 _c
_cl}_e}_d
end readonly def

/BuildGlyph
 {exch begin
 CharStrings exch
 2 copy known not{pop /.notdef}if
 true 3 1 roll get exec
 end}_d

/BuildChar {
 1 index /Encoding get exch get
 1 index /BuildGlyph get exec
}_d

FontName currentdict end definefont pop
end
%%EndProlog
mpldict begin
-54 216 translate
720 360 0 0 clipbox
gsave
0 0 m
720 0 l
720 360 l
0 360 l
cl
1.000 setgray
fill
grestore
gsave
60.882 61.866113 m
624.828 61.866113 l
624.828 322.608 l
60.882 322.608 l
cl
1.000 setgray
fill
grestore
0.800 setlinewidth
1 setlinejoin
0 setlinecap
[2.96 1.28] 0 setdash
0.800 setgray
gsave
563.9 260.7 60.88 61.87 clipbox
86.515909 61.866113 m
86.515909 322.608 l
stroke
grestore
0.150 setgray
/DejaVuSans findfont
12.000 scalefont
setfont
gsave
78.638944 53.145179 translate
290.000000 rotate
0.000000 0.000000 m /A glyphshow
8.208984 0.000000 m /M glyphshow
18.562500 0.000000 m /G glyphshow
grestore
0.800 setgray
gsave
563.9 260.7 60.88 61.87 clipbox
113.498971 61.866113 m
113.498971 322.608 l
stroke
grestore
0.150 setgray
gsave
104.435623 53.145179 translate
290.000000 rotate
0.000000 0.000000 m /C glyphshow
8.378906 0.000000 m /A glyphshow
16.587891 0.000000 m /N glyphshow
25.564453 0.000000 m /D glyphshow
grestore
0.800 setgray
gsave
563.9 260.7 60.88 61.87 clipbox
140.482033 61.866113 m
140.482033 322.608 l
stroke
grestore
0.150 setgray
gsave
131.330509 53.145179 translate
290.000000 rotate
0.000000 0.000000 m /C glyphshow
8.378906 0.000000 m /o glyphshow
15.720703 0.000000 m /M glyphshow
26.074219 0.000000 m /D glyphshow
grestore
0.800 setgray
gsave
563.9 260.7 60.88 61.87 clipbox
167.465096 61.866113 m
167.465096 322.608 l
stroke
grestore
0.150 setgray
gsave
159.344975 53.145179 translate
290.000000 rotate
0.000000 0.000000 m /L glyphshow
6.685547 0.000000 m /a glyphshow
14.039062 0.000000 m /g glyphshow
21.656250 0.000000 m /h glyphshow
grestore
0.800 setgray
gsave
563.9 260.7 60.88 61.87 clipbox
194.448158 61.866113 m
194.448158 322.608 l
stroke
grestore
0.150 setgray
gsave
185.424890 53.145179 translate
290.000000 rotate
0.000000 0.000000 m /M glyphshow
10.353516 0.000000 m /A glyphshow
18.562500 0.000000 m /C glyphshow
26.941406 0.000000 m /S glyphshow
grestore
0.800 setgray
gsave
563.9 260.7 60.88 61.87 clipbox
221.43122 61.866113 m
221.43122 322.608 l
stroke
grestore
0.150 setgray
gsave
211.718568 53.145179 translate
290.000000 rotate
0.000000 0.000000 m /m glyphshow
11.689453 0.000000 m /A glyphshow
19.898438 0.000000 m /M glyphshow
30.251953 0.000000 m /R glyphshow
grestore
0.800 setgray
gsave
563.9 260.7 60.88 61.87 clipbox
248.414282 61.866113 m
248.414282 322.608 l
stroke
grestore
0.150 setgray
gsave
240.825896 53.145179 translate
290.000000 rotate
0.000000 0.000000 m /m glyphshow
11.689453 0.000000 m /F glyphshow
18.591797 0.000000 m /E glyphshow
grestore
0.800 setgray
gsave
563.9 260.7 60.88 61.87 clipbox
275.397344 61.866113 m
275.397344 322.608 l
stroke
grestore
0.150 setgray
gsave
266.999333 53.145179 translate
290.000000 rotate
0.000000 0.000000 m /m glyphshow
11.689453 0.000000 m /T glyphshow
19.019531 0.000000 m /R glyphshow
27.357422 0.000000 m /I glyphshow
grestore
0.800 setgray
gsave
563.9 260.7 60.88 61.87 clipbox
302.380407 61.866113 m
302.380407 322.608 l
stroke
grestore
0.150 setgray
gsave
293.974379 53.145179 translate
290.000000 rotate
0.000000 0.000000 m /N glyphshow
8.976562 0.000000 m /e glyphshow
16.359375 0.000000 m /k glyphshow
23.308594 0.000000 m /b glyphshow
grestore
0.800 setgray
gsave
563.9 260.7 60.88 61.87 clipbox
329.363469 61.866113 m
329.363469 322.608 l
stroke
grestore
0.150 setgray
gsave
321.042946 53.145179 translate
290.000000 rotate
0.000000 0.000000 m /S glyphshow
7.617188 0.000000 m /W glyphshow
19.482422 0.000000 m /four glyphshow
27.117188 0.000000 m /l glyphshow
grestore
0.800 setgray
gsave
563.9 260.7 60.88 61.87 clipbox
356.346531 61.866113 m
356.346531 322.608 l
stroke
grestore
0.150 setgray
gsave
347.539698 53.145179 translate
290.000000 rotate
0.000000 0.000000 m /S glyphshow
7.617188 0.000000 m /W glyphshow
19.482422 0.000000 m /F glyphshow
26.384766 0.000000 m /F glyphshow
grestore
0.800 setgray
gsave
563.9 260.7 60.88 61.87 clipbox
383.329593 61.866113 m
383.329593 322.608 l
stroke
grestore
0.150 setgray
gsave
374.835388 53.145179 translate
290.000000 rotate
0.000000 0.000000 m /X glyphshow
8.220703 0.000000 m /S glyphshow
15.837891 0.000000 m /B glyphshow
24.070312 0.000000 m /e glyphshow
grestore
0.800 setgray
gsave
563.9 260.7 60.88 61.87 clipbox
410.312656 61.866113 m
410.312656 322.608 l
stroke
grestore
0.150 setgray
gsave
402.571964 53.145179 translate
290.000000 rotate
0.000000 0.000000 m /Q glyphshow
9.445312 0.000000 m /C glyphshow
17.824219 0.000000 m /D glyphshow
grestore
0.800 setgray
gsave
563.9 260.7 60.88 61.87 clipbox
437.295718 61.866113 m
437.295718 322.608 l
stroke
grestore
0.150 setgray
gsave
428.985883 53.145179 translate
290.000000 rotate
0.000000 0.000000 m /F glyphshow
6.902344 0.000000 m /F glyphshow
13.804688 0.000000 m /V glyphshow
22.013672 0.000000 m /C glyphshow
grestore
0.800 setgray
gsave
563.9 260.7 60.88 61.87 clipbox
464.27878 61.866113 m
464.27878 322.608 l
stroke
grestore
0.150 setgray
gsave
456.188052 53.145179 translate
290.000000 rotate
0.000000 0.000000 m /N glyphshow
8.976562 0.000000 m /I glyphshow
12.515625 0.000000 m /C glyphshow
20.894531 0.000000 m /A glyphshow
grestore
0.800 setgray
gsave
563.9 260.7 60.88 61.87 clipbox
491.261842 61.866113 m
491.261842 322.608 l
stroke
grestore
0.150 setgray
gsave
481.543846 53.145179 translate
290.000000 rotate
0.000000 0.000000 m /m glyphshow
11.689453 0.000000 m /V glyphshow
19.898438 0.000000 m /M glyphshow
30.251953 0.000000 m /C glyphshow
grestore
0.800 setgray
gsave
563.9 260.7 60.88 61.87 clipbox
518.244904 61.866113 m
518.244904 322.608 l
stroke
grestore
0.150 setgray
gsave
509.299126 53.145179 translate
290.000000 rotate
0.000000 0.000000 m /N glyphshow
8.976562 0.000000 m /G glyphshow
18.275391 0.000000 m /S glyphshow
25.892578 0.000000 m /A glyphshow
grestore
0.800 setgray
gsave
563.9 260.7 60.88 61.87 clipbox
545.227967 61.866113 m
545.227967 322.608 l
stroke
grestore
0.150 setgray
gsave
535.894743 53.145179 translate
290.000000 rotate
0.000000 0.000000 m /M glyphshow
10.353516 0.000000 m /O glyphshow
19.798828 0.000000 m /D glyphshow
29.039062 0.000000 m /Y glyphshow
grestore
0.800 setgray
gsave
563.9 260.7 60.88 61.87 clipbox
572.211029 61.866113 m
572.211029 322.608 l
stroke
grestore
0.150 setgray
gsave
563.575206 53.145179 translate
290.000000 rotate
0.000000 0.000000 m /N glyphshow
8.976562 0.000000 m /T glyphshow
16.306641 0.000000 m /C glyphshow
24.685547 0.000000 m /h glyphshow
grestore
0.800 setgray
gsave
563.9 260.7 60.88 61.87 clipbox
599.194091 61.866113 m
599.194091 322.608 l
stroke
grestore
0.150 setgray
gsave
592.311121 53.145179 translate
290.000000 rotate
0.000000 0.000000 m /F glyphshow
6.902344 0.000000 m /F glyphshow
13.804688 0.000000 m /B glyphshow
grestore
0.800 setgray
gsave
563.9 260.7 60.88 61.87 clipbox
60.882 61.866113 m
624.828 61.866113 l
stroke
grestore
0.150 setgray
gsave
47.641375 57.303613 translate
0.000000 rotate
0.000000 0.000000 m /zero glyphshow
grestore
0.800 setgray
gsave
563.9 260.7 60.88 61.87 clipbox
60.882 102.683351 m
624.828 102.683351 l
stroke
grestore
0.150 setgray
gsave
40.000750 98.120851 translate
0.000000 rotate
0.000000 0.000000 m /five glyphshow
7.634766 0.000000 m /zero glyphshow
grestore
0.800 setgray
gsave
563.9 260.7 60.88 61.87 clipbox
60.882 143.500589 m
624.828 143.500589 l
stroke
grestore
0.150 setgray
gsave
32.360125 138.938089 translate
0.000000 rotate
0.000000 0.000000 m /one glyphshow
7.634766 0.000000 m /zero glyphshow
15.269531 0.000000 m /zero glyphshow
grestore
0.800 setgray
gsave
563.9 260.7 60.88 61.87 clipbox
60.882 184.317828 m
624.828 184.317828 l
stroke
grestore
0.150 setgray
gsave
32.360125 179.755328 translate
0.000000 rotate
0.000000 0.000000 m /one glyphshow
7.634766 0.000000 m /five glyphshow
15.269531 0.000000 m /zero glyphshow
grestore
0.800 setgray
gsave
563.9 260.7 60.88 61.87 clipbox
60.882 225.135066 m
624.828 225.135066 l
stroke
grestore
0.150 setgray
gsave
32.360125 220.572566 translate
0.000000 rotate
0.000000 0.000000 m /two glyphshow
7.634766 0.000000 m /zero glyphshow
15.269531 0.000000 m /zero glyphshow
grestore
0.800 setgray
gsave
563.9 260.7 60.88 61.87 clipbox
60.882 265.952304 m
624.828 265.952304 l
stroke
grestore
0.150 setgray
gsave
32.360125 261.389804 translate
0.000000 rotate
0.000000 0.000000 m /two glyphshow
7.634766 0.000000 m /five glyphshow
15.269531 0.000000 m /zero glyphshow
grestore
0.800 setgray
gsave
563.9 260.7 60.88 61.87 clipbox
60.882 306.769542 m
624.828 306.769542 l
stroke
grestore
0.150 setgray
gsave
32.360125 302.207042 translate
0.000000 rotate
0.000000 0.000000 m /three glyphshow
7.634766 0.000000 m /zero glyphshow
15.269531 0.000000 m /zero glyphshow
grestore
/DejaVuSans findfont
13.200 scalefont
setfont
gsave
25.657000 169.151119 translate
90.000000 rotate
0.000000 0.000000 m /G glyphshow
10.267456 0.000000 m /B glyphshow
19.357422 0.000000 m /slash glyphshow
23.821533 0.000000 m /s glyphshow
30.724731 0.000000 m /e glyphshow
38.876587 0.000000 m /c glyphshow
grestore
2.000 setlinewidth
[7.4 3.2] 0 setdash
0.769 0.306 0.322 setrgbcolor
gsave
563.9 260.7 60.88 61.87 clipbox
60.882 99.629406 m
624.828 99.629406 l
stroke
grestore
gsave
563.9 260.7 60.88 61.87 clipbox
/o {
gsave
newpath
translate
0 -7.5 m
1.989023 -7.5 3.896849 -6.709753 5.303301 -5.303301 c
6.709753 -3.896849 7.5 -1.989023 7.5 0 c
7.5 1.989023 6.709753 3.896849 5.303301 5.303301 c
3.896849 6.709753 1.989023 7.5 0 7.5 c
-1.989023 7.5 -3.896849 6.709753 -5.303301 5.303301 c
-6.709753 3.896849 -7.5 1.989023 -7.5 0 c
-7.5 -1.989023 -6.709753 -3.896849 -5.303301 -5.303301 c
-3.896849 -6.709753 -1.989023 -7.5 0 -7.5 c
cl

0.769 0.306 0.322 setrgbcolor
fill
grestore
} bind def
86.5159 160.473 o
113.499 115.66 o
140.482 74.3025 o
167.465 63.1331 o
194.448 62.1185 o
221.431 124.342 o
248.414 158.738 o
275.397 63.856 o
302.38 143.403 o
329.363 97.0784 o
356.347 106.496 o
383.33 112.87 o
410.313 150.755 o
437.296 71.7475 o
464.279 112.051 o
491.262 86.0683 o
518.245 67.1732 o
545.228 64.6483 o
572.211 75.8322 o
599.194 76.1849 o
grestore
0.298 0.447 0.690 setrgbcolor
gsave
563.9 260.7 60.88 61.87 clipbox
60.882 297.591378 m
624.828 297.591378 l
stroke
grestore
gsave
563.9 260.7 60.88 61.87 clipbox
/o {
gsave
newpath
translate
0 -7.5 m
1.989023 -7.5 3.896849 -6.709753 5.303301 -5.303301 c
6.709753 -3.896849 7.5 -1.989023 7.5 0 c
7.5 1.989023 6.709753 3.896849 5.303301 5.303301 c
3.896849 6.709753 1.989023 7.5 0 7.5 c
-1.989023 7.5 -3.896849 6.709753 -5.303301 5.303301 c
-6.709753 3.896849 -7.5 1.989023 -7.5 0 c
-7.5 -1.989023 -6.709753 -3.896849 -5.303301 -5.303301 c
-3.896849 -6.709753 -1.989023 -7.5 0 -7.5 c
cl

0.298 0.447 0.690 setrgbcolor
fill
grestore
} bind def
86.5159 276.306 o
113.499 120.829 o
140.482 82.8332 o
167.465 63.0175 o
194.448 62.3831 o
221.431 216.296 o
248.414 298.569 o
275.397 80.1176 o
302.38 286.814 o
329.363 154.897 o
356.347 149.973 o
383.33 197.308 o
410.313 206.205 o
437.296 136.904 o
464.279 123.031 o
491.262 98.1597 o
518.245 64.0671 o
545.228 84.3692 o
572.211 91.2411 o
599.194 148.841 o
grestore
0.333 0.659 0.408 setrgbcolor
gsave
563.9 260.7 60.88 61.87 clipbox
60.882 278.070125 m
624.828 278.070125 l
stroke
grestore
gsave
563.9 260.7 60.88 61.87 clipbox
/o {
gsave
newpath
translate
0 -7.5 m
1.989023 -7.5 3.896849 -6.709753 5.303301 -5.303301 c
6.709753 -3.896849 7.5 -1.989023 7.5 0 c
7.5 1.989023 6.709753 3.896849 5.303301 5.303301 c
3.896849 6.709753 1.989023 7.5 0 7.5 c
-1.989023 7.5 -3.896849 6.709753 -5.303301 5.303301 c
-6.709753 3.896849 -7.5 1.989023 -7.5 0 c
-7.5 -1.989023 -6.709753 -3.896849 -5.303301 -5.303301 c
-3.896849 -6.709753 -1.989023 -7.5 0 -7.5 c
cl

0.333 0.659 0.408 setrgbcolor
fill
grestore
} bind def
86.5159 269.145 o
113.499 136.501 o
140.482 85.7211 o
167.465 63.072 o
194.448 62.3454 o
221.431 226.093 o
248.414 310.204 o
275.397 77.9298 o
302.38 310.171 o
329.363 154.981 o
356.347 154.181 o
383.33 225.533 o
410.313 165.348 o
437.296 146.617 o
464.279 129.031 o
491.262 110.85 o
518.245 64.0331 o
545.228 85.1578 o
572.211 113.197 o
599.194 155.048 o
grestore
1.000 setlinewidth
0 setlinejoin
2 setlinecap
[] 0 setdash
0.800 setgray
gsave
60.882 61.866113 m
60.882 322.608 l
stroke
grestore
gsave
624.828 61.866113 m
624.828 322.608 l
stroke
grestore
gsave
60.882 61.866113 m
624.828 61.866113 l
stroke
grestore
gsave
60.882 322.608 m
624.828 322.608 l
stroke
grestore
0.150 setgray
/DejaVuSans-Bold findfont
20.000 scalefont
setfont
gsave
276.675313 328.608000 translate
0.000000 rotate
0.000000 0.000000 m /T glyphshow
13.642578 0.000000 m /h glyphshow
27.880859 0.000000 m /r glyphshow
37.744141 0.000000 m /o glyphshow
51.484375 0.000000 m /u glyphshow
65.722656 0.000000 m /g glyphshow
80.039062 0.000000 m /h glyphshow
94.277344 0.000000 m /p glyphshow
108.593750 0.000000 m /u glyphshow
122.832031 0.000000 m /t glyphshow
grestore
gsave
/o {
gsave
newpath
translate
0 -7.5 m
1.989023 -7.5 3.896849 -6.709753 5.303301 -5.303301 c
6.709753 -3.896849 7.5 -1.989023 7.5 0 c
7.5 1.989023 6.709753 3.896849 5.303301 5.303301 c
3.896849 6.709753 1.989023 7.5 0 7.5 c
-1.989023 7.5 -3.896849 6.709753 -5.303301 5.303301 c
-6.709753 3.896849 -7.5 1.989023 -7.5 0 c
-7.5 -1.989023 -6.709753 -3.896849 -5.303301 -5.303301 c
-3.896849 -6.709753 -1.989023 -7.5 0 -7.5 c
cl

0.769 0.306 0.322 setrgbcolor
fill
grestore
} bind def
647.628 210.75 o
grestore
/DejaVuSans findfont
12.000 scalefont
setfont
gsave
669.228000 206.549557 translate
0.000000 rotate
0.000000 0.000000 m /X glyphshow
8.220703 0.000000 m /e glyphshow
15.603516 0.000000 m /o glyphshow
22.945312 0.000000 m /n glyphshow
grestore
gsave
/o {
gsave
newpath
translate
0 -7.5 m
1.989023 -7.5 3.896849 -6.709753 5.303301 -5.303301 c
6.709753 -3.896849 7.5 -1.989023 7.5 0 c
7.5 1.989023 6.709753 3.896849 5.303301 5.303301 c
3.896849 6.709753 1.989023 7.5 0 7.5 c
-1.989023 7.5 -3.896849 6.709753 -5.303301 5.303301 c
-6.709753 3.896849 -7.5 1.989023 -7.5 0 c
-7.5 -1.989023 -6.709753 -3.896849 -5.303301 -5.303301 c
-3.896849 -6.709753 -1.989023 -7.5 0 -7.5 c
cl

0.298 0.447 0.690 setrgbcolor
fill
grestore
} bind def
647.628 193.125 o
grestore
gsave
669.228000 188.924557 translate
0.000000 rotate
0.000000 0.000000 m /K glyphshow
7.869141 0.000000 m /N glyphshow
16.845703 0.000000 m /L glyphshow
grestore
gsave
/o {
gsave
newpath
translate
0 -7.5 m
1.989023 -7.5 3.896849 -6.709753 5.303301 -5.303301 c
6.709753 -3.896849 7.5 -1.989023 7.5 0 c
7.5 1.989023 6.709753 3.896849 5.303301 5.303301 c
3.896849 6.709753 1.989023 7.5 0 7.5 c
-1.989023 7.5 -3.896849 6.709753 -5.303301 5.303301 c
-6.709753 3.896849 -7.5 1.989023 -7.5 0 c
-7.5 -1.989023 -6.709753 -3.896849 -5.303301 -5.303301 c
-3.896849 -6.709753 -1.989023 -7.5 0 -7.5 c
cl

0.333 0.659 0.408 setrgbcolor
fill
grestore
} bind def
647.628 175.5 o
grestore
gsave
669.228000 171.299557 translate
0.000000 rotate
0.000000 0.000000 m /K glyphshow
7.869141 0.000000 m /N glyphshow
16.845703 0.000000 m /M glyphshow
grestore

end
showpage
