%!PS-Adobe-3.0 EPSF-3.0
%%Title: img/utilization.eps
%%Creator: matplotlib version 2.2.3, http://matplotlib.org/
%%CreationDate: Sun Oct  7 15:57:34 2018
%%Orientation: portrait
%%BoundingBox: -270 180 882 612
%%EndComments
%%BeginProlog
/mpldict 8 dict def
mpldict begin
/m { moveto } bind def
/l { lineto } bind def
/r { rlineto } bind def
/c { curveto } bind def
/cl { closepath } bind def
/box {
m
1 index 0 r
0 exch r
neg 0 r
cl
} bind def
/clipbox {
box
clip
newpath
} bind def
%!PS-Adobe-3.0 Resource-Font
%%Title: DejaVu Sans
%%Copyright: Copyright (c) 2003 by Bitstream, Inc. All Rights Reserved. Copyright (c) 2006 by Tavmjong Bah. All Rights Reserved. DejaVu changes are in public domain 
%%Creator: Converted from TrueType to type 3 by PPR
25 dict begin
/_d{bind def}bind def
/_m{moveto}_d
/_l{lineto}_d
/_cl{closepath eofill}_d
/_c{curveto}_d
/_sc{7 -1 roll{setcachedevice}{pop pop pop pop pop pop}ifelse}_d
/_e{exec}_d
/FontName /DejaVuSans def
/PaintType 0 def
/FontMatrix[.001 0 0 .001 0 0]def
/FontBBox[-1021 -463 1793 1232]def
/FontType 3 def
/Encoding [ /space /percent /quotesingle /parenleft /parenright /hyphen /period /zero /one /two /three /four /six /seven /eight /A /C /E /H /K /L /N /O /P /R /S /T /U /Z /a /b /c /d /e /f /g /h /i /k /m /n /o /p /q /r /s /t /u /y ] def
/FontInfo 10 dict dup begin
/FamilyName (DejaVu Sans) def
/FullName (DejaVu Sans) def
/Notice (Copyright (c) 2003 by Bitstream, Inc. All Rights Reserved. Copyright (c) 2006 by Tavmjong Bah. All Rights Reserved. DejaVu changes are in public domain ) def
/Weight (Book) def
/Version (Version 2.35) def
/ItalicAngle 0.0 def
/isFixedPitch false def
/UnderlinePosition -130 def
/UnderlineThickness 90 def
end readonly def
/CharStrings 50 dict dup begin
/.notdef 0 def
/space{318 0 0 0 0 0 _sc
}_d
/percent{{950 0 55 -13 895 742 _sc
727 321 _m
699 321 676 309 660 285 _c
644 261 636 227 636 184 _c
636 142 644 108 660 84 _c
676 60 699 48 727 48 _c
755 48 777 60 793 84 _c
809 108 817 142 817 184 _c
817 226 809 260 793 284 _c
777 308 755 321 727 321 _c
727 383 _m
778 383 819 365 849 329 _c
879 293 895 244 895 184 _c
895 123 879 75 849 40 _c
819 4 778 -13 727 -13 _c
}_e{675 -13 633 4 603 40 _c
573 75 558 123 558 184 _c
558 245 573 293 603 329 _c
633 365 675 383 727 383 _c
223 680 _m
195 680 173 667 157 643 _c
141 619 133 586 133 544 _c
133 500 141 467 157 443 _c
173 419 195 407 223 407 _c
251 407 274 419 290 443 _c
306 467 314 500 314 544 _c
314 586 305 619 289 643 _c
273 667 251 680 223 680 _c
664 742 _m
742 742 _l
286 -13 _l
}_e{208 -13 _l
664 742 _l
223 742 _m
274 742 315 724 346 688 _c
376 652 392 604 392 544 _c
392 482 376 434 346 398 _c
316 362 275 345 223 345 _c
171 345 130 362 100 398 _c
70 434 55 482 55 544 _c
55 604 70 652 100 688 _c
130 724 171 742 223 742 _c
_cl}_e}_d
/quotesingle{275 0 96 458 179 729 _sc
179 729 _m
179 458 _l
96 458 _l
96 729 _l
179 729 _l
_cl}_d
/parenleft{390 0 86 -131 310 759 _sc
310 759 _m
266 683 234 609 213 536 _c
191 463 181 389 181 314 _c
181 238 191 164 213 91 _c
234 17 266 -56 310 -131 _c
232 -131 _l
183 -54 146 20 122 94 _c
98 168 86 241 86 314 _c
86 386 98 459 122 533 _c
146 607 182 682 232 759 _c
310 759 _l
_cl}_d
/parenright{390 0 80 -131 304 759 _sc
80 759 _m
158 759 _l
206 682 243 607 267 533 _c
291 459 304 386 304 314 _c
304 241 291 168 267 94 _c
243 20 206 -54 158 -131 _c
80 -131 _l
123 -56 155 17 177 91 _c
198 164 209 238 209 314 _c
209 389 198 463 177 536 _c
155 609 123 683 80 759 _c
_cl}_d
/hyphen{361 0 49 234 312 314 _sc
49 314 _m
312 314 _l
312 234 _l
49 234 _l
49 314 _l
_cl}_d
/period{318 0 107 0 210 124 _sc
107 124 _m
210 124 _l
210 0 _l
107 0 _l
107 124 _l
_cl}_d
/zero{636 0 66 -13 570 742 _sc
318 664 _m
267 664 229 639 203 589 _c
177 539 165 464 165 364 _c
165 264 177 189 203 139 _c
229 89 267 64 318 64 _c
369 64 407 89 433 139 _c
458 189 471 264 471 364 _c
471 464 458 539 433 589 _c
407 639 369 664 318 664 _c
318 742 _m
399 742 461 709 505 645 _c
548 580 570 486 570 364 _c
570 241 548 147 505 83 _c
461 19 399 -13 318 -13 _c
236 -13 173 19 130 83 _c
87 147 66 241 66 364 _c
66 486 87 580 130 645 _c
173 709 236 742 318 742 _c
_cl}_d
/one{636 0 110 0 544 729 _sc
124 83 _m
285 83 _l
285 639 _l
110 604 _l
110 694 _l
284 729 _l
383 729 _l
383 83 _l
544 83 _l
544 0 _l
124 0 _l
124 83 _l
_cl}_d
/two{{636 0 73 0 536 742 _sc
192 83 _m
536 83 _l
536 0 _l
73 0 _l
73 83 _l
110 121 161 173 226 239 _c
290 304 331 346 348 365 _c
380 400 402 430 414 455 _c
426 479 433 504 433 528 _c
433 566 419 598 392 622 _c
365 646 330 659 286 659 _c
255 659 222 653 188 643 _c
154 632 117 616 78 594 _c
78 694 _l
118 710 155 722 189 730 _c
223 738 255 742 284 742 _c
}_e{359 742 419 723 464 685 _c
509 647 532 597 532 534 _c
532 504 526 475 515 449 _c
504 422 484 390 454 354 _c
446 344 420 317 376 272 _c
332 227 271 164 192 83 _c
_cl}_e}_d
/three{{636 0 76 -13 556 742 _sc
406 393 _m
453 383 490 362 516 330 _c
542 298 556 258 556 212 _c
556 140 531 84 482 45 _c
432 6 362 -13 271 -13 _c
240 -13 208 -10 176 -4 _c
144 1 110 10 76 22 _c
76 117 _l
103 101 133 89 166 81 _c
198 73 232 69 268 69 _c
330 69 377 81 409 105 _c
441 129 458 165 458 212 _c
458 254 443 288 413 312 _c
383 336 341 349 287 349 _c
}_e{202 349 _l
202 430 _l
291 430 _l
339 430 376 439 402 459 _c
428 478 441 506 441 543 _c
441 580 427 609 401 629 _c
374 649 336 659 287 659 _c
260 659 231 656 200 650 _c
169 644 135 635 98 623 _c
98 711 _l
135 721 170 729 203 734 _c
235 739 266 742 296 742 _c
370 742 429 725 473 691 _c
517 657 539 611 539 553 _c
539 513 527 479 504 451 _c
481 423 448 403 406 393 _c
_cl}_e}_d
/four{636 0 49 0 580 729 _sc
378 643 _m
129 254 _l
378 254 _l
378 643 _l
352 729 _m
476 729 _l
476 254 _l
580 254 _l
580 172 _l
476 172 _l
476 0 _l
378 0 _l
378 172 _l
49 172 _l
49 267 _l
352 729 _l
_cl}_d
/six{{636 0 70 -13 573 742 _sc
330 404 _m
286 404 251 388 225 358 _c
199 328 186 286 186 234 _c
186 181 199 139 225 109 _c
251 79 286 64 330 64 _c
374 64 409 79 435 109 _c
461 139 474 181 474 234 _c
474 286 461 328 435 358 _c
409 388 374 404 330 404 _c
526 713 _m
526 623 _l
501 635 476 644 451 650 _c
425 656 400 659 376 659 _c
310 659 260 637 226 593 _c
}_e{192 549 172 482 168 394 _c
187 422 211 444 240 459 _c
269 474 301 482 336 482 _c
409 482 467 459 509 415 _c
551 371 573 310 573 234 _c
573 159 550 99 506 54 _c
462 9 403 -13 330 -13 _c
246 -13 181 19 137 83 _c
92 147 70 241 70 364 _c
70 479 97 571 152 639 _c
206 707 280 742 372 742 _c
396 742 421 739 447 735 _c
472 730 498 723 526 713 _c
_cl}_e}_d
/seven{636 0 82 0 551 729 _sc
82 729 _m
551 729 _l
551 687 _l
286 0 _l
183 0 _l
432 646 _l
82 646 _l
82 729 _l
_cl}_d
/eight{{636 0 68 -13 568 742 _sc
318 346 _m
271 346 234 333 207 308 _c
180 283 167 249 167 205 _c
167 161 180 126 207 101 _c
234 76 271 64 318 64 _c
364 64 401 76 428 102 _c
455 127 469 161 469 205 _c
469 249 455 283 429 308 _c
402 333 365 346 318 346 _c
219 388 _m
177 398 144 418 120 447 _c
96 476 85 511 85 553 _c
85 611 105 657 147 691 _c
188 725 245 742 318 742 _c
}_e{390 742 447 725 489 691 _c
530 657 551 611 551 553 _c
551 511 539 476 515 447 _c
491 418 459 398 417 388 _c
464 377 501 355 528 323 _c
554 291 568 251 568 205 _c
568 134 546 80 503 43 _c
459 5 398 -13 318 -13 _c
237 -13 175 5 132 43 _c
89 80 68 134 68 205 _c
68 251 81 291 108 323 _c
134 355 171 377 219 388 _c
183 544 _m
183 506 194 476 218 455 _c
}_e{242 434 275 424 318 424 _c
360 424 393 434 417 455 _c
441 476 453 506 453 544 _c
453 582 441 611 417 632 _c
393 653 360 664 318 664 _c
275 664 242 653 218 632 _c
194 611 183 582 183 544 _c
_cl}_e}_d
/A{684 0 8 0 676 729 _sc
342 632 _m
208 269 _l
476 269 _l
342 632 _l
286 729 _m
398 729 _l
676 0 _l
573 0 _l
507 187 _l
178 187 _l
112 0 _l
8 0 _l
286 729 _l
_cl}_d
/C{{698 0 56 -13 644 742 _sc
644 673 _m
644 569 _l
610 599 575 622 537 638 _c
499 653 460 661 418 661 _c
334 661 270 635 226 584 _c
182 533 160 460 160 364 _c
160 268 182 194 226 143 _c
270 92 334 67 418 67 _c
460 67 499 74 537 90 _c
575 105 610 128 644 159 _c
644 56 _l
609 32 572 15 534 4 _c
496 -7 455 -13 412 -13 _c
302 -13 215 20 151 87 _c
}_e{87 154 56 246 56 364 _c
56 481 87 573 151 641 _c
215 708 302 742 412 742 _c
456 742 497 736 535 725 _c
573 713 610 696 644 673 _c
_cl}_e}_d
/E{632 0 98 0 568 729 _sc
98 729 _m
559 729 _l
559 646 _l
197 646 _l
197 430 _l
544 430 _l
544 347 _l
197 347 _l
197 83 _l
568 83 _l
568 0 _l
98 0 _l
98 729 _l
_cl}_d
/H{752 0 98 0 654 729 _sc
98 729 _m
197 729 _l
197 430 _l
555 430 _l
555 729 _l
654 729 _l
654 0 _l
555 0 _l
555 347 _l
197 347 _l
197 0 _l
98 0 _l
98 729 _l
_cl}_d
/K{656 0 98 0 677 729 _sc
98 729 _m
197 729 _l
197 421 _l
524 729 _l
651 729 _l
289 389 _l
677 0 _l
547 0 _l
197 351 _l
197 0 _l
98 0 _l
98 729 _l
_cl}_d
/L{557 0 98 0 552 729 _sc
98 729 _m
197 729 _l
197 83 _l
552 83 _l
552 0 _l
98 0 _l
98 729 _l
_cl}_d
/N{748 0 98 0 650 729 _sc
98 729 _m
231 729 _l
554 119 _l
554 729 _l
650 729 _l
650 0 _l
517 0 _l
194 610 _l
194 0 _l
98 0 _l
98 729 _l
_cl}_d
/O{787 0 56 -13 731 742 _sc
394 662 _m
322 662 265 635 223 582 _c
181 528 160 456 160 364 _c
160 272 181 199 223 146 _c
265 92 322 66 394 66 _c
465 66 522 92 564 146 _c
606 199 627 272 627 364 _c
627 456 606 528 564 582 _c
522 635 465 662 394 662 _c
394 742 _m
496 742 577 707 639 639 _c
700 571 731 479 731 364 _c
731 248 700 157 639 89 _c
577 21 496 -13 394 -13 _c
291 -13 209 21 148 89 _c
86 157 56 248 56 364 _c
56 479 86 571 148 639 _c
209 707 291 742 394 742 _c
_cl}_d
/P{603 0 98 0 569 729 _sc
197 648 _m
197 374 _l
321 374 _l
367 374 402 385 427 409 _c
452 433 465 467 465 511 _c
465 555 452 588 427 612 _c
402 636 367 648 321 648 _c
197 648 _l
98 729 _m
321 729 _l
402 729 464 710 506 673 _c
548 636 569 582 569 511 _c
569 439 548 384 506 348 _c
464 311 402 293 321 293 _c
197 293 _l
197 0 _l
98 0 _l
98 729 _l
_cl}_d
/R{{695 0 98 0 666 729 _sc
444 342 _m
465 334 486 319 506 296 _c
526 272 546 240 566 199 _c
666 0 _l
560 0 _l
467 187 _l
443 235 419 268 397 284 _c
374 300 343 308 304 308 _c
197 308 _l
197 0 _l
98 0 _l
98 729 _l
321 729 _l
404 729 466 711 507 677 _c
548 642 569 589 569 519 _c
569 473 558 434 537 404 _c
515 374 484 353 444 342 _c
197 648 _m
197 389 _l
321 389 _l
}_e{368 389 404 400 428 422 _c
452 444 465 476 465 519 _c
465 561 452 593 428 615 _c
404 637 368 648 321 648 _c
197 648 _l
_cl}_e}_d
/S{{635 0 66 -13 579 742 _sc
535 705 _m
535 609 _l
497 627 462 640 429 649 _c
395 657 363 662 333 662 _c
279 662 237 651 208 631 _c
179 610 165 580 165 542 _c
165 510 174 485 194 469 _c
213 452 250 439 304 429 _c
364 417 _l
437 403 491 378 526 343 _c
561 307 579 260 579 201 _c
579 130 555 77 508 41 _c
460 5 391 -13 300 -13 _c
265 -13 228 -9 189 -2 _c
}_e{150 5 110 16 69 32 _c
69 134 _l
109 111 148 94 186 83 _c
224 71 262 66 300 66 _c
356 66 399 77 430 99 _c
460 121 476 152 476 194 _c
476 230 465 258 443 278 _c
421 298 385 313 335 323 _c
275 335 _l
201 349 148 372 115 404 _c
82 435 66 478 66 534 _c
66 598 88 649 134 686 _c
179 723 242 742 322 742 _c
356 742 390 739 426 733 _c
461 727 497 717 535 705 _c
}_e{_cl}_e}_d
/T{611 0 -2 0 614 729 _sc
-2 729 _m
614 729 _l
614 646 _l
355 646 _l
355 0 _l
256 0 _l
256 646 _l
-2 646 _l
-2 729 _l
_cl}_d
/U{732 0 87 -13 645 729 _sc
87 729 _m
186 729 _l
186 286 _l
186 208 200 151 228 117 _c
256 83 302 66 366 66 _c
429 66 475 83 503 117 _c
531 151 546 208 546 286 _c
546 729 _l
645 729 _l
645 274 _l
645 178 621 107 574 59 _c
527 11 458 -13 366 -13 _c
274 -13 204 11 157 59 _c
110 107 87 178 87 274 _c
87 729 _l
_cl}_d
/Z{685 0 45 0 640 729 _sc
56 729 _m
629 729 _l
629 654 _l
168 83 _l
640 83 _l
640 0 _l
45 0 _l
45 75 _l
506 646 _l
56 646 _l
56 729 _l
_cl}_d
/a{{613 0 60 -13 522 560 _sc
343 275 _m
270 275 220 266 192 250 _c
164 233 150 205 150 165 _c
150 133 160 107 181 89 _c
202 70 231 61 267 61 _c
317 61 357 78 387 114 _c
417 149 432 196 432 255 _c
432 275 _l
343 275 _l
522 312 _m
522 0 _l
432 0 _l
432 83 _l
411 49 385 25 355 10 _c
325 -5 287 -13 243 -13 _c
187 -13 142 2 109 33 _c
76 64 60 106 60 159 _c
}_e{60 220 80 266 122 298 _c
163 329 224 345 306 345 _c
432 345 _l
432 354 _l
432 395 418 427 391 450 _c
364 472 326 484 277 484 _c
245 484 215 480 185 472 _c
155 464 127 453 100 439 _c
100 522 _l
132 534 164 544 195 550 _c
226 556 256 560 286 560 _c
365 560 424 539 463 498 _c
502 457 522 395 522 312 _c
_cl}_e}_d
/b{{635 0 91 -13 580 760 _sc
487 273 _m
487 339 473 390 446 428 _c
418 466 381 485 334 485 _c
286 485 249 466 222 428 _c
194 390 181 339 181 273 _c
181 207 194 155 222 117 _c
249 79 286 61 334 61 _c
381 61 418 79 446 117 _c
473 155 487 207 487 273 _c
181 464 _m
199 496 223 520 252 536 _c
281 552 316 560 356 560 _c
422 560 476 533 518 481 _c
559 428 580 359 580 273 _c
}_e{580 187 559 117 518 65 _c
476 13 422 -13 356 -13 _c
316 -13 281 -5 252 10 _c
223 25 199 49 181 82 _c
181 0 _l
91 0 _l
91 760 _l
181 760 _l
181 464 _l
_cl}_e}_d
/c{{550 0 55 -13 488 560 _sc
488 526 _m
488 442 _l
462 456 437 466 411 473 _c
385 480 360 484 334 484 _c
276 484 230 465 198 428 _c
166 391 150 339 150 273 _c
150 206 166 154 198 117 _c
230 80 276 62 334 62 _c
360 62 385 65 411 72 _c
437 79 462 90 488 104 _c
488 21 _l
462 9 436 0 410 -5 _c
383 -10 354 -13 324 -13 _c
242 -13 176 12 128 64 _c
}_e{79 115 55 185 55 273 _c
55 362 79 432 128 483 _c
177 534 244 560 330 560 _c
358 560 385 557 411 551 _c
437 545 463 537 488 526 _c
_cl}_e}_d
/d{{635 0 55 -13 544 760 _sc
454 464 _m
454 760 _l
544 760 _l
544 0 _l
454 0 _l
454 82 _l
435 49 411 25 382 10 _c
353 -5 319 -13 279 -13 _c
213 -13 159 13 117 65 _c
75 117 55 187 55 273 _c
55 359 75 428 117 481 _c
159 533 213 560 279 560 _c
319 560 353 552 382 536 _c
411 520 435 496 454 464 _c
148 273 _m
148 207 161 155 188 117 _c
215 79 253 61 301 61 _c
}_e{348 61 385 79 413 117 _c
440 155 454 207 454 273 _c
454 339 440 390 413 428 _c
385 466 348 485 301 485 _c
253 485 215 466 188 428 _c
161 390 148 339 148 273 _c
_cl}_e}_d
/e{{615 0 55 -13 562 560 _sc
562 296 _m
562 252 _l
149 252 _l
153 190 171 142 205 110 _c
238 78 284 62 344 62 _c
378 62 412 66 444 74 _c
476 82 509 95 541 113 _c
541 28 _l
509 14 476 3 442 -3 _c
408 -9 373 -13 339 -13 _c
251 -13 182 12 131 62 _c
80 112 55 181 55 268 _c
55 357 79 428 127 481 _c
175 533 241 560 323 560 _c
397 560 455 536 498 489 _c
}_e{540 441 562 377 562 296 _c
472 322 _m
471 371 457 410 431 440 _c
404 469 368 484 324 484 _c
274 484 234 469 204 441 _c
174 413 156 373 152 322 _c
472 322 _l
_cl}_e}_d
/f{352 0 23 0 371 760 _sc
371 760 _m
371 685 _l
285 685 _l
253 685 230 678 218 665 _c
205 652 199 629 199 595 _c
199 547 _l
347 547 _l
347 477 _l
199 477 _l
199 0 _l
109 0 _l
109 477 _l
23 477 _l
23 547 _l
109 547 _l
109 585 _l
109 645 123 690 151 718 _c
179 746 224 760 286 760 _c
371 760 _l
_cl}_d
/g{{635 0 55 -207 544 560 _sc
454 280 _m
454 344 440 395 414 431 _c
387 467 349 485 301 485 _c
253 485 215 467 188 431 _c
161 395 148 344 148 280 _c
148 215 161 165 188 129 _c
215 93 253 75 301 75 _c
349 75 387 93 414 129 _c
440 165 454 215 454 280 _c
544 68 _m
544 -24 523 -93 482 -139 _c
440 -184 377 -207 292 -207 _c
260 -207 231 -204 203 -200 _c
175 -195 147 -188 121 -178 _c
}_e{121 -91 _l
147 -105 173 -115 199 -122 _c
225 -129 251 -133 278 -133 _c
336 -133 380 -117 410 -87 _c
439 -56 454 -10 454 52 _c
454 96 _l
435 64 411 40 382 24 _c
353 8 319 0 279 0 _c
211 0 157 25 116 76 _c
75 127 55 195 55 280 _c
55 364 75 432 116 483 _c
157 534 211 560 279 560 _c
319 560 353 552 382 536 _c
411 520 435 496 454 464 _c
454 547 _l
544 547 _l
}_e{544 68 _l
_cl}_e}_d
/h{634 0 91 0 549 760 _sc
549 330 _m
549 0 _l
459 0 _l
459 327 _l
459 379 448 417 428 443 _c
408 469 378 482 338 482 _c
289 482 251 466 223 435 _c
195 404 181 362 181 309 _c
181 0 _l
91 0 _l
91 760 _l
181 760 _l
181 462 _l
202 494 227 519 257 535 _c
286 551 320 560 358 560 _c
420 560 468 540 500 501 _c
532 462 549 405 549 330 _c
_cl}_d
/i{278 0 94 0 184 760 _sc
94 547 _m
184 547 _l
184 0 _l
94 0 _l
94 547 _l
94 760 _m
184 760 _l
184 646 _l
94 646 _l
94 760 _l
_cl}_d
/k{579 0 91 0 576 760 _sc
91 760 _m
181 760 _l
181 311 _l
449 547 _l
564 547 _l
274 291 _l
576 0 _l
459 0 _l
181 267 _l
181 0 _l
91 0 _l
91 760 _l
_cl}_d
/m{{974 0 91 0 889 560 _sc
520 442 _m
542 482 569 511 600 531 _c
631 550 668 560 711 560 _c
767 560 811 540 842 500 _c
873 460 889 403 889 330 _c
889 0 _l
799 0 _l
799 327 _l
799 379 789 418 771 444 _c
752 469 724 482 686 482 _c
639 482 602 466 575 435 _c
548 404 535 362 535 309 _c
535 0 _l
445 0 _l
445 327 _l
445 379 435 418 417 444 _c
398 469 369 482 331 482 _c
}_e{285 482 248 466 221 435 _c
194 404 181 362 181 309 _c
181 0 _l
91 0 _l
91 547 _l
181 547 _l
181 462 _l
201 495 226 520 255 536 _c
283 552 317 560 357 560 _c
397 560 430 550 458 530 _c
486 510 506 480 520 442 _c
_cl}_e}_d
/n{634 0 91 0 549 560 _sc
549 330 _m
549 0 _l
459 0 _l
459 327 _l
459 379 448 417 428 443 _c
408 469 378 482 338 482 _c
289 482 251 466 223 435 _c
195 404 181 362 181 309 _c
181 0 _l
91 0 _l
91 547 _l
181 547 _l
181 462 _l
202 494 227 519 257 535 _c
286 551 320 560 358 560 _c
420 560 468 540 500 501 _c
532 462 549 405 549 330 _c
_cl}_d
/o{612 0 55 -13 557 560 _sc
306 484 _m
258 484 220 465 192 427 _c
164 389 150 338 150 273 _c
150 207 163 156 191 118 _c
219 80 257 62 306 62 _c
354 62 392 80 420 118 _c
448 156 462 207 462 273 _c
462 337 448 389 420 427 _c
392 465 354 484 306 484 _c
306 560 _m
384 560 445 534 490 484 _c
534 433 557 363 557 273 _c
557 183 534 113 490 63 _c
445 12 384 -13 306 -13 _c
227 -13 165 12 121 63 _c
77 113 55 183 55 273 _c
55 363 77 433 121 484 _c
165 534 227 560 306 560 _c
_cl}_d
/p{{635 0 91 -207 580 560 _sc
181 82 _m
181 -207 _l
91 -207 _l
91 547 _l
181 547 _l
181 464 _l
199 496 223 520 252 536 _c
281 552 316 560 356 560 _c
422 560 476 533 518 481 _c
559 428 580 359 580 273 _c
580 187 559 117 518 65 _c
476 13 422 -13 356 -13 _c
316 -13 281 -5 252 10 _c
223 25 199 49 181 82 _c
487 273 _m
487 339 473 390 446 428 _c
418 466 381 485 334 485 _c
}_e{286 485 249 466 222 428 _c
194 390 181 339 181 273 _c
181 207 194 155 222 117 _c
249 79 286 61 334 61 _c
381 61 418 79 446 117 _c
473 155 487 207 487 273 _c
_cl}_e}_d
/q{{635 0 55 -207 544 560 _sc
148 273 _m
148 207 161 155 188 117 _c
215 79 253 61 301 61 _c
348 61 385 79 413 117 _c
440 155 454 207 454 273 _c
454 339 440 390 413 428 _c
385 466 348 485 301 485 _c
253 485 215 466 188 428 _c
161 390 148 339 148 273 _c
454 82 _m
435 49 411 25 382 10 _c
353 -5 319 -13 279 -13 _c
213 -13 159 13 117 65 _c
75 117 55 187 55 273 _c
}_e{55 359 75 428 117 481 _c
159 533 213 560 279 560 _c
319 560 353 552 382 536 _c
411 520 435 496 454 464 _c
454 547 _l
544 547 _l
544 -207 _l
454 -207 _l
454 82 _l
_cl}_e}_d
/r{411 0 91 0 411 560 _sc
411 463 _m
401 469 390 473 378 476 _c
366 478 353 480 339 480 _c
288 480 249 463 222 430 _c
194 397 181 350 181 288 _c
181 0 _l
91 0 _l
91 547 _l
181 547 _l
181 462 _l
199 495 224 520 254 536 _c
284 552 321 560 365 560 _c
371 560 378 559 386 559 _c
393 558 401 557 411 555 _c
411 463 _l
_cl}_d
/s{{521 0 54 -13 472 560 _sc
443 531 _m
443 446 _l
417 458 391 468 364 475 _c
336 481 308 485 279 485 _c
234 485 200 478 178 464 _c
156 450 145 430 145 403 _c
145 382 153 366 169 354 _c
185 342 217 330 265 320 _c
296 313 _l
360 299 405 279 432 255 _c
458 230 472 195 472 151 _c
472 100 452 60 412 31 _c
372 1 316 -13 246 -13 _c
216 -13 186 -10 154 -5 _c
}_e{122 0 89 8 54 20 _c
54 113 _l
87 95 120 82 152 74 _c
184 65 216 61 248 61 _c
290 61 323 68 346 82 _c
368 96 380 117 380 144 _c
380 168 371 187 355 200 _c
339 213 303 226 247 238 _c
216 245 _l
160 257 119 275 95 299 _c
70 323 58 356 58 399 _c
58 450 76 490 112 518 _c
148 546 200 560 268 560 _c
301 560 332 557 362 552 _c
391 547 418 540 443 531 _c
}_e{_cl}_e}_d
/t{392 0 27 0 368 702 _sc
183 702 _m
183 547 _l
368 547 _l
368 477 _l
183 477 _l
183 180 _l
183 135 189 106 201 94 _c
213 81 238 75 276 75 _c
368 75 _l
368 0 _l
276 0 _l
206 0 158 13 132 39 _c
106 65 93 112 93 180 _c
93 477 _l
27 477 _l
27 547 _l
93 547 _l
93 702 _l
183 702 _l
_cl}_d
/u{634 0 85 -13 543 560 _sc
85 216 _m
85 547 _l
175 547 _l
175 219 _l
175 167 185 129 205 103 _c
225 77 255 64 296 64 _c
344 64 383 79 411 110 _c
439 141 453 183 453 237 _c
453 547 _l
543 547 _l
543 0 _l
453 0 _l
453 84 _l
431 50 405 26 377 10 _c
348 -5 315 -13 277 -13 _c
214 -13 166 6 134 45 _c
101 83 85 140 85 216 _c
311 560 _m
311 560 _l
_cl}_d
/y{592 0 30 -207 562 547 _sc
322 -50 _m
296 -114 271 -157 247 -177 _c
223 -197 191 -207 151 -207 _c
79 -207 _l
79 -132 _l
132 -132 _l
156 -132 175 -126 189 -114 _c
203 -102 218 -75 235 -31 _c
251 9 _l
30 547 _l
125 547 _l
296 119 _l
467 547 _l
562 547 _l
322 -50 _l
_cl}_d
end readonly def

/BuildGlyph
 {exch begin
 CharStrings exch
 2 copy known not{pop /.notdef}if
 true 3 1 roll get exec
 end}_d

/BuildChar {
 1 index /Encoding get exch get
 1 index /BuildGlyph get exec
}_d

FontName currentdict end definefont pop
end
%%EndProlog
mpldict begin
-270 180 translate
1152 432 0 0 clipbox
gsave
0 0 m
1152 0 l
1152 432 l
0 432 l
cl
1.000 setgray
fill
grestore
gsave
61.062 100.978199 m
1061.418 100.978199 l
1061.418 416.448 l
61.062 416.448 l
cl
1.000 setgray
fill
grestore
0.800 setlinewidth
1 setlinejoin
0 setlinecap
[2.96 1.28] 0 setdash
0.800 setgray
gsave
1000 315.5 61.06 101 clipbox
121.817005 100.978199 m
121.817005 416.448 l
stroke
grestore
gsave
1000 315.5 61.06 101 clipbox
160.027701 100.978199 m
160.027701 416.448 l
stroke
grestore
0.150 setgray
/DejaVuSans findfont
12.000 scalefont
setfont
gsave
147.399861 92.257265 translate
290.000000 rotate
0.000000 0.000000 m /A glyphshow
8.208984 0.000000 m /N glyphshow
17.185547 0.000000 m /L glyphshow
23.871094 0.000000 m /space glyphshow
27.685547 0.000000 m /parenleft glyphshow
32.367188 0.000000 m /quotesingle glyphshow
35.666016 0.000000 m /one glyphshow
43.300781 0.000000 m /six glyphshow
50.935547 0.000000 m /parenright glyphshow
grestore
0.800 setgray
gsave
1000 315.5 61.06 101 clipbox
198.238396 100.978199 m
198.238396 416.448 l
stroke
grestore
gsave
1000 315.5 61.06 101 clipbox
236.449091 100.978199 m
236.449091 416.448 l
stroke
grestore
gsave
1000 315.5 61.06 101 clipbox
274.659786 100.978199 m
274.659786 416.448 l
stroke
grestore
0.150 setgray
gsave
259.119432 92.257265 translate
290.000000 rotate
0.000000 0.000000 m /N glyphshow
8.976562 0.000000 m /E glyphshow
16.558594 0.000000 m /R glyphshow
24.896484 0.000000 m /S glyphshow
32.513672 0.000000 m /C glyphshow
40.892578 0.000000 m /space glyphshow
44.707031 0.000000 m /parenleft glyphshow
49.388672 0.000000 m /quotesingle glyphshow
52.687500 0.000000 m /one glyphshow
60.322266 0.000000 m /six glyphshow
67.957031 0.000000 m /parenright glyphshow
grestore
0.800 setgray
gsave
1000 315.5 61.06 101 clipbox
312.870481 100.978199 m
312.870481 416.448 l
stroke
grestore
gsave
1000 315.5 61.06 101 clipbox
351.081176 100.978199 m
351.081176 416.448 l
stroke
grestore
gsave
1000 315.5 61.06 101 clipbox
389.291872 100.978199 m
389.291872 416.448 l
stroke
grestore
0.150 setgray
gsave
375.328016 92.257265 translate
290.000000 rotate
0.000000 0.000000 m /H glyphshow
9.023438 0.000000 m /L glyphshow
15.708984 0.000000 m /R glyphshow
24.046875 0.000000 m /S glyphshow
31.664062 0.000000 m /space glyphshow
35.478516 0.000000 m /parenleft glyphshow
40.160156 0.000000 m /quotesingle glyphshow
43.458984 0.000000 m /one glyphshow
51.093750 0.000000 m /seven glyphshow
58.728516 0.000000 m /parenright glyphshow
grestore
0.800 setgray
gsave
1000 315.5 61.06 101 clipbox
427.502567 100.978199 m
427.502567 416.448 l
stroke
grestore
gsave
1000 315.5 61.06 101 clipbox
465.713262 100.978199 m
465.713262 416.448 l
stroke
grestore
gsave
1000 315.5 61.06 101 clipbox
503.923957 100.978199 m
503.923957 416.448 l
stroke
grestore
0.150 setgray
gsave
489.823828 92.257265 translate
290.000000 rotate
0.000000 0.000000 m /R glyphshow
8.337891 0.000000 m /R glyphshow
16.675781 0.000000 m /Z glyphshow
24.896484 0.000000 m /E glyphshow
32.478516 0.000000 m /space glyphshow
36.292969 0.000000 m /parenleft glyphshow
40.974609 0.000000 m /quotesingle glyphshow
44.273438 0.000000 m /one glyphshow
51.908203 0.000000 m /seven glyphshow
59.542969 0.000000 m /parenright glyphshow
grestore
0.800 setgray
gsave
1000 315.5 61.06 101 clipbox
542.134652 100.978199 m
542.134652 416.448 l
stroke
grestore
gsave
1000 315.5 61.06 101 clipbox
580.345348 100.978199 m
580.345348 416.448 l
stroke
grestore
gsave
1000 315.5 61.06 101 clipbox
618.556043 100.978199 m
618.556043 416.448 l
stroke
grestore
0.150 setgray
gsave
604.538747 92.257265 translate
290.000000 rotate
0.000000 0.000000 m /C glyphshow
8.378906 0.000000 m /S glyphshow
15.996094 0.000000 m /C glyphshow
24.375000 0.000000 m /S glyphshow
31.992188 0.000000 m /space glyphshow
35.806641 0.000000 m /parenleft glyphshow
40.488281 0.000000 m /quotesingle glyphshow
43.787109 0.000000 m /one glyphshow
51.421875 0.000000 m /seven glyphshow
59.056641 0.000000 m /parenright glyphshow
grestore
0.800 setgray
gsave
1000 315.5 61.06 101 clipbox
656.766738 100.978199 m
656.766738 416.448 l
stroke
grestore
gsave
1000 315.5 61.06 101 clipbox
694.977433 100.978199 m
694.977433 416.448 l
stroke
grestore
gsave
1000 315.5 61.06 101 clipbox
733.188128 100.978199 m
733.188128 416.448 l
stroke
grestore
0.150 setgray
gsave
736.378874 75.900741 translate
290.000000 rotate
0.000000 0.000000 m /R glyphshow
8.337891 0.000000 m /hyphen glyphshow
12.667969 0.000000 m /C glyphshow
21.046875 0.000000 m /C glyphshow
29.425781 0.000000 m /S glyphshow
grestore
gsave
717.786720 87.657094 translate
290.000000 rotate
0.000000 0.000000 m /K glyphshow
7.853516 0.000000 m /hyphen glyphshow
12.183594 0.000000 m /C glyphshow
20.562500 0.000000 m /o glyphshow
27.904297 0.000000 m /m glyphshow
39.593750 0.000000 m /p glyphshow
47.210938 0.000000 m /u glyphshow
54.816406 0.000000 m /t glyphshow
59.521484 0.000000 m /e glyphshow
66.904297 0.000000 m /r glyphshow
grestore
gsave
712.004289 64.219023 translate
290.000000 rotate
0.000000 0.000000 m /space glyphshow
3.814453 0.000000 m /parenleft glyphshow
8.496094 0.000000 m /quotesingle glyphshow
11.794922 0.000000 m /one glyphshow
19.429688 0.000000 m /six glyphshow
27.064453 0.000000 m /parenright glyphshow
grestore
0.800 setgray
gsave
1000 315.5 61.06 101 clipbox
771.398824 100.978199 m
771.398824 416.448 l
stroke
grestore
gsave
1000 315.5 61.06 101 clipbox
809.609519 100.978199 m
809.609519 416.448 l
stroke
grestore
gsave
1000 315.5 61.06 101 clipbox
847.820214 100.978199 m
847.820214 416.448 l
stroke
grestore
0.150 setgray
gsave
848.376335 87.206417 translate
290.000000 rotate
0.000000 0.000000 m /U glyphshow
8.783203 0.000000 m /period glyphshow
12.597656 0.000000 m /space glyphshow
16.412109 0.000000 m /T glyphshow
23.710938 0.000000 m /o glyphshow
31.052734 0.000000 m /k glyphshow
38.001953 0.000000 m /y glyphshow
45.103516 0.000000 m /o glyphshow
grestore
gsave
833.944536 87.532291 translate
290.000000 rotate
0.000000 0.000000 m /O glyphshow
9.445312 0.000000 m /a glyphshow
16.798828 0.000000 m /k glyphshow
23.748047 0.000000 m /f glyphshow
27.972656 0.000000 m /o glyphshow
35.314453 0.000000 m /r glyphshow
40.248047 0.000000 m /e glyphshow
47.630859 0.000000 m /s glyphshow
53.882812 0.000000 m /t glyphshow
58.587891 0.000000 m /hyphen glyphshow
grestore
gsave
821.260245 83.056923 translate
290.000000 rotate
0.000000 0.000000 m /P glyphshow
7.236328 0.000000 m /A glyphshow
15.445312 0.000000 m /C glyphshow
23.824219 0.000000 m /S glyphshow
31.441406 0.000000 m /space glyphshow
35.255859 0.000000 m /parenleft glyphshow
39.937500 0.000000 m /quotesingle glyphshow
43.236328 0.000000 m /one glyphshow
50.871094 0.000000 m /seven glyphshow
58.505859 0.000000 m /parenright glyphshow
grestore
0.800 setgray
gsave
1000 315.5 61.06 101 clipbox
886.030909 100.978199 m
886.030909 416.448 l
stroke
grestore
gsave
1000 315.5 61.06 101 clipbox
924.241604 100.978199 m
924.241604 416.448 l
stroke
grestore
gsave
1000 315.5 61.06 101 clipbox
962.452299 100.978199 m
962.452299 416.448 l
stroke
grestore
0.150 setgray
gsave
960.552747 78.242631 translate
290.000000 rotate
0.000000 0.000000 m /N glyphshow
8.976562 0.000000 m /A glyphshow
17.185547 0.000000 m /R glyphshow
25.523438 0.000000 m /hyphen glyphshow
grestore
gsave
942.812971 87.657094 translate
290.000000 rotate
0.000000 0.000000 m /L glyphshow
6.685547 0.000000 m /a glyphshow
14.039062 0.000000 m /b glyphshow
21.656250 0.000000 m /s glyphshow
27.908203 0.000000 m /space glyphshow
31.722656 0.000000 m /parenleft glyphshow
36.404297 0.000000 m /quotesingle glyphshow
39.703125 0.000000 m /one glyphshow
47.337891 0.000000 m /three glyphshow
54.972656 0.000000 m /parenright glyphshow
grestore
0.800 setgray
gsave
1000 315.5 61.06 101 clipbox
1000.662995 100.978199 m
1000.662995 416.448 l
stroke
grestore
gsave
1000 315.5 61.06 101 clipbox
61.062 100.978199 m
1061.418 100.978199 l
stroke
grestore
0.150 setgray
gsave
47.821375 96.415699 translate
0.000000 rotate
0.000000 0.000000 m /zero glyphshow
grestore
0.800 setgray
gsave
1000 315.5 61.06 101 clipbox
61.062 160.924955 m
1061.418 160.924955 l
stroke
grestore
0.150 setgray
gsave
40.180750 156.362455 translate
0.000000 rotate
0.000000 0.000000 m /two glyphshow
7.634766 0.000000 m /zero glyphshow
grestore
0.800 setgray
gsave
1000 315.5 61.06 101 clipbox
61.062 220.87171 m
1061.418 220.87171 l
stroke
grestore
0.150 setgray
gsave
40.180750 216.309210 translate
0.000000 rotate
0.000000 0.000000 m /four glyphshow
7.634766 0.000000 m /zero glyphshow
grestore
0.800 setgray
gsave
1000 315.5 61.06 101 clipbox
61.062 280.818466 m
1061.418 280.818466 l
stroke
grestore
0.150 setgray
gsave
40.180750 276.255966 translate
0.000000 rotate
0.000000 0.000000 m /six glyphshow
7.634766 0.000000 m /zero glyphshow
grestore
0.800 setgray
gsave
1000 315.5 61.06 101 clipbox
61.062 340.765221 m
1061.418 340.765221 l
stroke
grestore
0.150 setgray
gsave
40.180750 336.202721 translate
0.000000 rotate
0.000000 0.000000 m /eight glyphshow
7.634766 0.000000 m /zero glyphshow
grestore
0.800 setgray
gsave
1000 315.5 61.06 101 clipbox
61.062 400.711977 m
1061.418 400.711977 l
stroke
grestore
0.150 setgray
gsave
32.540125 396.149477 translate
0.000000 rotate
0.000000 0.000000 m /one glyphshow
7.634766 0.000000 m /zero glyphshow
15.269531 0.000000 m /zero glyphshow
grestore
/DejaVuSans findfont
13.200 scalefont
setfont
gsave
25.790125 252.447475 translate
90.000000 rotate
0.000000 0.000000 m /percent glyphshow
grestore
gsave
1000 315.5 61.06 101 clipbox
106.532727 100.978199 m
137.101283 100.978199 l
137.101283 85.99151 l
106.532727 85.99151 l
cl
0.298 0.447 0.690 setrgbcolor
fill
grestore
gsave
1000 315.5 61.06 101 clipbox
144.743422 100.978199 m
175.311979 100.978199 l
175.311979 400.711977 l
144.743422 400.711977 l
cl
0.298 0.447 0.690 setrgbcolor
fill
grestore
gsave
1000 315.5 61.06 101 clipbox
182.954118 100.978199 m
213.522674 100.978199 l
213.522674 85.99151 l
182.954118 85.99151 l
cl
0.298 0.447 0.690 setrgbcolor
fill
grestore
gsave
1000 315.5 61.06 101 clipbox
221.164813 100.978199 m
251.733369 100.978199 l
251.733369 85.99151 l
221.164813 85.99151 l
cl
0.298 0.447 0.690 setrgbcolor
fill
grestore
gsave
1000 315.5 61.06 101 clipbox
259.375508 100.978199 m
289.944064 100.978199 l
289.944064 400.711977 l
259.375508 400.711977 l
cl
0.298 0.447 0.690 setrgbcolor
fill
grestore
gsave
1000 315.5 61.06 101 clipbox
297.586203 100.978199 m
328.154759 100.978199 l
328.154759 85.99151 l
297.586203 85.99151 l
cl
0.298 0.447 0.690 setrgbcolor
fill
grestore
gsave
1000 315.5 61.06 101 clipbox
335.796898 100.978199 m
366.365455 100.978199 l
366.365455 85.99151 l
335.796898 85.99151 l
cl
0.298 0.447 0.690 setrgbcolor
fill
grestore
gsave
1000 315.5 61.06 101 clipbox
374.007594 100.978199 m
404.57615 100.978199 l
404.57615 400.711977 l
374.007594 400.711977 l
cl
0.298 0.447 0.690 setrgbcolor
fill
grestore
gsave
1000 315.5 61.06 101 clipbox
412.218289 100.978199 m
442.786845 100.978199 l
442.786845 85.99151 l
412.218289 85.99151 l
cl
0.298 0.447 0.690 setrgbcolor
fill
grestore
gsave
1000 315.5 61.06 101 clipbox
450.428984 100.978199 m
480.99754 100.978199 l
480.99754 85.99151 l
450.428984 85.99151 l
cl
0.298 0.447 0.690 setrgbcolor
fill
grestore
gsave
1000 315.5 61.06 101 clipbox
488.639679 100.978199 m
519.208235 100.978199 l
519.208235 400.711977 l
488.639679 400.711977 l
cl
0.298 0.447 0.690 setrgbcolor
fill
grestore
gsave
1000 315.5 61.06 101 clipbox
526.850374 100.978199 m
557.41893 100.978199 l
557.41893 85.99151 l
526.850374 85.99151 l
cl
0.298 0.447 0.690 setrgbcolor
fill
grestore
gsave
1000 315.5 61.06 101 clipbox
565.06107 100.978199 m
595.629626 100.978199 l
595.629626 85.99151 l
565.06107 85.99151 l
cl
0.298 0.447 0.690 setrgbcolor
fill
grestore
gsave
1000 315.5 61.06 101 clipbox
603.271765 100.978199 m
633.840321 100.978199 l
633.840321 400.711977 l
603.271765 400.711977 l
cl
0.298 0.447 0.690 setrgbcolor
fill
grestore
gsave
1000 315.5 61.06 101 clipbox
641.48246 100.978199 m
672.051016 100.978199 l
672.051016 85.99151 l
641.48246 85.99151 l
cl
0.298 0.447 0.690 setrgbcolor
fill
grestore
gsave
1000 315.5 61.06 101 clipbox
679.693155 100.978199 m
710.261711 100.978199 l
710.261711 85.99151 l
679.693155 85.99151 l
cl
0.298 0.447 0.690 setrgbcolor
fill
grestore
gsave
1000 315.5 61.06 101 clipbox
717.90385 100.978199 m
748.472406 100.978199 l
748.472406 400.711977 l
717.90385 400.711977 l
cl
0.298 0.447 0.690 setrgbcolor
fill
grestore
gsave
1000 315.5 61.06 101 clipbox
756.114545 100.978199 m
786.683102 100.978199 l
786.683102 85.99151 l
756.114545 85.99151 l
cl
0.298 0.447 0.690 setrgbcolor
fill
grestore
gsave
1000 315.5 61.06 101 clipbox
794.325241 100.978199 m
824.893797 100.978199 l
824.893797 85.99151 l
794.325241 85.99151 l
cl
0.298 0.447 0.690 setrgbcolor
fill
grestore
gsave
1000 315.5 61.06 101 clipbox
832.535936 100.978199 m
863.104492 100.978199 l
863.104492 400.711977 l
832.535936 400.711977 l
cl
0.298 0.447 0.690 setrgbcolor
fill
grestore
gsave
1000 315.5 61.06 101 clipbox
870.746631 100.978199 m
901.315187 100.978199 l
901.315187 85.99151 l
870.746631 85.99151 l
cl
0.298 0.447 0.690 setrgbcolor
fill
grestore
gsave
1000 315.5 61.06 101 clipbox
908.957326 100.978199 m
939.525882 100.978199 l
939.525882 85.99151 l
908.957326 85.99151 l
cl
0.298 0.447 0.690 setrgbcolor
fill
grestore
gsave
1000 315.5 61.06 101 clipbox
947.168021 100.978199 m
977.736578 100.978199 l
977.736578 400.711977 l
947.168021 400.711977 l
cl
0.298 0.447 0.690 setrgbcolor
fill
grestore
gsave
1000 315.5 61.06 101 clipbox
985.378717 100.978199 m
1015.947273 100.978199 l
1015.947273 85.99151 l
985.378717 85.99151 l
cl
0.298 0.447 0.690 setrgbcolor
fill
grestore
gsave
1000 315.5 61.06 101 clipbox
106.532727 100.978199 m
137.101283 100.978199 l
137.101283 85.99151 l
106.532727 85.99151 l
cl
0.333 0.659 0.408 setrgbcolor
fill
grestore
gsave
1000 315.5 61.06 101 clipbox
144.743422 100.978199 m
175.311979 100.978199 l
175.311979 376.733274 l
144.743422 376.733274 l
cl
0.333 0.659 0.408 setrgbcolor
fill
grestore
gsave
1000 315.5 61.06 101 clipbox
182.954118 100.978199 m
213.522674 100.978199 l
213.522674 85.99151 l
182.954118 85.99151 l
cl
0.333 0.659 0.408 setrgbcolor
fill
grestore
gsave
1000 315.5 61.06 101 clipbox
221.164813 100.978199 m
251.733369 100.978199 l
251.733369 85.99151 l
221.164813 85.99151 l
cl
0.333 0.659 0.408 setrgbcolor
fill
grestore
gsave
1000 315.5 61.06 101 clipbox
259.375508 100.978199 m
289.944064 100.978199 l
289.944064 355.75191 l
259.375508 355.75191 l
cl
0.333 0.659 0.408 setrgbcolor
fill
grestore
gsave
1000 315.5 61.06 101 clipbox
297.586203 100.978199 m
328.154759 100.978199 l
328.154759 85.99151 l
297.586203 85.99151 l
cl
0.333 0.659 0.408 setrgbcolor
fill
grestore
gsave
1000 315.5 61.06 101 clipbox
335.796898 100.978199 m
366.365455 100.978199 l
366.365455 85.99151 l
335.796898 85.99151 l
cl
0.333 0.659 0.408 setrgbcolor
fill
grestore
gsave
1000 315.5 61.06 101 clipbox
374.007594 100.978199 m
404.57615 100.978199 l
404.57615 379.730612 l
374.007594 379.730612 l
cl
0.333 0.659 0.408 setrgbcolor
fill
grestore
gsave
1000 315.5 61.06 101 clipbox
412.218289 100.978199 m
442.786845 100.978199 l
442.786845 85.99151 l
412.218289 85.99151 l
cl
0.333 0.659 0.408 setrgbcolor
fill
grestore
gsave
1000 315.5 61.06 101 clipbox
450.428984 100.978199 m
480.99754 100.978199 l
480.99754 85.99151 l
450.428984 85.99151 l
cl
0.333 0.659 0.408 setrgbcolor
fill
grestore
gsave
1000 315.5 61.06 101 clipbox
488.639679 100.978199 m
519.208235 100.978199 l
519.208235 391.719963 l
488.639679 391.719963 l
cl
0.333 0.659 0.408 setrgbcolor
fill
grestore
gsave
1000 315.5 61.06 101 clipbox
526.850374 100.978199 m
557.41893 100.978199 l
557.41893 85.99151 l
526.850374 85.99151 l
cl
0.333 0.659 0.408 setrgbcolor
fill
grestore
gsave
1000 315.5 61.06 101 clipbox
565.06107 100.978199 m
595.629626 100.978199 l
595.629626 85.99151 l
565.06107 85.99151 l
cl
0.333 0.659 0.408 setrgbcolor
fill
grestore
gsave
1000 315.5 61.06 101 clipbox
603.271765 100.978199 m
633.840321 100.978199 l
633.840321 370.738599 l
603.271765 370.738599 l
cl
0.333 0.659 0.408 setrgbcolor
fill
grestore
gsave
1000 315.5 61.06 101 clipbox
641.48246 100.978199 m
672.051016 100.978199 l
672.051016 85.99151 l
641.48246 85.99151 l
cl
0.333 0.659 0.408 setrgbcolor
fill
grestore
gsave
1000 315.5 61.06 101 clipbox
679.693155 100.978199 m
710.261711 100.978199 l
710.261711 85.99151 l
679.693155 85.99151 l
cl
0.333 0.659 0.408 setrgbcolor
fill
grestore
gsave
1000 315.5 61.06 101 clipbox
717.90385 100.978199 m
748.472406 100.978199 l
748.472406 361.746586 l
717.90385 361.746586 l
cl
0.333 0.659 0.408 setrgbcolor
fill
grestore
gsave
1000 315.5 61.06 101 clipbox
756.114545 100.978199 m
786.683102 100.978199 l
786.683102 85.99151 l
756.114545 85.99151 l
cl
0.333 0.659 0.408 setrgbcolor
fill
grestore
gsave
1000 315.5 61.06 101 clipbox
794.325241 100.978199 m
824.893797 100.978199 l
824.893797 85.99151 l
794.325241 85.99151 l
cl
0.333 0.659 0.408 setrgbcolor
fill
grestore
gsave
1000 315.5 61.06 101 clipbox
832.535936 100.978199 m
863.104492 100.978199 l
863.104492 367.741261 l
832.535936 367.741261 l
cl
0.333 0.659 0.408 setrgbcolor
fill
grestore
gsave
1000 315.5 61.06 101 clipbox
870.746631 100.978199 m
901.315187 100.978199 l
901.315187 85.99151 l
870.746631 85.99151 l
cl
0.333 0.659 0.408 setrgbcolor
fill
grestore
gsave
1000 315.5 61.06 101 clipbox
908.957326 100.978199 m
939.525882 100.978199 l
939.525882 85.99151 l
908.957326 85.99151 l
cl
0.333 0.659 0.408 setrgbcolor
fill
grestore
gsave
1000 315.5 61.06 101 clipbox
947.168021 100.978199 m
977.736578 100.978199 l
977.736578 352.754572 l
947.168021 352.754572 l
cl
0.333 0.659 0.408 setrgbcolor
fill
grestore
gsave
1000 315.5 61.06 101 clipbox
985.378717 100.978199 m
1015.947273 100.978199 l
1015.947273 85.99151 l
985.378717 85.99151 l
cl
0.333 0.659 0.408 setrgbcolor
fill
grestore
gsave
1000 315.5 61.06 101 clipbox
106.532727 100.978199 m
137.101283 100.978199 l
137.101283 85.99151 l
106.532727 85.99151 l
cl
0.769 0.306 0.322 setrgbcolor
fill
grestore
gsave
1000 315.5 61.06 101 clipbox
144.743422 100.978199 m
175.311979 100.978199 l
175.311979 349.757234 l
144.743422 349.757234 l
cl
0.769 0.306 0.322 setrgbcolor
fill
grestore
gsave
1000 315.5 61.06 101 clipbox
182.954118 100.978199 m
213.522674 100.978199 l
213.522674 85.99151 l
182.954118 85.99151 l
cl
0.769 0.306 0.322 setrgbcolor
fill
grestore
gsave
1000 315.5 61.06 101 clipbox
221.164813 100.978199 m
251.733369 100.978199 l
251.733369 85.99151 l
221.164813 85.99151 l
cl
0.769 0.306 0.322 setrgbcolor
fill
grestore
gsave
1000 315.5 61.06 101 clipbox
259.375508 100.978199 m
289.944064 100.978199 l
289.944064 334.770546 l
259.375508 334.770546 l
cl
0.769 0.306 0.322 setrgbcolor
fill
grestore
gsave
1000 315.5 61.06 101 clipbox
297.586203 100.978199 m
328.154759 100.978199 l
328.154759 85.99151 l
297.586203 85.99151 l
cl
0.769 0.306 0.322 setrgbcolor
fill
grestore
gsave
1000 315.5 61.06 101 clipbox
335.796898 100.978199 m
366.365455 100.978199 l
366.365455 85.99151 l
335.796898 85.99151 l
cl
0.769 0.306 0.322 setrgbcolor
fill
grestore
gsave
1000 315.5 61.06 101 clipbox
374.007594 100.978199 m
404.57615 100.978199 l
404.57615 361.746586 l
374.007594 361.746586 l
cl
0.769 0.306 0.322 setrgbcolor
fill
grestore
gsave
1000 315.5 61.06 101 clipbox
412.218289 100.978199 m
442.786845 100.978199 l
442.786845 85.99151 l
412.218289 85.99151 l
cl
0.769 0.306 0.322 setrgbcolor
fill
grestore
gsave
1000 315.5 61.06 101 clipbox
450.428984 100.978199 m
480.99754 100.978199 l
480.99754 85.99151 l
450.428984 85.99151 l
cl
0.769 0.306 0.322 setrgbcolor
fill
grestore
gsave
1000 315.5 61.06 101 clipbox
488.639679 100.978199 m
519.208235 100.978199 l
519.208235 280.818466 l
488.639679 280.818466 l
cl
0.769 0.306 0.322 setrgbcolor
fill
grestore
gsave
1000 315.5 61.06 101 clipbox
526.850374 100.978199 m
557.41893 100.978199 l
557.41893 85.99151 l
526.850374 85.99151 l
cl
0.769 0.306 0.322 setrgbcolor
fill
grestore
gsave
1000 315.5 61.06 101 clipbox
565.06107 100.978199 m
595.629626 100.978199 l
595.629626 85.99151 l
565.06107 85.99151 l
cl
0.769 0.306 0.322 setrgbcolor
fill
grestore
gsave
1000 315.5 61.06 101 clipbox
603.271765 100.978199 m
633.840321 100.978199 l
633.840321 370.738599 l
603.271765 370.738599 l
cl
0.769 0.306 0.322 setrgbcolor
fill
grestore
gsave
1000 315.5 61.06 101 clipbox
641.48246 100.978199 m
672.051016 100.978199 l
672.051016 85.99151 l
641.48246 85.99151 l
cl
0.769 0.306 0.322 setrgbcolor
fill
grestore
gsave
1000 315.5 61.06 101 clipbox
679.693155 100.978199 m
710.261711 100.978199 l
710.261711 85.99151 l
679.693155 85.99151 l
cl
0.769 0.306 0.322 setrgbcolor
fill
grestore
gsave
1000 315.5 61.06 101 clipbox
717.90385 100.978199 m
748.472406 100.978199 l
748.472406 292.807817 l
717.90385 292.807817 l
cl
0.769 0.306 0.322 setrgbcolor
fill
grestore
gsave
1000 315.5 61.06 101 clipbox
756.114545 100.978199 m
786.683102 100.978199 l
786.683102 85.99151 l
756.114545 85.99151 l
cl
0.769 0.306 0.322 setrgbcolor
fill
grestore
gsave
1000 315.5 61.06 101 clipbox
794.325241 100.978199 m
824.893797 100.978199 l
824.893797 85.99151 l
794.325241 85.99151 l
cl
0.769 0.306 0.322 setrgbcolor
fill
grestore
gsave
1000 315.5 61.06 101 clipbox
832.535936 100.978199 m
863.104492 100.978199 l
863.104492 367.741261 l
832.535936 367.741261 l
cl
0.769 0.306 0.322 setrgbcolor
fill
grestore
gsave
1000 315.5 61.06 101 clipbox
870.746631 100.978199 m
901.315187 100.978199 l
901.315187 85.99151 l
870.746631 85.99151 l
cl
0.769 0.306 0.322 setrgbcolor
fill
grestore
gsave
1000 315.5 61.06 101 clipbox
908.957326 100.978199 m
939.525882 100.978199 l
939.525882 85.99151 l
908.957326 85.99151 l
cl
0.769 0.306 0.322 setrgbcolor
fill
grestore
gsave
1000 315.5 61.06 101 clipbox
947.168021 100.978199 m
977.736578 100.978199 l
977.736578 280.818466 l
947.168021 280.818466 l
cl
0.769 0.306 0.322 setrgbcolor
fill
grestore
gsave
1000 315.5 61.06 101 clipbox
985.378717 100.978199 m
1015.947273 100.978199 l
1015.947273 85.99151 l
985.378717 85.99151 l
cl
0.769 0.306 0.322 setrgbcolor
fill
grestore
gsave
1000 315.5 61.06 101 clipbox
106.532727 100.978199 m
137.101283 100.978199 l
137.101283 85.99151 l
106.532727 85.99151 l
cl
0.506 0.447 0.698 setrgbcolor
fill
grestore
gsave
1000 315.5 61.06 101 clipbox
144.743422 100.978199 m
175.311979 100.978199 l
175.311979 259.837101 l
144.743422 259.837101 l
cl
0.506 0.447 0.698 setrgbcolor
fill
grestore
gsave
1000 315.5 61.06 101 clipbox
182.954118 100.978199 m
213.522674 100.978199 l
213.522674 85.99151 l
182.954118 85.99151 l
cl
0.506 0.447 0.698 setrgbcolor
fill
grestore
gsave
1000 315.5 61.06 101 clipbox
221.164813 100.978199 m
251.733369 100.978199 l
251.733369 85.99151 l
221.164813 85.99151 l
cl
0.506 0.447 0.698 setrgbcolor
fill
grestore
gsave
1000 315.5 61.06 101 clipbox
259.375508 100.978199 m
289.944064 100.978199 l
289.944064 250.845088 l
259.375508 250.845088 l
cl
0.506 0.447 0.698 setrgbcolor
fill
grestore
gsave
1000 315.5 61.06 101 clipbox
297.586203 100.978199 m
328.154759 100.978199 l
328.154759 85.99151 l
297.586203 85.99151 l
cl
0.506 0.447 0.698 setrgbcolor
fill
grestore
gsave
1000 315.5 61.06 101 clipbox
335.796898 100.978199 m
366.365455 100.978199 l
366.365455 85.99151 l
335.796898 85.99151 l
cl
0.506 0.447 0.698 setrgbcolor
fill
grestore
gsave
1000 315.5 61.06 101 clipbox
374.007594 100.978199 m
404.57615 100.978199 l
404.57615 277.22166 l
374.007594 277.22166 l
cl
0.506 0.447 0.698 setrgbcolor
fill
grestore
gsave
1000 315.5 61.06 101 clipbox
412.218289 100.978199 m
442.786845 100.978199 l
442.786845 85.99151 l
412.218289 85.99151 l
cl
0.506 0.447 0.698 setrgbcolor
fill
grestore
gsave
1000 315.5 61.06 101 clipbox
450.428984 100.978199 m
480.99754 100.978199 l
480.99754 85.99151 l
450.428984 85.99151 l
cl
0.506 0.447 0.698 setrgbcolor
fill
grestore
gsave
1000 315.5 61.06 101 clipbox
488.639679 100.978199 m
519.208235 100.978199 l
519.208235 259.837101 l
488.639679 259.837101 l
cl
0.506 0.447 0.698 setrgbcolor
fill
grestore
gsave
1000 315.5 61.06 101 clipbox
526.850374 100.978199 m
557.41893 100.978199 l
557.41893 85.99151 l
526.850374 85.99151 l
cl
0.506 0.447 0.698 setrgbcolor
fill
grestore
gsave
1000 315.5 61.06 101 clipbox
565.06107 100.978199 m
595.629626 100.978199 l
595.629626 85.99151 l
565.06107 85.99151 l
cl
0.506 0.447 0.698 setrgbcolor
fill
grestore
gsave
1000 315.5 61.06 101 clipbox
603.271765 100.978199 m
633.840321 100.978199 l
633.840321 277.821128 l
603.271765 277.821128 l
cl
0.506 0.447 0.698 setrgbcolor
fill
grestore
gsave
1000 315.5 61.06 101 clipbox
641.48246 100.978199 m
672.051016 100.978199 l
672.051016 85.99151 l
641.48246 85.99151 l
cl
0.506 0.447 0.698 setrgbcolor
fill
grestore
gsave
1000 315.5 61.06 101 clipbox
679.693155 100.978199 m
710.261711 100.978199 l
710.261711 85.99151 l
679.693155 85.99151 l
cl
0.506 0.447 0.698 setrgbcolor
fill
grestore
gsave
1000 315.5 61.06 101 clipbox
717.90385 100.978199 m
748.472406 100.978199 l
748.472406 273.325121 l
717.90385 273.325121 l
cl
0.506 0.447 0.698 setrgbcolor
fill
grestore
gsave
1000 315.5 61.06 101 clipbox
756.114545 100.978199 m
786.683102 100.978199 l
786.683102 85.99151 l
756.114545 85.99151 l
cl
0.506 0.447 0.698 setrgbcolor
fill
grestore
gsave
1000 315.5 61.06 101 clipbox
794.325241 100.978199 m
824.893797 100.978199 l
824.893797 85.99151 l
794.325241 85.99151 l
cl
0.506 0.447 0.698 setrgbcolor
fill
grestore
gsave
1000 315.5 61.06 101 clipbox
832.535936 100.978199 m
863.104492 100.978199 l
863.104492 367.741261 l
832.535936 367.741261 l
cl
0.506 0.447 0.698 setrgbcolor
fill
grestore
gsave
1000 315.5 61.06 101 clipbox
870.746631 100.978199 m
901.315187 100.978199 l
901.315187 85.99151 l
870.746631 85.99151 l
cl
0.506 0.447 0.698 setrgbcolor
fill
grestore
gsave
1000 315.5 61.06 101 clipbox
908.957326 100.978199 m
939.525882 100.978199 l
939.525882 85.99151 l
908.957326 85.99151 l
cl
0.506 0.447 0.698 setrgbcolor
fill
grestore
gsave
1000 315.5 61.06 101 clipbox
947.168021 100.978199 m
977.736578 100.978199 l
977.736578 215.476502 l
947.168021 215.476502 l
cl
0.506 0.447 0.698 setrgbcolor
fill
grestore
gsave
1000 315.5 61.06 101 clipbox
985.378717 100.978199 m
1015.947273 100.978199 l
1015.947273 85.99151 l
985.378717 85.99151 l
cl
0.506 0.447 0.698 setrgbcolor
fill
grestore
gsave
1000 315.5 61.06 101 clipbox
106.532727 100.978199 m
137.101283 100.978199 l
137.101283 85.99151 l
106.532727 85.99151 l
cl
0.800 0.725 0.455 setrgbcolor
fill
grestore
gsave
1000 315.5 61.06 101 clipbox
144.743422 100.978199 m
175.311979 100.978199 l
175.311979 259.837101 l
144.743422 259.837101 l
cl
0.800 0.725 0.455 setrgbcolor
fill
grestore
gsave
1000 315.5 61.06 101 clipbox
182.954118 100.978199 m
213.522674 100.978199 l
213.522674 85.99151 l
182.954118 85.99151 l
cl
0.800 0.725 0.455 setrgbcolor
fill
grestore
gsave
1000 315.5 61.06 101 clipbox
221.164813 100.978199 m
251.733369 100.978199 l
251.733369 85.99151 l
221.164813 85.99151 l
cl
0.800 0.725 0.455 setrgbcolor
fill
grestore
gsave
1000 315.5 61.06 101 clipbox
259.375508 100.978199 m
289.944064 100.978199 l
289.944064 214.877035 l
259.375508 214.877035 l
cl
0.800 0.725 0.455 setrgbcolor
fill
grestore
gsave
1000 315.5 61.06 101 clipbox
297.586203 100.978199 m
328.154759 100.978199 l
328.154759 85.99151 l
297.586203 85.99151 l
cl
0.800 0.725 0.455 setrgbcolor
fill
grestore
gsave
1000 315.5 61.06 101 clipbox
335.796898 100.978199 m
366.365455 100.978199 l
366.365455 85.99151 l
335.796898 85.99151 l
cl
0.800 0.725 0.455 setrgbcolor
fill
grestore
gsave
1000 315.5 61.06 101 clipbox
374.007594 100.978199 m
404.57615 100.978199 l
404.57615 277.22166 l
374.007594 277.22166 l
cl
0.800 0.725 0.455 setrgbcolor
fill
grestore
gsave
1000 315.5 61.06 101 clipbox
412.218289 100.978199 m
442.786845 100.978199 l
442.786845 85.99151 l
412.218289 85.99151 l
cl
0.800 0.725 0.455 setrgbcolor
fill
grestore
gsave
1000 315.5 61.06 101 clipbox
450.428984 100.978199 m
480.99754 100.978199 l
480.99754 85.99151 l
450.428984 85.99151 l
cl
0.800 0.725 0.455 setrgbcolor
fill
grestore
gsave
1000 315.5 61.06 101 clipbox
488.639679 100.978199 m
519.208235 100.978199 l
519.208235 259.837101 l
488.639679 259.837101 l
cl
0.800 0.725 0.455 setrgbcolor
fill
grestore
gsave
1000 315.5 61.06 101 clipbox
526.850374 100.978199 m
557.41893 100.978199 l
557.41893 85.99151 l
526.850374 85.99151 l
cl
0.800 0.725 0.455 setrgbcolor
fill
grestore
gsave
1000 315.5 61.06 101 clipbox
565.06107 100.978199 m
595.629626 100.978199 l
595.629626 85.99151 l
565.06107 85.99151 l
cl
0.800 0.725 0.455 setrgbcolor
fill
grestore
gsave
1000 315.5 61.06 101 clipbox
603.271765 100.978199 m
633.840321 100.978199 l
633.840321 277.821128 l
603.271765 277.821128 l
cl
0.800 0.725 0.455 setrgbcolor
fill
grestore
gsave
1000 315.5 61.06 101 clipbox
641.48246 100.978199 m
672.051016 100.978199 l
672.051016 85.99151 l
641.48246 85.99151 l
cl
0.800 0.725 0.455 setrgbcolor
fill
grestore
gsave
1000 315.5 61.06 101 clipbox
679.693155 100.978199 m
710.261711 100.978199 l
710.261711 85.99151 l
679.693155 85.99151 l
cl
0.800 0.725 0.455 setrgbcolor
fill
grestore
gsave
1000 315.5 61.06 101 clipbox
717.90385 100.978199 m
748.472406 100.978199 l
748.472406 273.325121 l
717.90385 273.325121 l
cl
0.800 0.725 0.455 setrgbcolor
fill
grestore
gsave
1000 315.5 61.06 101 clipbox
756.114545 100.978199 m
786.683102 100.978199 l
786.683102 85.99151 l
756.114545 85.99151 l
cl
0.800 0.725 0.455 setrgbcolor
fill
grestore
gsave
1000 315.5 61.06 101 clipbox
794.325241 100.978199 m
824.893797 100.978199 l
824.893797 85.99151 l
794.325241 85.99151 l
cl
0.800 0.725 0.455 setrgbcolor
fill
grestore
gsave
1000 315.5 61.06 101 clipbox
832.535936 100.978199 m
863.104492 100.978199 l
863.104492 196.893008 l
832.535936 196.893008 l
cl
0.800 0.725 0.455 setrgbcolor
fill
grestore
gsave
1000 315.5 61.06 101 clipbox
870.746631 100.978199 m
901.315187 100.978199 l
901.315187 85.99151 l
870.746631 85.99151 l
cl
0.800 0.725 0.455 setrgbcolor
fill
grestore
gsave
1000 315.5 61.06 101 clipbox
908.957326 100.978199 m
939.525882 100.978199 l
939.525882 85.99151 l
908.957326 85.99151 l
cl
0.800 0.725 0.455 setrgbcolor
fill
grestore
gsave
1000 315.5 61.06 101 clipbox
947.168021 100.978199 m
977.736578 100.978199 l
977.736578 215.476502 l
947.168021 215.476502 l
cl
0.800 0.725 0.455 setrgbcolor
fill
grestore
gsave
1000 315.5 61.06 101 clipbox
985.378717 100.978199 m
1015.947273 100.978199 l
1015.947273 85.99151 l
985.378717 85.99151 l
cl
0.800 0.725 0.455 setrgbcolor
fill
grestore
gsave
1000 315.5 61.06 101 clipbox
106.532727 100.978199 m
137.101283 100.978199 l
137.101283 85.99151 l
106.532727 85.99151 l
cl
0.392 0.710 0.804 setrgbcolor
fill
grestore
gsave
1000 315.5 61.06 101 clipbox
144.743422 100.978199 m
175.311979 100.978199 l
175.311979 259.837101 l
144.743422 259.837101 l
cl
0.392 0.710 0.804 setrgbcolor
fill
grestore
gsave
1000 315.5 61.06 101 clipbox
182.954118 100.978199 m
213.522674 100.978199 l
213.522674 85.99151 l
182.954118 85.99151 l
cl
0.392 0.710 0.804 setrgbcolor
fill
grestore
gsave
1000 315.5 61.06 101 clipbox
221.164813 100.978199 m
251.733369 100.978199 l
251.733369 85.99151 l
221.164813 85.99151 l
cl
0.392 0.710 0.804 setrgbcolor
fill
grestore
gsave
1000 315.5 61.06 101 clipbox
259.375508 100.978199 m
289.944064 100.978199 l
289.944064 175.911643 l
259.375508 175.911643 l
cl
0.392 0.710 0.804 setrgbcolor
fill
grestore
gsave
1000 315.5 61.06 101 clipbox
297.586203 100.978199 m
328.154759 100.978199 l
328.154759 85.99151 l
297.586203 85.99151 l
cl
0.392 0.710 0.804 setrgbcolor
fill
grestore
gsave
1000 315.5 61.06 101 clipbox
335.796898 100.978199 m
366.365455 100.978199 l
366.365455 85.99151 l
335.796898 85.99151 l
cl
0.392 0.710 0.804 setrgbcolor
fill
grestore
gsave
1000 315.5 61.06 101 clipbox
374.007594 100.978199 m
404.57615 100.978199 l
404.57615 277.22166 l
374.007594 277.22166 l
cl
0.392 0.710 0.804 setrgbcolor
fill
grestore
gsave
1000 315.5 61.06 101 clipbox
412.218289 100.978199 m
442.786845 100.978199 l
442.786845 85.99151 l
412.218289 85.99151 l
cl
0.392 0.710 0.804 setrgbcolor
fill
grestore
gsave
1000 315.5 61.06 101 clipbox
450.428984 100.978199 m
480.99754 100.978199 l
480.99754 85.99151 l
450.428984 85.99151 l
cl
0.392 0.710 0.804 setrgbcolor
fill
grestore
gsave
1000 315.5 61.06 101 clipbox
488.639679 100.978199 m
519.208235 100.978199 l
519.208235 244.850412 l
488.639679 244.850412 l
cl
0.392 0.710 0.804 setrgbcolor
fill
grestore
gsave
1000 315.5 61.06 101 clipbox
526.850374 100.978199 m
557.41893 100.978199 l
557.41893 85.99151 l
526.850374 85.99151 l
cl
0.392 0.710 0.804 setrgbcolor
fill
grestore
gsave
1000 315.5 61.06 101 clipbox
565.06107 100.978199 m
595.629626 100.978199 l
595.629626 85.99151 l
565.06107 85.99151 l
cl
0.392 0.710 0.804 setrgbcolor
fill
grestore
gsave
1000 315.5 61.06 101 clipbox
603.271765 100.978199 m
633.840321 100.978199 l
633.840321 172.914306 l
603.271765 172.914306 l
cl
0.392 0.710 0.804 setrgbcolor
fill
grestore
gsave
1000 315.5 61.06 101 clipbox
641.48246 100.978199 m
672.051016 100.978199 l
672.051016 85.99151 l
641.48246 85.99151 l
cl
0.392 0.710 0.804 setrgbcolor
fill
grestore
gsave
1000 315.5 61.06 101 clipbox
679.693155 100.978199 m
710.261711 100.978199 l
710.261711 85.99151 l
679.693155 85.99151 l
cl
0.392 0.710 0.804 setrgbcolor
fill
grestore
gsave
1000 315.5 61.06 101 clipbox
717.90385 100.978199 m
748.472406 100.978199 l
748.472406 138.444921 l
717.90385 138.444921 l
cl
0.392 0.710 0.804 setrgbcolor
fill
grestore
gsave
1000 315.5 61.06 101 clipbox
756.114545 100.978199 m
786.683102 100.978199 l
786.683102 85.99151 l
756.114545 85.99151 l
cl
0.392 0.710 0.804 setrgbcolor
fill
grestore
gsave
1000 315.5 61.06 101 clipbox
794.325241 100.978199 m
824.893797 100.978199 l
824.893797 85.99151 l
794.325241 85.99151 l
cl
0.392 0.710 0.804 setrgbcolor
fill
grestore
gsave
1000 315.5 61.06 101 clipbox
832.535936 100.978199 m
863.104492 100.978199 l
863.104492 133.948915 l
832.535936 133.948915 l
cl
0.392 0.710 0.804 setrgbcolor
fill
grestore
gsave
1000 315.5 61.06 101 clipbox
870.746631 100.978199 m
901.315187 100.978199 l
901.315187 85.99151 l
870.746631 85.99151 l
cl
0.392 0.710 0.804 setrgbcolor
fill
grestore
gsave
1000 315.5 61.06 101 clipbox
908.957326 100.978199 m
939.525882 100.978199 l
939.525882 85.99151 l
908.957326 85.99151 l
cl
0.392 0.710 0.804 setrgbcolor
fill
grestore
gsave
1000 315.5 61.06 101 clipbox
947.168021 100.978199 m
977.736578 100.978199 l
977.736578 188.500462 l
947.168021 188.500462 l
cl
0.392 0.710 0.804 setrgbcolor
fill
grestore
gsave
1000 315.5 61.06 101 clipbox
985.378717 100.978199 m
1015.947273 100.978199 l
1015.947273 85.99151 l
985.378717 85.99151 l
cl
0.392 0.710 0.804 setrgbcolor
fill
grestore
gsave
1000 315.5 61.06 101 clipbox
106.532727 100.978199 m
137.101283 100.978199 l
137.101283 85.99151 l
106.532727 85.99151 l
cl
0.298 0.447 0.690 setrgbcolor
fill
grestore
gsave
1000 315.5 61.06 101 clipbox
144.743422 100.978199 m
175.311979 100.978199 l
175.311979 193.89567 l
144.743422 193.89567 l
cl
0.298 0.447 0.690 setrgbcolor
fill
grestore
gsave
1000 315.5 61.06 101 clipbox
182.954118 100.978199 m
213.522674 100.978199 l
213.522674 85.99151 l
182.954118 85.99151 l
cl
0.298 0.447 0.690 setrgbcolor
fill
grestore
gsave
1000 315.5 61.06 101 clipbox
221.164813 100.978199 m
251.733369 100.978199 l
251.733369 85.99151 l
221.164813 85.99151 l
cl
0.298 0.447 0.690 setrgbcolor
fill
grestore
gsave
1000 315.5 61.06 101 clipbox
259.375508 100.978199 m
289.944064 100.978199 l
289.944064 169.916968 l
259.375508 169.916968 l
cl
0.298 0.447 0.690 setrgbcolor
fill
grestore
gsave
1000 315.5 61.06 101 clipbox
297.586203 100.978199 m
328.154759 100.978199 l
328.154759 85.99151 l
297.586203 85.99151 l
cl
0.298 0.447 0.690 setrgbcolor
fill
grestore
gsave
1000 315.5 61.06 101 clipbox
335.796898 100.978199 m
366.365455 100.978199 l
366.365455 85.99151 l
335.796898 85.99151 l
cl
0.298 0.447 0.690 setrgbcolor
fill
grestore
gsave
1000 315.5 61.06 101 clipbox
374.007594 100.978199 m
404.57615 100.978199 l
404.57615 151.333474 l
374.007594 151.333474 l
cl
0.298 0.447 0.690 setrgbcolor
fill
grestore
gsave
1000 315.5 61.06 101 clipbox
412.218289 100.978199 m
442.786845 100.978199 l
442.786845 85.99151 l
412.218289 85.99151 l
cl
0.298 0.447 0.690 setrgbcolor
fill
grestore
gsave
1000 315.5 61.06 101 clipbox
450.428984 100.978199 m
480.99754 100.978199 l
480.99754 85.99151 l
450.428984 85.99151 l
cl
0.298 0.447 0.690 setrgbcolor
fill
grestore
gsave
1000 315.5 61.06 101 clipbox
488.639679 100.978199 m
519.208235 100.978199 l
519.208235 175.911643 l
488.639679 175.911643 l
cl
0.298 0.447 0.690 setrgbcolor
fill
grestore
gsave
1000 315.5 61.06 101 clipbox
526.850374 100.978199 m
557.41893 100.978199 l
557.41893 85.99151 l
526.850374 85.99151 l
cl
0.298 0.447 0.690 setrgbcolor
fill
grestore
gsave
1000 315.5 61.06 101 clipbox
565.06107 100.978199 m
595.629626 100.978199 l
595.629626 85.99151 l
565.06107 85.99151 l
cl
0.298 0.447 0.690 setrgbcolor
fill
grestore
gsave
1000 315.5 61.06 101 clipbox
603.271765 100.978199 m
633.840321 100.978199 l
633.840321 145.938266 l
603.271765 145.938266 l
cl
0.298 0.447 0.690 setrgbcolor
fill
grestore
gsave
1000 315.5 61.06 101 clipbox
641.48246 100.978199 m
672.051016 100.978199 l
672.051016 85.99151 l
641.48246 85.99151 l
cl
0.298 0.447 0.690 setrgbcolor
fill
grestore
gsave
1000 315.5 61.06 101 clipbox
679.693155 100.978199 m
710.261711 100.978199 l
710.261711 85.99151 l
679.693155 85.99151 l
cl
0.298 0.447 0.690 setrgbcolor
fill
grestore
gsave
1000 315.5 61.06 101 clipbox
717.90385 100.978199 m
748.472406 100.978199 l
748.472406 138.444921 l
717.90385 138.444921 l
cl
0.298 0.447 0.690 setrgbcolor
fill
grestore
gsave
1000 315.5 61.06 101 clipbox
756.114545 100.978199 m
786.683102 100.978199 l
786.683102 85.99151 l
756.114545 85.99151 l
cl
0.298 0.447 0.690 setrgbcolor
fill
grestore
gsave
1000 315.5 61.06 101 clipbox
794.325241 100.978199 m
824.893797 100.978199 l
824.893797 85.99151 l
794.325241 85.99151 l
cl
0.298 0.447 0.690 setrgbcolor
fill
grestore
gsave
1000 315.5 61.06 101 clipbox
832.535936 100.978199 m
863.104492 100.978199 l
863.104492 124.956901 l
832.535936 124.956901 l
cl
0.298 0.447 0.690 setrgbcolor
fill
grestore
gsave
1000 315.5 61.06 101 clipbox
870.746631 100.978199 m
901.315187 100.978199 l
901.315187 85.99151 l
870.746631 85.99151 l
cl
0.298 0.447 0.690 setrgbcolor
fill
grestore
gsave
1000 315.5 61.06 101 clipbox
908.957326 100.978199 m
939.525882 100.978199 l
939.525882 85.99151 l
908.957326 85.99151 l
cl
0.298 0.447 0.690 setrgbcolor
fill
grestore
gsave
1000 315.5 61.06 101 clipbox
947.168021 100.978199 m
977.736578 100.978199 l
977.736578 188.500462 l
947.168021 188.500462 l
cl
0.298 0.447 0.690 setrgbcolor
fill
grestore
gsave
1000 315.5 61.06 101 clipbox
985.378717 100.978199 m
1015.947273 100.978199 l
1015.947273 85.99151 l
985.378717 85.99151 l
cl
0.298 0.447 0.690 setrgbcolor
fill
grestore
gsave
1000 315.5 61.06 101 clipbox
106.532727 100.978199 m
137.101283 100.978199 l
137.101283 85.99151 l
106.532727 85.99151 l
cl
0.333 0.659 0.408 setrgbcolor
fill
grestore
gsave
1000 315.5 61.06 101 clipbox
144.743422 100.978199 m
175.311979 100.978199 l
175.311979 163.922292 l
144.743422 163.922292 l
cl
0.333 0.659 0.408 setrgbcolor
fill
grestore
gsave
1000 315.5 61.06 101 clipbox
182.954118 100.978199 m
213.522674 100.978199 l
213.522674 85.99151 l
182.954118 85.99151 l
cl
0.333 0.659 0.408 setrgbcolor
fill
grestore
gsave
1000 315.5 61.06 101 clipbox
221.164813 100.978199 m
251.733369 100.978199 l
251.733369 85.99151 l
221.164813 85.99151 l
cl
0.333 0.659 0.408 setrgbcolor
fill
grestore
gsave
1000 315.5 61.06 101 clipbox
259.375508 100.978199 m
289.944064 100.978199 l
289.944064 154.930279 l
259.375508 154.930279 l
cl
0.333 0.659 0.408 setrgbcolor
fill
grestore
gsave
1000 315.5 61.06 101 clipbox
297.586203 100.978199 m
328.154759 100.978199 l
328.154759 85.99151 l
297.586203 85.99151 l
cl
0.333 0.659 0.408 setrgbcolor
fill
grestore
gsave
1000 315.5 61.06 101 clipbox
335.796898 100.978199 m
366.365455 100.978199 l
366.365455 85.99151 l
335.796898 85.99151 l
cl
0.333 0.659 0.408 setrgbcolor
fill
grestore
gsave
1000 315.5 61.06 101 clipbox
374.007594 100.978199 m
404.57615 100.978199 l
404.57615 151.333474 l
374.007594 151.333474 l
cl
0.333 0.659 0.408 setrgbcolor
fill
grestore
gsave
1000 315.5 61.06 101 clipbox
412.218289 100.978199 m
442.786845 100.978199 l
442.786845 85.99151 l
412.218289 85.99151 l
cl
0.333 0.659 0.408 setrgbcolor
fill
grestore
gsave
1000 315.5 61.06 101 clipbox
450.428984 100.978199 m
480.99754 100.978199 l
480.99754 85.99151 l
450.428984 85.99151 l
cl
0.333 0.659 0.408 setrgbcolor
fill
grestore
gsave
1000 315.5 61.06 101 clipbox
488.639679 100.978199 m
519.208235 100.978199 l
519.208235 157.927617 l
488.639679 157.927617 l
cl
0.333 0.659 0.408 setrgbcolor
fill
grestore
gsave
1000 315.5 61.06 101 clipbox
526.850374 100.978199 m
557.41893 100.978199 l
557.41893 85.99151 l
526.850374 85.99151 l
cl
0.333 0.659 0.408 setrgbcolor
fill
grestore
gsave
1000 315.5 61.06 101 clipbox
565.06107 100.978199 m
595.629626 100.978199 l
595.629626 85.99151 l
565.06107 85.99151 l
cl
0.333 0.659 0.408 setrgbcolor
fill
grestore
gsave
1000 315.5 61.06 101 clipbox
603.271765 100.978199 m
633.840321 100.978199 l
633.840321 145.938266 l
603.271765 145.938266 l
cl
0.333 0.659 0.408 setrgbcolor
fill
grestore
gsave
1000 315.5 61.06 101 clipbox
641.48246 100.978199 m
672.051016 100.978199 l
672.051016 85.99151 l
641.48246 85.99151 l
cl
0.333 0.659 0.408 setrgbcolor
fill
grestore
gsave
1000 315.5 61.06 101 clipbox
679.693155 100.978199 m
710.261711 100.978199 l
710.261711 85.99151 l
679.693155 85.99151 l
cl
0.333 0.659 0.408 setrgbcolor
fill
grestore
gsave
1000 315.5 61.06 101 clipbox
717.90385 100.978199 m
748.472406 100.978199 l
748.472406 138.444921 l
717.90385 138.444921 l
cl
0.333 0.659 0.408 setrgbcolor
fill
grestore
gsave
1000 315.5 61.06 101 clipbox
756.114545 100.978199 m
786.683102 100.978199 l
786.683102 85.99151 l
756.114545 85.99151 l
cl
0.333 0.659 0.408 setrgbcolor
fill
grestore
gsave
1000 315.5 61.06 101 clipbox
794.325241 100.978199 m
824.893797 100.978199 l
824.893797 85.99151 l
794.325241 85.99151 l
cl
0.333 0.659 0.408 setrgbcolor
fill
grestore
gsave
1000 315.5 61.06 101 clipbox
832.535936 100.978199 m
863.104492 100.978199 l
863.104492 112.96755 l
832.535936 112.96755 l
cl
0.333 0.659 0.408 setrgbcolor
fill
grestore
gsave
1000 315.5 61.06 101 clipbox
870.746631 100.978199 m
901.315187 100.978199 l
901.315187 85.99151 l
870.746631 85.99151 l
cl
0.333 0.659 0.408 setrgbcolor
fill
grestore
gsave
1000 315.5 61.06 101 clipbox
908.957326 100.978199 m
939.525882 100.978199 l
939.525882 85.99151 l
908.957326 85.99151 l
cl
0.333 0.659 0.408 setrgbcolor
fill
grestore
gsave
1000 315.5 61.06 101 clipbox
947.168021 100.978199 m
977.736578 100.978199 l
977.736578 173.513773 l
947.168021 173.513773 l
cl
0.333 0.659 0.408 setrgbcolor
fill
grestore
gsave
1000 315.5 61.06 101 clipbox
985.378717 100.978199 m
1015.947273 100.978199 l
1015.947273 85.99151 l
985.378717 85.99151 l
cl
0.333 0.659 0.408 setrgbcolor
fill
grestore
gsave
1000 315.5 61.06 101 clipbox
106.532727 100.978199 m
137.101283 100.978199 l
137.101283 85.99151 l
106.532727 85.99151 l
cl
0.769 0.306 0.322 setrgbcolor
fill
grestore
gsave
1000 315.5 61.06 101 clipbox
144.743422 100.978199 m
175.311979 100.978199 l
175.311979 160.924955 l
144.743422 160.924955 l
cl
0.769 0.306 0.322 setrgbcolor
fill
grestore
gsave
1000 315.5 61.06 101 clipbox
182.954118 100.978199 m
213.522674 100.978199 l
213.522674 85.99151 l
182.954118 85.99151 l
cl
0.769 0.306 0.322 setrgbcolor
fill
grestore
gsave
1000 315.5 61.06 101 clipbox
221.164813 100.978199 m
251.733369 100.978199 l
251.733369 85.99151 l
221.164813 85.99151 l
cl
0.769 0.306 0.322 setrgbcolor
fill
grestore
gsave
1000 315.5 61.06 101 clipbox
259.375508 100.978199 m
289.944064 100.978199 l
289.944064 148.935603 l
259.375508 148.935603 l
cl
0.769 0.306 0.322 setrgbcolor
fill
grestore
gsave
1000 315.5 61.06 101 clipbox
297.586203 100.978199 m
328.154759 100.978199 l
328.154759 85.99151 l
297.586203 85.99151 l
cl
0.769 0.306 0.322 setrgbcolor
fill
grestore
gsave
1000 315.5 61.06 101 clipbox
335.796898 100.978199 m
366.365455 100.978199 l
366.365455 85.99151 l
335.796898 85.99151 l
cl
0.769 0.306 0.322 setrgbcolor
fill
grestore
gsave
1000 315.5 61.06 101 clipbox
374.007594 100.978199 m
404.57615 100.978199 l
404.57615 142.34146 l
374.007594 142.34146 l
cl
0.769 0.306 0.322 setrgbcolor
fill
grestore
gsave
1000 315.5 61.06 101 clipbox
412.218289 100.978199 m
442.786845 100.978199 l
442.786845 85.99151 l
412.218289 85.99151 l
cl
0.769 0.306 0.322 setrgbcolor
fill
grestore
gsave
1000 315.5 61.06 101 clipbox
450.428984 100.978199 m
480.99754 100.978199 l
480.99754 85.99151 l
450.428984 85.99151 l
cl
0.769 0.306 0.322 setrgbcolor
fill
grestore
gsave
1000 315.5 61.06 101 clipbox
488.639679 100.978199 m
519.208235 100.978199 l
519.208235 109.970212 l
488.639679 109.970212 l
cl
0.769 0.306 0.322 setrgbcolor
fill
grestore
gsave
1000 315.5 61.06 101 clipbox
526.850374 100.978199 m
557.41893 100.978199 l
557.41893 85.99151 l
526.850374 85.99151 l
cl
0.769 0.306 0.322 setrgbcolor
fill
grestore
gsave
1000 315.5 61.06 101 clipbox
565.06107 100.978199 m
595.629626 100.978199 l
595.629626 85.99151 l
565.06107 85.99151 l
cl
0.769 0.306 0.322 setrgbcolor
fill
grestore
gsave
1000 315.5 61.06 101 clipbox
603.271765 100.978199 m
633.840321 100.978199 l
633.840321 121.959564 l
603.271765 121.959564 l
cl
0.769 0.306 0.322 setrgbcolor
fill
grestore
gsave
1000 315.5 61.06 101 clipbox
641.48246 100.978199 m
672.051016 100.978199 l
672.051016 85.99151 l
641.48246 85.99151 l
cl
0.769 0.306 0.322 setrgbcolor
fill
grestore
gsave
1000 315.5 61.06 101 clipbox
679.693155 100.978199 m
710.261711 100.978199 l
710.261711 85.99151 l
679.693155 85.99151 l
cl
0.769 0.306 0.322 setrgbcolor
fill
grestore
gsave
1000 315.5 61.06 101 clipbox
717.90385 100.978199 m
748.472406 100.978199 l
748.472406 102.476868 l
717.90385 102.476868 l
cl
0.769 0.306 0.322 setrgbcolor
fill
grestore
gsave
1000 315.5 61.06 101 clipbox
756.114545 100.978199 m
786.683102 100.978199 l
786.683102 85.99151 l
756.114545 85.99151 l
cl
0.769 0.306 0.322 setrgbcolor
fill
grestore
gsave
1000 315.5 61.06 101 clipbox
794.325241 100.978199 m
824.893797 100.978199 l
824.893797 85.99151 l
794.325241 85.99151 l
cl
0.769 0.306 0.322 setrgbcolor
fill
grestore
gsave
1000 315.5 61.06 101 clipbox
832.535936 100.978199 m
863.104492 100.978199 l
863.104492 103.975537 l
832.535936 103.975537 l
cl
0.769 0.306 0.322 setrgbcolor
fill
grestore
gsave
1000 315.5 61.06 101 clipbox
870.746631 100.978199 m
901.315187 100.978199 l
901.315187 85.99151 l
870.746631 85.99151 l
cl
0.769 0.306 0.322 setrgbcolor
fill
grestore
gsave
1000 315.5 61.06 101 clipbox
908.957326 100.978199 m
939.525882 100.978199 l
939.525882 85.99151 l
908.957326 85.99151 l
cl
0.769 0.306 0.322 setrgbcolor
fill
grestore
gsave
1000 315.5 61.06 101 clipbox
947.168021 100.978199 m
977.736578 100.978199 l
977.736578 158.527084 l
947.168021 158.527084 l
cl
0.769 0.306 0.322 setrgbcolor
fill
grestore
gsave
1000 315.5 61.06 101 clipbox
985.378717 100.978199 m
1015.947273 100.978199 l
1015.947273 85.99151 l
985.378717 85.99151 l
cl
0.769 0.306 0.322 setrgbcolor
fill
grestore
1.000 setlinewidth
0 setlinejoin
2 setlinecap
[] 0 setdash
0.800 setgray
gsave
61.062 100.978199 m
61.062 416.448 l
stroke
grestore
gsave
1061.418 100.978199 m
1061.418 416.448 l
stroke
grestore
gsave
61.062 100.978199 m
1061.418 100.978199 l
stroke
grestore
gsave
61.062 416.448 m
1061.418 416.448 l
stroke
grestore
gsave
1072.218 325.9006 m
1096.218 325.9006 l
1096.218 334.3006 l
1072.218 334.3006 l
cl
0.298 0.447 0.690 setrgbcolor
fill
grestore
0.150 setgray
/DejaVuSans findfont
12.000 scalefont
setfont
gsave
1105.818000 325.900600 translate
0.000000 rotate
0.000000 0.000000 m /g glyphshow
7.617188 0.000000 m /e glyphshow
15.000000 0.000000 m /o glyphshow
grestore
gsave
1072.218 308.2756 m
1096.218 308.2756 l
1096.218 316.6756 l
1072.218 316.6756 l
cl
0.333 0.659 0.408 setrgbcolor
fill
grestore
gsave
1105.818000 308.275600 translate
0.000000 rotate
0.000000 0.000000 m /c glyphshow
6.597656 0.000000 m /h glyphshow
14.203125 0.000000 m /m glyphshow
grestore
gsave
1072.218 290.6506 m
1096.218 290.6506 l
1096.218 299.0506 l
1072.218 299.0506 l
cl
0.769 0.306 0.322 setrgbcolor
fill
grestore
gsave
1105.818000 290.650600 translate
0.000000 rotate
0.000000 0.000000 m /p glyphshow
7.617188 0.000000 m /h glyphshow
15.222656 0.000000 m /y glyphshow
grestore
gsave
1072.218 273.0256 m
1096.218 273.0256 l
1096.218 281.4256 l
1072.218 281.4256 l
cl
0.506 0.447 0.698 setrgbcolor
fill
grestore
gsave
1105.818000 273.025600 translate
0.000000 rotate
0.000000 0.000000 m /q glyphshow
7.617188 0.000000 m /c glyphshow
14.214844 0.000000 m /d glyphshow
grestore
gsave
1072.218 255.4006 m
1096.218 255.4006 l
1096.218 263.8006 l
1072.218 263.8006 l
cl
0.800 0.725 0.455 setrgbcolor
fill
grestore
gsave
1105.818000 255.400600 translate
0.000000 rotate
0.000000 0.000000 m /m glyphshow
11.689453 0.000000 m /a glyphshow
19.042969 0.000000 m /t glyphshow
grestore
gsave
1072.218 237.7756 m
1096.218 237.7756 l
1096.218 246.1756 l
1072.218 246.1756 l
cl
0.392 0.710 0.804 setrgbcolor
fill
grestore
gsave
1105.818000 237.775600 translate
0.000000 rotate
0.000000 0.000000 m /e glyphshow
7.382812 0.000000 m /n glyphshow
14.988281 0.000000 m /g glyphshow
grestore
gsave
1072.218 220.1506 m
1096.218 220.1506 l
1096.218 228.5506 l
1072.218 228.5506 l
cl
0.298 0.447 0.690 setrgbcolor
fill
grestore
gsave
1105.818000 220.150600 translate
0.000000 rotate
0.000000 0.000000 m /m glyphshow
11.689453 0.000000 m /c glyphshow
18.287109 0.000000 m /s glyphshow
grestore
gsave
1072.218 202.5256 m
1096.218 202.5256 l
1096.218 210.9256 l
1072.218 210.9256 l
cl
0.333 0.659 0.408 setrgbcolor
fill
grestore
gsave
1105.818000 202.525600 translate
0.000000 rotate
0.000000 0.000000 m /b glyphshow
7.617188 0.000000 m /i glyphshow
10.951172 0.000000 m /o glyphshow
grestore
gsave
1072.218 184.9006 m
1096.218 184.9006 l
1096.218 193.3006 l
1072.218 193.3006 l
cl
0.769 0.306 0.322 setrgbcolor
fill
grestore
gsave
1105.818000 184.900600 translate
0.000000 rotate
0.000000 0.000000 m /o glyphshow
7.341797 0.000000 m /t glyphshow
12.046875 0.000000 m /h glyphshow
grestore

end
showpage
