<?xml version="1.0" encoding="UTF-8" standalone="no"?>
<svg
   xmlns:dc="http://purl.org/dc/elements/1.1/"
   xmlns:cc="http://creativecommons.org/ns#"
   xmlns:rdf="http://www.w3.org/1999/02/22-rdf-syntax-ns#"
   xmlns:svg="http://www.w3.org/2000/svg"
   xmlns="http://www.w3.org/2000/svg"
   xmlns:xlink="http://www.w3.org/1999/xlink"
   xmlns:sodipodi="http://sodipodi.sourceforge.net/DTD/sodipodi-0.dtd"
   xmlns:inkscape="http://www.inkscape.org/namespaces/inkscape"
   viewBox="0 0 1542.1418 556.83649"
   version="1.1"
   id="svg776"
   sodipodi:docname="flops-relA.svg"
   width="1542.1418"
   height="556.83649"
   inkscape:version="0.92.3 (2405546, 2018-03-11)">
  <metadata
     id="metadata782">
    <rdf:RDF>
      <cc:Work
         rdf:about="">
        <dc:format>image/svg+xml</dc:format>
        <dc:type
           rdf:resource="http://purl.org/dc/dcmitype/StillImage" />
        <dc:title>Gnuplot</dc:title>
      </cc:Work>
    </rdf:RDF>
  </metadata>
  <defs
     id="defs780">
    <defs
       id="defs34">
      <circle
         r="0.5"
         id="gpDot"
         cx="0"
         cy="0"
         style="stroke-width:0.5" />
      <path
         d="M -1,0 H 1 M 0,-1 v 2"
         id="gpPt0"
         inkscape:connector-curvature="0"
         style="stroke:currentColor;stroke-width:0.095" />
      <path
         d="M -1,-1 1,1 M 1,-1 -1,1"
         id="gpPt1"
         inkscape:connector-curvature="0"
         style="stroke:currentColor;stroke-width:0.095" />
      <path
         d="M -1,0 H 1 M 0,-1 v 2 m -1,-2 2,2 m -2,0 2,-2"
         id="gpPt2"
         inkscape:connector-curvature="0"
         style="stroke:currentColor;stroke-width:0.095" />
      <rect
         height="2"
         width="2"
         y="-1"
         x="-1"
         id="gpPt3"
         style="stroke:currentColor;stroke-width:0.095" />
      <rect
         height="2"
         width="2"
         y="-1"
         x="-1"
         id="gpPt4"
         style="fill:currentColor;stroke:currentColor;stroke-width:0.095" />
      <circle
         r="1"
         cy="0"
         cx="0"
         id="gpPt5"
         style="stroke:currentColor;stroke-width:0.095" />
      <use
         id="gpPt6"
         xlink:href="#gpPt5"
         style="fill:currentColor;stroke:none"
         x="0"
         y="0"
         width="100%"
         height="100%" />
      <path
         d="m 0,-1.33 -1.33,2 h 2.66 z"
         id="gpPt7"
         inkscape:connector-curvature="0"
         style="stroke:currentColor;stroke-width:0.095" />
      <use
         id="gpPt8"
         xlink:href="#gpPt7"
         style="fill:currentColor;stroke:none"
         x="0"
         y="0"
         width="100%"
         height="100%" />
      <use
         transform="scale(-1)"
         id="gpPt9"
         xlink:href="#gpPt7"
         style="stroke:currentColor"
         x="0"
         y="0"
         width="100%"
         height="100%" />
      <use
         id="gpPt10"
         xlink:href="#gpPt9"
         style="fill:currentColor;stroke:none"
         x="0"
         y="0"
         width="100%"
         height="100%" />
      <use
         transform="rotate(45)"
         id="gpPt11"
         xlink:href="#gpPt3"
         style="stroke:currentColor"
         x="0"
         y="0"
         width="100%"
         height="100%" />
      <use
         id="gpPt12"
         xlink:href="#gpPt11"
         style="fill:currentColor;stroke:none"
         x="0"
         y="0"
         width="100%"
         height="100%" />
      <path
         d="M 0,1.33 1.265,0.411 0.782,-1.067 -0.782,-1.076 -1.265,0.411 Z"
         id="gpPt13"
         inkscape:connector-curvature="0"
         style="stroke:currentColor;stroke-width:0.095" />
      <use
         id="gpPt14"
         xlink:href="#gpPt13"
         style="fill:currentColor;stroke:none"
         x="0"
         y="0"
         width="100%"
         height="100%" />
      <filter
         width="1"
         height="1"
         y="0"
         x="0"
         filterUnits="objectBoundingBox"
         id="textbox">
        <feFlood
           id="feFlood24"
           result="bgnd"
           flood-opacity="1"
           flood-color="white" />
        <feComposite
           id="feComposite26"
           operator="atop"
           in2="bgnd"
           in="SourceGraphic" />
      </filter>
      <filter
         width="1"
         height="1"
         y="0"
         x="0"
         filterUnits="objectBoundingBox"
         id="greybox">
        <feFlood
           id="feFlood29"
           result="grey"
           flood-opacity="1"
           flood-color="lightgrey" />
        <feComposite
           id="feComposite31"
           operator="atop"
           in2="grey"
           in="SourceGraphic" />
      </filter>
    </defs>
  </defs>
  <sodipodi:namedview
     pagecolor="#ffffff"
     bordercolor="#666666"
     borderopacity="1"
     objecttolerance="10"
     gridtolerance="10"
     guidetolerance="10"
     inkscape:pageopacity="0"
     inkscape:pageshadow="2"
     inkscape:window-width="1920"
     inkscape:window-height="1016"
     id="namedview778"
     showgrid="false"
     fit-margin-top="0"
     fit-margin-left="0"
     fit-margin-right="0"
     fit-margin-bottom="0"
     inkscape:zoom="0.76516955"
     inkscape:cx="771.07094"
     inkscape:cy="278.41823"
     inkscape:window-x="0"
     inkscape:window-y="147"
     inkscape:window-maximized="1"
     inkscape:current-layer="svg776" />
  <title
     id="title2">Gnuplot</title>
  <desc
     id="desc4">Produced by GNUPLOT 5.0 patchlevel 6 </desc>
  <g
     style="color:#808080;fill:none;stroke:currentColor;stroke-width:0.5;stroke-linecap:butt;stroke-linejoin:miter"
     id="g44"
     transform="translate(-20.676,-25.005562)">
    <path
       style="stroke:#808080;stroke-dasharray:2, 4"
       inkscape:connector-curvature="0"
       id="path42"
       d="M 129.7,502.9 H 1541.4"
       class="gridline" />
  </g>
  <g
     style="color:#000000;fill:none;stroke:currentColor;stroke-width:1;stroke-linecap:butt;stroke-linejoin:miter"
     id="g56"
     transform="translate(-20.676,-25.005562)">
    <path
       style="stroke:#000000"
       inkscape:connector-curvature="0"
       id="path48"
       d="m 129.7,502.9 h 21 m 1390.7,0 h -21" />
    <g
       style="font-size:28px;font-family:Times;text-anchor:end;fill:#000000;stroke:none"
       id="g54"
       font-size="28.00"
       transform="translate(110.2,512)">
      <text
         id="text52">
        <tspan
           style="font-family:Times"
           id="tspan50">0</tspan>
      </text>
    </g>
  </g>
  <g
     style="color:#808080;fill:none;stroke:currentColor;stroke-width:0.5;stroke-linecap:butt;stroke-linejoin:miter"
     id="g64"
     transform="translate(-20.676,-25.005562)">
    <path
       style="stroke:#808080;stroke-dasharray:2, 4"
       inkscape:connector-curvature="0"
       id="path62"
       d="M 129.7,386.9 H 1541.4"
       class="gridline" />
  </g>
  <g
     style="color:#000000;fill:none;stroke:currentColor;stroke-width:1;stroke-linecap:butt;stroke-linejoin:miter"
     id="g76"
     transform="translate(-20.676,-25.005562)">
    <path
       style="stroke:#000000"
       inkscape:connector-curvature="0"
       id="path68"
       d="m 129.7,386.9 h 21 m 1390.7,0 h -21" />
    <g
       style="font-size:28px;font-family:Times;text-anchor:end;fill:#000000;stroke:none"
       id="g74"
       font-size="28.00"
       transform="translate(110.2,396)">
      <text
         id="text72">
        <tspan
           style="font-family:Times"
           id="tspan70">1</tspan>
      </text>
    </g>
  </g>
  <g
     style="color:#808080;fill:none;stroke:currentColor;stroke-width:0.5;stroke-linecap:butt;stroke-linejoin:miter"
     id="g84"
     transform="translate(-20.676,-25.005562)">
    <path
       style="stroke:#808080;stroke-dasharray:2, 4"
       inkscape:connector-curvature="0"
       id="path82"
       d="M 129.7,271 H 1541.4"
       class="gridline" />
  </g>
  <g
     style="color:#000000;fill:none;stroke:currentColor;stroke-width:1;stroke-linecap:butt;stroke-linejoin:miter"
     id="g96"
     transform="translate(-20.676,-25.005562)">
    <path
       style="stroke:#000000"
       inkscape:connector-curvature="0"
       id="path88"
       d="m 129.7,271 h 21 m 1390.7,0 h -21" />
    <g
       style="font-size:28px;font-family:Times;text-anchor:end;fill:#000000;stroke:none"
       id="g94"
       font-size="28.00"
       transform="translate(110.2,280.1)">
      <text
         id="text92">
        <tspan
           style="font-family:Times"
           id="tspan90">2</tspan>
      </text>
    </g>
  </g>
  <g
     style="color:#808080;fill:none;stroke:currentColor;stroke-width:0.5;stroke-linecap:butt;stroke-linejoin:miter"
     id="g104"
     transform="translate(-20.676,-25.005562)">
    <path
       style="stroke:#808080;stroke-dasharray:2, 4"
       inkscape:connector-curvature="0"
       id="path102"
       d="m 129.7,155 h 19.5 m 274.5,0 h 1117.7"
       class="gridline" />
  </g>
  <g
     style="color:#000000;fill:none;stroke:currentColor;stroke-width:1;stroke-linecap:butt;stroke-linejoin:miter"
     id="g116"
     transform="translate(-20.676,-25.005562)">
    <path
       style="stroke:#000000"
       inkscape:connector-curvature="0"
       id="path108"
       d="m 129.7,155 h 21 m 1390.7,0 h -21" />
    <g
       style="font-size:28px;font-family:Times;text-anchor:end;fill:#000000;stroke:none"
       id="g114"
       font-size="28.00"
       transform="translate(110.2,164.1)">
      <text
         id="text112">
        <tspan
           style="font-family:Times"
           id="tspan110">3</tspan>
      </text>
    </g>
  </g>
  <g
     style="color:#808080;fill:none;stroke:currentColor;stroke-width:0.5;stroke-linecap:butt;stroke-linejoin:miter"
     id="g124"
     transform="translate(-20.676,-25.005562)">
    <path
       style="stroke:#808080;stroke-dasharray:2, 4"
       inkscape:connector-curvature="0"
       id="path122"
       d="M 129.7,39.1 H 1541.4"
       class="gridline" />
  </g>
  <g
     style="color:#000000;fill:none;stroke:currentColor;stroke-width:1;stroke-linecap:butt;stroke-linejoin:miter"
     id="g136"
     transform="translate(-20.676,-25.005562)">
    <path
       style="stroke:#000000"
       inkscape:connector-curvature="0"
       id="path128"
       d="m 129.7,39.1 h 21 m 1390.7,0 h -21" />
    <g
       style="font-size:28px;font-family:Times;text-anchor:end;fill:#000000;stroke:none"
       id="g134"
       font-size="28.00"
       transform="translate(110.2,48.2)">
      <text
         id="text132">
        <tspan
           style="font-family:Times"
           id="tspan130">4</tspan>
      </text>
    </g>
  </g>
  <g
     style="color:#808080;fill:none;stroke:currentColor;stroke-width:0.5;stroke-linecap:butt;stroke-linejoin:miter"
     id="g144"
     transform="translate(-20.676,-25.005562)">
    <path
       style="stroke:#808080;stroke-dasharray:2, 4"
       inkscape:connector-curvature="0"
       id="path142"
       d="M 159.1,502.9 V 186.1 m 0,-126 v -21"
       class="gridline" />
  </g>
  <g
     style="color:#000000;fill:none;stroke:currentColor;stroke-width:1;stroke-linecap:butt;stroke-linejoin:miter"
     id="g156"
     transform="translate(-20.676,-25.005562)">
    <path
       style="stroke:#000000"
       inkscape:connector-curvature="0"
       id="path148"
       d="m 159.1,502.9 m 0,-463.8" />
    <g
       style="font-size:24px;font-family:Times;text-anchor:start;fill:#000000;stroke:none"
       id="g154"
       font-size="24.00"
       transform="rotate(45,-560.60238,449.29089)">
      <text
         id="text152">
        <tspan
           style="font-family:Times"
           id="tspan150">AMG</tspan>
      </text>
    </g>
  </g>
  <g
     style="color:#808080;fill:none;stroke:currentColor;stroke-width:0.5;stroke-linecap:butt;stroke-linejoin:miter"
     id="g164"
     transform="translate(-20.676,-25.005562)">
    <path
       style="stroke:#808080;stroke-dasharray:2, 4"
       inkscape:connector-curvature="0"
       id="path162"
       d="M 217.9,502.9 V 186.1 m 0,-126 v -21"
       class="gridline" />
  </g>
  <g
     style="color:#000000;fill:none;stroke:currentColor;stroke-width:1;stroke-linecap:butt;stroke-linejoin:miter"
     id="g176"
     transform="translate(-20.676,-25.005562)">
    <path
       style="stroke:#000000"
       inkscape:connector-curvature="0"
       id="path168"
       d="m 217.9,502.9 m 0,-463.8" />
    <g
       style="font-size:24px;font-family:Times;text-anchor:start;fill:#000000;stroke:none"
       id="g174"
       font-size="24.00"
       transform="rotate(45,-531.20238,520.26877)">
      <text
         id="text172">
        <tspan
           style="font-family:Times"
           id="tspan170">CNDL</tspan>
      </text>
    </g>
  </g>
  <g
     style="color:#808080;fill:none;stroke:currentColor;stroke-width:0.5;stroke-linecap:butt;stroke-linejoin:miter"
     id="g184"
     transform="translate(-20.676,-25.005562)">
    <path
       style="stroke:#808080;stroke-dasharray:2, 4"
       inkscape:connector-curvature="0"
       id="path182"
       d="M 276.8,502.9 V 186.1 m 0,-126 v -21"
       class="gridline" />
  </g>
  <g
     style="color:#000000;fill:none;stroke:currentColor;stroke-width:1;stroke-linecap:butt;stroke-linejoin:miter"
     id="g196"
     transform="translate(-20.676,-25.005562)">
    <path
       style="stroke:#000000"
       inkscape:connector-curvature="0"
       id="path188"
       d="m 276.8,502.9 m 0,-463.8" />
    <g
       style="font-size:24px;font-family:Times;text-anchor:start;fill:#000000;stroke:none"
       id="g194"
       font-size="24.00"
       transform="rotate(45,-501.75238,591.36736)">
      <text
         id="text192">
        <tspan
           style="font-family:Times"
           id="tspan190">CoMD</tspan>
      </text>
    </g>
  </g>
  <g
     style="color:#808080;fill:none;stroke:currentColor;stroke-width:0.5;stroke-linecap:butt;stroke-linejoin:miter"
     id="g204"
     transform="translate(-20.676,-25.005562)">
    <path
       style="stroke:#808080;stroke-dasharray:2, 4"
       inkscape:connector-curvature="0"
       id="path202"
       d="M 335.6,502.9 V 186.1 m 0,-126 v -21"
       class="gridline" />
  </g>
  <g
     style="color:#000000;fill:none;stroke:currentColor;stroke-width:1;stroke-linecap:butt;stroke-linejoin:miter"
     id="g216"
     transform="translate(-20.676,-25.005562)">
    <path
       style="stroke:#000000"
       inkscape:connector-curvature="0"
       id="path208"
       d="m 335.6,502.9 m 0,-463.8" />
    <g
       style="font-size:24px;font-family:Times;text-anchor:start;fill:#000000;stroke:none"
       id="g214"
       font-size="24.00"
       transform="rotate(45,-472.35238,662.34524)">
      <text
         id="text212">
        <tspan
           style="font-family:Times"
           id="tspan210">LAGO</tspan>
      </text>
    </g>
  </g>
  <g
     style="color:#808080;fill:none;stroke:currentColor;stroke-width:0.5;stroke-linecap:butt;stroke-linejoin:miter"
     id="g224"
     transform="translate(-20.676,-25.005562)">
    <path
       style="stroke:#808080;stroke-dasharray:2, 4"
       inkscape:connector-curvature="0"
       id="path222"
       d="M 394.4,502.9 V 186.1 m 0,-126 v -21"
       class="gridline" />
  </g>
  <g
     style="color:#000000;fill:none;stroke:currentColor;stroke-width:1;stroke-linecap:butt;stroke-linejoin:miter"
     id="g236"
     transform="translate(-20.676,-25.005562)">
    <path
       style="stroke:#000000"
       inkscape:connector-curvature="0"
       id="path228"
       d="m 394.4,502.9 m 0,-463.8" />
    <g
       style="font-size:24px;font-family:Times;text-anchor:start;fill:#000000;stroke:none"
       id="g234"
       font-size="24.00"
       transform="rotate(45,-442.95238,733.32312)">
      <text
         id="text232">
        <tspan
           style="font-family:Times"
           id="tspan230">MxIO</tspan>
      </text>
    </g>
  </g>
  <g
     style="color:#808080;fill:none;stroke:currentColor;stroke-width:0.5;stroke-linecap:butt;stroke-linejoin:miter"
     id="g244"
     transform="translate(-20.676,-25.005562)">
    <path
       style="stroke:#808080;stroke-dasharray:2, 4"
       inkscape:connector-curvature="0"
       id="path242"
       d="M 453.2,502.9 V 39.1"
       class="gridline" />
  </g>
  <g
     style="color:#000000;fill:none;stroke:currentColor;stroke-width:1;stroke-linecap:butt;stroke-linejoin:miter"
     id="g256"
     transform="translate(-20.676,-25.005562)">
    <path
       style="stroke:#000000"
       inkscape:connector-curvature="0"
       id="path248"
       d="m 453.2,502.9 m 0,-463.8" />
    <g
       style="font-size:24px;font-family:Times;text-anchor:start;fill:#000000;stroke:none"
       id="g254"
       font-size="24.00"
       transform="rotate(45,-413.55238,804.301)">
      <text
         id="text252">
        <tspan
           style="font-family:Times"
           id="tspan250">MAMR</tspan>
      </text>
    </g>
  </g>
  <g
     style="color:#808080;fill:none;stroke:currentColor;stroke-width:0.5;stroke-linecap:butt;stroke-linejoin:miter"
     id="g264"
     transform="translate(-20.676,-25.005562)">
    <path
       style="stroke:#808080;stroke-dasharray:2, 4"
       inkscape:connector-curvature="0"
       id="path262"
       d="M 512,502.9 V 39.1"
       class="gridline" />
  </g>
  <g
     style="color:#000000;fill:none;stroke:currentColor;stroke-width:1;stroke-linecap:butt;stroke-linejoin:miter"
     id="g276"
     transform="translate(-20.676,-25.005562)">
    <path
       style="stroke:#000000"
       inkscape:connector-curvature="0"
       id="path268"
       d="M 512,502.9 M 512,39.1" />
    <g
       style="font-size:24px;font-family:Times;text-anchor:start;fill:#000000;stroke:none"
       id="g274"
       font-size="24.00"
       transform="rotate(45,-384.15238,875.27887)">
      <text
         id="text272">
        <tspan
           style="font-family:Times"
           id="tspan270">MiFE</tspan>
      </text>
    </g>
  </g>
  <g
     style="color:#808080;fill:none;stroke:currentColor;stroke-width:0.5;stroke-linecap:butt;stroke-linejoin:miter"
     id="g284"
     transform="translate(-20.676,-25.005562)">
    <path
       style="stroke:#808080;stroke-dasharray:2, 4"
       inkscape:connector-curvature="0"
       id="path282"
       d="M 570.9,502.9 V 39.1"
       class="gridline" />
  </g>
  <g
     style="color:#000000;fill:none;stroke:currentColor;stroke-width:1;stroke-linecap:butt;stroke-linejoin:miter"
     id="g296"
     transform="translate(-20.676,-25.005562)">
    <path
       style="stroke:#000000"
       inkscape:connector-curvature="0"
       id="path288"
       d="m 570.9,502.9 m 0,-463.8" />
    <g
       style="font-size:24px;font-family:Times;text-anchor:start;fill:#000000;stroke:none"
       id="g294"
       font-size="24.00"
       transform="rotate(45,-354.70238,946.37746)">
      <text
         id="text292">
        <tspan
           style="font-family:Times"
           id="tspan290">MTri</tspan>
      </text>
    </g>
  </g>
  <g
     style="color:#808080;fill:none;stroke:currentColor;stroke-width:0.5;stroke-linecap:butt;stroke-linejoin:miter"
     id="g304"
     transform="translate(-20.676,-25.005562)">
    <path
       style="stroke:#808080;stroke-dasharray:2, 4"
       inkscape:connector-curvature="0"
       id="path302"
       d="M 629.7,502.9 V 39.1"
       class="gridline" />
  </g>
  <g
     style="color:#000000;fill:none;stroke:currentColor;stroke-width:1;stroke-linecap:butt;stroke-linejoin:miter"
     id="g316"
     transform="translate(-20.676,-25.005562)">
    <path
       style="stroke:#000000"
       inkscape:connector-curvature="0"
       id="path308"
       d="m 629.7,502.9 m 0,-463.8" />
    <g
       style="font-size:24px;font-family:Times;text-anchor:start;fill:#000000;stroke:none"
       id="g314"
       font-size="24.00"
       transform="rotate(45,-325.30238,1017.3553)">
      <text
         id="text312">
        <tspan
           style="font-family:Times"
           id="tspan310">NekB</tspan>
      </text>
    </g>
  </g>
  <g
     style="color:#808080;fill:none;stroke:currentColor;stroke-width:0.5;stroke-linecap:butt;stroke-linejoin:miter"
     id="g324"
     transform="translate(-20.676,-25.005562)">
    <path
       style="stroke:#808080;stroke-dasharray:2, 4"
       inkscape:connector-curvature="0"
       id="path322"
       d="M 688.5,502.9 V 39.1"
       class="gridline" />
  </g>
  <g
     style="color:#000000;fill:none;stroke:currentColor;stroke-width:1;stroke-linecap:butt;stroke-linejoin:miter"
     id="g336"
     transform="translate(-20.676,-25.005562)">
    <path
       style="stroke:#000000"
       inkscape:connector-curvature="0"
       id="path328"
       d="m 688.5,502.9 m 0,-463.8" />
    <g
       style="font-size:24px;font-family:Times;text-anchor:start;fill:#000000;stroke:none"
       id="g334"
       font-size="24.00"
       transform="rotate(45,-295.90238,1088.3332)">
      <text
         id="text332">
        <tspan
           style="font-family:Times"
           id="tspan330">SW4L</tspan>
      </text>
    </g>
  </g>
  <g
     style="color:#808080;fill:none;stroke:currentColor;stroke-width:0.5;stroke-linecap:butt;stroke-linejoin:miter"
     id="g344"
     transform="translate(-20.676,-25.005562)">
    <path
       style="stroke:#808080;stroke-dasharray:2, 4"
       inkscape:connector-curvature="0"
       id="path342"
       d="M 747.3,502.9 V 39.1"
       class="gridline" />
  </g>
  <g
     style="color:#000000;fill:none;stroke:currentColor;stroke-width:1;stroke-linecap:butt;stroke-linejoin:miter"
     id="g356"
     transform="translate(-20.676,-25.005562)">
    <path
       style="stroke:#000000"
       inkscape:connector-curvature="0"
       id="path348"
       d="m 747.3,502.9 m 0,-463.8" />
    <g
       style="font-size:24px;font-family:Times;text-anchor:start;fill:#000000;stroke:none"
       id="g354"
       font-size="24.00"
       transform="rotate(45,-266.50238,1159.3111)">
      <text
         id="text352">
        <tspan
           style="font-family:Times"
           id="tspan350">FFT</tspan>
      </text>
    </g>
  </g>
  <g
     style="color:#808080;fill:none;stroke:currentColor;stroke-width:0.5;stroke-linecap:butt;stroke-linejoin:miter"
     id="g364"
     transform="translate(-20.676,-25.005562)">
    <path
       style="stroke:#808080;stroke-dasharray:2, 4"
       inkscape:connector-curvature="0"
       id="path362"
       d="M 806.1,502.9 V 39.1"
       class="gridline" />
  </g>
  <g
     style="color:#000000;fill:none;stroke:currentColor;stroke-width:1;stroke-linecap:butt;stroke-linejoin:miter"
     id="g376"
     transform="translate(-20.676,-25.005562)">
    <path
       style="stroke:#000000"
       inkscape:connector-curvature="0"
       id="path368"
       d="m 806.1,502.9 m 0,-463.8" />
    <g
       style="font-size:24px;font-family:Times;text-anchor:start;fill:#000000;stroke:none"
       id="g374"
       font-size="24.00"
       transform="rotate(45,-237.10238,1230.289)">
      <text
         id="text372">
        <tspan
           style="font-family:Times"
           id="tspan370">XSBn</tspan>
      </text>
    </g>
  </g>
  <g
     style="color:#808080;fill:none;stroke:currentColor;stroke-width:0.5;stroke-linecap:butt;stroke-linejoin:miter"
     id="g384"
     transform="translate(-20.676,-25.005562)">
    <path
       style="stroke:#808080;stroke-dasharray:2, 4"
       inkscape:connector-curvature="0"
       id="path382"
       d="M 865,502.9 V 39.1"
       class="gridline" />
  </g>
  <g
     style="color:#000000;fill:none;stroke:currentColor;stroke-width:1;stroke-linecap:butt;stroke-linejoin:miter"
     id="g394"
     transform="translate(-20.676,-25.005562)">
    <path
       style="stroke:#000000"
       inkscape:connector-curvature="0"
       id="path388"
       d="M 865,502.9 M 865,39.1" />
    <g
       style="font-size:24px;font-family:Times;text-anchor:start;fill:#000000;stroke:none"
       id="g392"
       font-size="24.00"
       transform="rotate(45,-207.65238,1301.3876)">
      <text
         id="text390" />
    </g>
  </g>
  <g
     style="color:#808080;fill:none;stroke:currentColor;stroke-width:0.5;stroke-linecap:butt;stroke-linejoin:miter"
     id="g402"
     transform="translate(-20.676,-25.005562)">
    <path
       style="stroke:#808080;stroke-dasharray:2, 4"
       inkscape:connector-curvature="0"
       id="path400"
       d="M 923.8,502.9 V 39.1"
       class="gridline" />
  </g>
  <g
     style="color:#000000;fill:none;stroke:currentColor;stroke-width:1;stroke-linecap:butt;stroke-linejoin:miter"
     id="g414"
     transform="translate(-20.676,-25.005562)">
    <path
       style="stroke:#000000"
       inkscape:connector-curvature="0"
       id="path406"
       d="m 923.8,502.9 m 0,-463.8" />
    <g
       style="font-size:24px;font-family:Times;text-anchor:start;fill:#000000;stroke:none"
       id="g412"
       font-size="24.00"
       transform="rotate(45,-178.25238,1372.3654)">
      <text
         id="text410">
        <tspan
           style="font-family:Times"
           id="tspan408">FFB</tspan>
      </text>
    </g>
  </g>
  <g
     style="color:#808080;fill:none;stroke:currentColor;stroke-width:0.5;stroke-linecap:butt;stroke-linejoin:miter"
     id="g422"
     transform="translate(-20.676,-25.005562)">
    <path
       style="stroke:#808080;stroke-dasharray:2, 4"
       inkscape:connector-curvature="0"
       id="path420"
       d="M 982.6,502.9 V 39.1"
       class="gridline" />
  </g>
  <g
     style="color:#000000;fill:none;stroke:currentColor;stroke-width:1;stroke-linecap:butt;stroke-linejoin:miter"
     id="g434"
     transform="translate(-20.676,-25.005562)">
    <path
       style="stroke:#000000"
       inkscape:connector-curvature="0"
       id="path426"
       d="m 982.6,502.9 m 0,-463.8" />
    <g
       style="font-size:24px;font-family:Times;text-anchor:start;fill:#000000;stroke:none"
       id="g432"
       font-size="24.00"
       transform="rotate(45,-148.85238,1443.3433)">
      <text
         id="text430">
        <tspan
           style="font-family:Times"
           id="tspan428">FFVC</tspan>
      </text>
    </g>
  </g>
  <g
     style="color:#808080;fill:none;stroke:currentColor;stroke-width:0.5;stroke-linecap:butt;stroke-linejoin:miter"
     id="g442"
     transform="translate(-20.676,-25.005562)">
    <path
       style="stroke:#808080;stroke-dasharray:2, 4"
       inkscape:connector-curvature="0"
       id="path440"
       d="M 1041.4,502.9 V 39.1"
       class="gridline" />
  </g>
  <g
     style="color:#000000;fill:none;stroke:currentColor;stroke-width:1;stroke-linecap:butt;stroke-linejoin:miter"
     id="g454"
     transform="translate(-20.676,-25.005562)">
    <path
       style="stroke:#000000"
       inkscape:connector-curvature="0"
       id="path446"
       d="m 1041.4,502.9 m 0,-463.8" />
    <g
       style="font-size:24px;font-family:Times;text-anchor:start;fill:#000000;stroke:none"
       id="g452"
       font-size="24.00"
       transform="rotate(45,-119.45238,1514.3212)">
      <text
         id="text450">
        <tspan
           style="font-family:Times"
           id="tspan448">MDYL</tspan>
      </text>
    </g>
  </g>
  <g
     style="color:#808080;fill:none;stroke:currentColor;stroke-width:0.5;stroke-linecap:butt;stroke-linejoin:miter"
     id="g462"
     transform="translate(-20.676,-25.005562)">
    <path
       style="stroke:#808080;stroke-dasharray:2, 4"
       inkscape:connector-curvature="0"
       id="path460"
       d="M 1100.2,502.9 V 39.1"
       class="gridline" />
  </g>
  <g
     style="color:#000000;fill:none;stroke:currentColor;stroke-width:1;stroke-linecap:butt;stroke-linejoin:miter"
     id="g474"
     transform="translate(-20.676,-25.005562)">
    <path
       style="stroke:#000000"
       inkscape:connector-curvature="0"
       id="path466"
       d="m 1100.2,502.9 m 0,-463.8" />
    <g
       style="font-size:24px;font-family:Times;text-anchor:start;fill:#000000;stroke:none"
       id="g472"
       font-size="24.00"
       transform="rotate(45,-90.05238,1585.2991)">
      <text
         id="text470">
        <tspan
           style="font-family:Times"
           id="tspan468">mVMC</tspan>
      </text>
    </g>
  </g>
  <g
     style="color:#808080;fill:none;stroke:currentColor;stroke-width:0.5;stroke-linecap:butt;stroke-linejoin:miter"
     id="g482"
     transform="translate(-20.676,-25.005562)">
    <path
       style="stroke:#808080;stroke-dasharray:2, 4"
       inkscape:connector-curvature="0"
       id="path480"
       d="M 1159.1,502.9 V 39.1"
       class="gridline" />
  </g>
  <g
     style="color:#000000;fill:none;stroke:currentColor;stroke-width:1;stroke-linecap:butt;stroke-linejoin:miter"
     id="g494"
     transform="translate(-20.676,-25.005562)">
    <path
       style="stroke:#000000"
       inkscape:connector-curvature="0"
       id="path486"
       d="m 1159.1,502.9 m 0,-463.8" />
    <g
       style="font-size:24px;font-family:Times;text-anchor:start;fill:#000000;stroke:none"
       id="g492"
       font-size="24.00"
       transform="rotate(45,-60.60238,1656.3977)">
      <text
         id="text490">
        <tspan
           style="font-family:Times"
           id="tspan488">NGSA</tspan>
      </text>
    </g>
  </g>
  <g
     style="color:#808080;fill:none;stroke:currentColor;stroke-width:0.5;stroke-linecap:butt;stroke-linejoin:miter"
     id="g502"
     transform="translate(-20.676,-25.005562)">
    <path
       style="stroke:#808080;stroke-dasharray:2, 4"
       inkscape:connector-curvature="0"
       id="path500"
       d="M 1217.9,502.9 V 39.1"
       class="gridline" />
  </g>
  <g
     style="color:#000000;fill:none;stroke:currentColor;stroke-width:1;stroke-linecap:butt;stroke-linejoin:miter"
     id="g514"
     transform="translate(-20.676,-25.005562)">
    <path
       style="stroke:#000000"
       inkscape:connector-curvature="0"
       id="path506"
       d="m 1217.9,502.9 m 0,-463.8" />
    <g
       style="font-size:24px;font-family:Times;text-anchor:start;fill:#000000;stroke:none"
       id="g512"
       font-size="24.00"
       transform="rotate(45,-31.20238,1727.3756)">
      <text
         id="text510">
        <tspan
           style="font-family:Times"
           id="tspan508">NICM</tspan>
      </text>
    </g>
  </g>
  <g
     style="color:#808080;fill:none;stroke:currentColor;stroke-width:0.5;stroke-linecap:butt;stroke-linejoin:miter"
     id="g522"
     transform="translate(-20.676,-25.005562)">
    <path
       style="stroke:#808080;stroke-dasharray:2, 4"
       inkscape:connector-curvature="0"
       id="path520"
       d="M 1276.7,502.9 V 39.1"
       class="gridline" />
  </g>
  <g
     style="color:#000000;fill:none;stroke:currentColor;stroke-width:1;stroke-linecap:butt;stroke-linejoin:miter"
     id="g534"
     transform="translate(-20.676,-25.005562)">
    <path
       style="stroke:#000000"
       inkscape:connector-curvature="0"
       id="path526"
       d="m 1276.7,502.9 m 0,-463.8" />
    <g
       style="font-size:24px;font-family:Times;text-anchor:start;fill:#000000;stroke:none"
       id="g532"
       font-size="24.00"
       transform="rotate(45,-1.8023805,1798.3534)">
      <text
         id="text530">
        <tspan
           style="font-family:Times"
           id="tspan528">NTCh</tspan>
      </text>
    </g>
  </g>
  <g
     style="color:#808080;fill:none;stroke:currentColor;stroke-width:0.5;stroke-linecap:butt;stroke-linejoin:miter"
     id="g542"
     transform="translate(-20.676,-25.005562)">
    <path
       style="stroke:#808080;stroke-dasharray:2, 4"
       inkscape:connector-curvature="0"
       id="path540"
       d="M 1335.5,502.9 V 39.1"
       class="gridline" />
  </g>
  <g
     style="color:#000000;fill:none;stroke:currentColor;stroke-width:1;stroke-linecap:butt;stroke-linejoin:miter"
     id="g554"
     transform="translate(-20.676,-25.005562)">
    <path
       style="stroke:#000000"
       inkscape:connector-curvature="0"
       id="path546"
       d="m 1335.5,502.9 m 0,-463.8" />
    <g
       style="font-size:24px;font-family:Times;text-anchor:start;fill:#000000;stroke:none"
       id="g552"
       font-size="24.00"
       transform="rotate(45,27.59762,1869.3313)">
      <text
         id="text550">
        <tspan
           style="font-family:Times"
           id="tspan548">QCD</tspan>
      </text>
    </g>
  </g>
  <g
     style="color:#808080;fill:none;stroke:currentColor;stroke-width:0.5;stroke-linecap:butt;stroke-linejoin:miter"
     id="g562"
     transform="translate(-20.676,-25.005562)">
    <path
       style="stroke:#808080;stroke-dasharray:2, 4"
       inkscape:connector-curvature="0"
       id="path560"
       d="M 1394.3,502.9 V 39.1"
       class="gridline" />
  </g>
  <g
     style="color:#000000;fill:none;stroke:currentColor;stroke-width:1;stroke-linecap:butt;stroke-linejoin:miter"
     id="g572"
     transform="translate(-20.676,-25.005562)">
    <path
       style="stroke:#000000"
       inkscape:connector-curvature="0"
       id="path566"
       d="m 1394.3,502.9 m 0,-463.8" />
    <g
       style="font-size:24px;font-family:Times;text-anchor:start;fill:#000000;stroke:none"
       id="g570"
       font-size="24.00"
       transform="rotate(45,56.99762,1940.3092)">
      <text
         id="text568" />
    </g>
  </g>
  <g
     style="color:#808080;fill:none;stroke:currentColor;stroke-width:0.5;stroke-linecap:butt;stroke-linejoin:miter"
     id="g580"
     transform="translate(-20.676,-25.005562)">
    <path
       style="stroke:#808080;stroke-dasharray:2, 4"
       inkscape:connector-curvature="0"
       id="path578"
       d="M 1453.2,502.9 V 39.1"
       class="gridline" />
  </g>
  <g
     style="color:#000000;fill:none;stroke:currentColor;stroke-width:1;stroke-linecap:butt;stroke-linejoin:miter"
     id="g592"
     transform="translate(-20.676,-25.005562)">
    <path
       style="stroke:#000000"
       inkscape:connector-curvature="0"
       id="path584"
       d="m 1453.2,502.9 m 0,-463.8" />
    <g
       style="font-size:24px;font-family:Times;text-anchor:start;fill:#000000;stroke:none"
       id="g590"
       font-size="24.00"
       transform="rotate(45,86.44762,2011.4078)">
      <text
         id="text588">
        <tspan
           style="font-family:Times"
           id="tspan586">HPL</tspan>
      </text>
    </g>
  </g>
  <g
     style="color:#808080;fill:none;stroke:currentColor;stroke-width:0.5;stroke-linecap:butt;stroke-linejoin:miter"
     id="g600"
     transform="translate(-20.676,-25.005562)">
    <path
       style="stroke:#808080;stroke-dasharray:2, 4"
       inkscape:connector-curvature="0"
       id="path598"
       d="M 1512,502.9 V 39.1"
       class="gridline" />
  </g>
  <g
     style="color:#000000;fill:none;stroke:currentColor;stroke-width:1;stroke-linecap:butt;stroke-linejoin:miter"
     id="g612"
     transform="translate(-20.676,-25.005562)">
    <path
       style="stroke:#000000"
       inkscape:connector-curvature="0"
       id="path604"
       d="m 1512,502.9 m 0,-463.8" />
    <g
       style="font-size:24px;font-family:Times;text-anchor:start;fill:#000000;stroke:none"
       id="g610"
       font-size="24.00"
       transform="rotate(45,115.84762,2082.3857)">
      <text
         id="text608">
        <tspan
           style="font-family:Times"
           id="tspan606">HPCG</tspan>
      </text>
    </g>
  </g>
  <g
     style="color:#000000;fill:none;stroke:currentColor;stroke-width:1;stroke-linecap:butt;stroke-linejoin:miter"
     id="g618"
     transform="translate(-20.676,-25.005562)">
    <path
       style="stroke:#000000"
       inkscape:connector-curvature="0"
       id="path616"
       d="M 129.7,39.1 V 502.9 H 1541.4 V 39.1 Z" />
  </g>
  <g
     style="color:#000000;fill:none;stroke:currentColor;stroke-width:1;stroke-linecap:butt;stroke-linejoin:miter"
     id="g626"
     transform="translate(-20.676,-25.005562)">
    <g
       style="font-size:28px;font-family:Times;text-anchor:middle;fill:#000000;stroke:none"
       id="g624"
       font-size="28.00"
       transform="rotate(-90,155.4,115.6)">
      <text
         id="text622">
        <tspan
           style="font-family:Times"
           id="tspan620">Rel. Perf. (Gflop/s) Improvement over BDW</tspan>
      </text>
    </g>
  </g>
  <g
     style="color:#000000;fill:none;stroke:currentColor;stroke-width:1;stroke-linecap:butt;stroke-linejoin:miter"
     id="g632"
     transform="translate(-20.676,-25.005562)">
    <path
       style="stroke:#000000"
       inkscape:connector-curvature="0"
       id="path630"
       d="m 149.2,186.1 v -126 h 274.5 v 126 z" />
  </g>
  <g
     id="gnuplot_plot_1"
     transform="translate(-20.676,-25.005562)">
    <title
       id="title634">KNLrel</title>
    <g
       style="color:#000000;fill:none;stroke:currentColor;stroke-width:1;stroke-linecap:butt;stroke-linejoin:miter"
       id="g646">
      <g
         style="font-size:28px;font-family:Times;text-anchor:end;fill:#000000;stroke:none"
         id="g644"
         font-size="28.00"
         transform="translate(285.7,90.2)">
        <text
           id="text642">
          <tspan
             style="font-family:Times"
             id="tspan636">KNL</tspan>
          <tspan
             style="font-size:22.39999962px;font-family:Times"
             id="tspan638"
             dy="8.3999996"
             font-size="22.4">rel</tspan>
          <tspan
             style="font-size:28px"
             id="tspan640"
             dy="-8.3999996"
             font-size="28.0" />
        </text>
      </g>
    </g>
    <g
       style="color:#000000;fill:none;stroke:currentColor;stroke-width:1;stroke-linecap:butt;stroke-linejoin:miter"
       id="g686">
      <use
         height="100%"
         width="100%"
         y="0"
         x="0"
         style="color:#00b358"
         id="use648"
         transform="matrix(8.4,0,0,8.4,159.1,297.5)"
         xlink:href="#gpPt4" />
      <use
         height="100%"
         width="100%"
         y="0"
         x="0"
         style="color:#00b358"
         id="use650"
         transform="matrix(8.4,0,0,8.4,217.9,351.2)"
         xlink:href="#gpPt4" />
      <use
         height="100%"
         width="100%"
         y="0"
         x="0"
         style="color:#00b358"
         id="use652"
         transform="matrix(8.4,0,0,8.4,276.8,379.9)"
         xlink:href="#gpPt4" />
      <use
         height="100%"
         width="100%"
         y="0"
         x="0"
         style="color:#00b358"
         id="use654"
         transform="matrix(8.4,0,0,8.4,335.6,411)"
         xlink:href="#gpPt4" />
      <use
         height="100%"
         width="100%"
         y="0"
         x="0"
         style="color:#00b358"
         id="use656"
         transform="matrix(8.4,0,0,8.4,512,270.3)"
         xlink:href="#gpPt4" />
      <use
         height="100%"
         width="100%"
         y="0"
         x="0"
         style="color:#00b358"
         id="use658"
         transform="matrix(8.4,0,0,8.4,629.7,230.9)"
         xlink:href="#gpPt4" />
      <use
         height="100%"
         width="100%"
         y="0"
         x="0"
         style="color:#00b358"
         id="use660"
         transform="matrix(8.4,0,0,8.4,688.5,352.1)"
         xlink:href="#gpPt4" />
      <use
         height="100%"
         width="100%"
         y="0"
         x="0"
         style="color:#00b358"
         id="use662"
         transform="matrix(8.4,0,0,8.4,747.3,397)"
         xlink:href="#gpPt4" />
      <use
         height="100%"
         width="100%"
         y="0"
         x="0"
         style="color:#00b358"
         id="use664"
         transform="matrix(8.4,0,0,8.4,806.1,250.1)"
         xlink:href="#gpPt4" />
      <use
         height="100%"
         width="100%"
         y="0"
         x="0"
         style="color:#00b358"
         id="use666"
         transform="matrix(8.4,0,0,8.4,923.8,419.7)"
         xlink:href="#gpPt4" />
      <use
         height="100%"
         width="100%"
         y="0"
         x="0"
         style="color:#00b358"
         id="use668"
         transform="matrix(8.4,0,0,8.4,982.6,388.9)"
         xlink:href="#gpPt4" />
      <use
         height="100%"
         width="100%"
         y="0"
         x="0"
         style="color:#00b358"
         id="use670"
         transform="matrix(8.4,0,0,8.4,1041.4,284.9)"
         xlink:href="#gpPt4" />
      <use
         height="100%"
         width="100%"
         y="0"
         x="0"
         style="color:#00b358"
         id="use672"
         transform="matrix(8.4,0,0,8.4,1100.2,423.7)"
         xlink:href="#gpPt4" />
      <use
         height="100%"
         width="100%"
         y="0"
         x="0"
         style="color:#00b358"
         id="use674"
         transform="matrix(8.4,0,0,8.4,1217.9,416.8)"
         xlink:href="#gpPt4" />
      <use
         height="100%"
         width="100%"
         y="0"
         x="0"
         style="color:#00b358"
         id="use676"
         transform="matrix(8.4,0,0,8.4,1276.7,435.1)"
         xlink:href="#gpPt4" />
      <use
         height="100%"
         width="100%"
         y="0"
         x="0"
         style="color:#00b358"
         id="use678"
         transform="matrix(8.4,0,0,8.4,1335.5,317.2)"
         xlink:href="#gpPt4" />
      <use
         height="100%"
         width="100%"
         y="0"
         x="0"
         style="color:#00b358"
         id="use680"
         transform="matrix(8.4,0,0,8.4,1453.2,282.9)"
         xlink:href="#gpPt4" />
      <use
         height="100%"
         width="100%"
         y="0"
         x="0"
         style="color:#00b358"
         id="use682"
         transform="matrix(8.4,0,0,8.4,1512,392.9)"
         xlink:href="#gpPt4" />
      <use
         height="100%"
         width="100%"
         y="0"
         x="0"
         style="color:#00b358"
         id="use684"
         transform="matrix(8.4,0,0,8.4,354.7,81.1)"
         xlink:href="#gpPt4" />
    </g>
  </g>
  <g
     id="gnuplot_plot_2"
     transform="translate(-20.676,-25.005562)">
    <title
       id="title689">KNMrel</title>
    <g
       style="color:#000000;fill:none;stroke:currentColor;stroke-width:1;stroke-linecap:butt;stroke-linejoin:miter"
       id="g701">
      <g
         style="font-size:28px;font-family:Times;text-anchor:end;fill:#000000;stroke:none"
         id="g699"
         font-size="28.00"
         transform="translate(285.7,132.2)">
        <text
           id="text697">
          <tspan
             style="font-family:Times"
             id="tspan691">KNM</tspan>
          <tspan
             style="font-size:22.39999962px;font-family:Times"
             id="tspan693"
             dy="8.3999996"
             font-size="22.4">rel</tspan>
          <tspan
             style="font-size:28px"
             id="tspan695"
             dy="-8.3999996"
             font-size="28.0" />
        </text>
      </g>
    </g>
    <g
       style="color:#000000;fill:none;stroke:currentColor;stroke-width:1;stroke-linecap:butt;stroke-linejoin:miter"
       id="g741">
      <use
         height="100%"
         width="100%"
         y="0"
         x="0"
         style="color:#1924b1"
         id="use703"
         transform="matrix(8.4,0,0,8.4,159.1,335.6)"
         xlink:href="#gpPt8" />
      <use
         height="100%"
         width="100%"
         y="0"
         x="0"
         style="color:#1924b1"
         id="use705"
         transform="matrix(8.4,0,0,8.4,217.9,323.4)"
         xlink:href="#gpPt8" />
      <use
         height="100%"
         width="100%"
         y="0"
         x="0"
         style="color:#1924b1"
         id="use707"
         transform="matrix(8.4,0,0,8.4,276.8,379.7)"
         xlink:href="#gpPt8" />
      <use
         height="100%"
         width="100%"
         y="0"
         x="0"
         style="color:#1924b1"
         id="use709"
         transform="matrix(8.4,0,0,8.4,335.6,405.5)"
         xlink:href="#gpPt8" />
      <use
         height="100%"
         width="100%"
         y="0"
         x="0"
         style="color:#1924b1"
         id="use711"
         transform="matrix(8.4,0,0,8.4,512,229.1)"
         xlink:href="#gpPt8" />
      <use
         height="100%"
         width="100%"
         y="0"
         x="0"
         style="color:#1924b1"
         id="use713"
         transform="matrix(8.4,0,0,8.4,629.7,203)"
         xlink:href="#gpPt8" />
      <use
         height="100%"
         width="100%"
         y="0"
         x="0"
         style="color:#1924b1"
         id="use715"
         transform="matrix(8.4,0,0,8.4,688.5,340.8)"
         xlink:href="#gpPt8" />
      <use
         height="100%"
         width="100%"
         y="0"
         x="0"
         style="color:#1924b1"
         id="use717"
         transform="matrix(8.4,0,0,8.4,747.3,394)"
         xlink:href="#gpPt8" />
      <use
         height="100%"
         width="100%"
         y="0"
         x="0"
         style="color:#1924b1"
         id="use719"
         transform="matrix(8.4,0,0,8.4,806.1,203.7)"
         xlink:href="#gpPt8" />
      <use
         height="100%"
         width="100%"
         y="0"
         x="0"
         style="color:#1924b1"
         id="use721"
         transform="matrix(8.4,0,0,8.4,923.8,414.4)"
         xlink:href="#gpPt8" />
      <use
         height="100%"
         width="100%"
         y="0"
         x="0"
         style="color:#1924b1"
         id="use723"
         transform="matrix(8.4,0,0,8.4,982.6,393)"
         xlink:href="#gpPt8" />
      <use
         height="100%"
         width="100%"
         y="0"
         x="0"
         style="color:#1924b1"
         id="use725"
         transform="matrix(8.4,0,0,8.4,1041.4,298.6)"
         xlink:href="#gpPt8" />
      <use
         height="100%"
         width="100%"
         y="0"
         x="0"
         style="color:#1924b1"
         id="use727"
         transform="matrix(8.4,0,0,8.4,1100.2,419.7)"
         xlink:href="#gpPt8" />
      <use
         height="100%"
         width="100%"
         y="0"
         x="0"
         style="color:#1924b1"
         id="use729"
         transform="matrix(8.4,0,0,8.4,1217.9,408.2)"
         xlink:href="#gpPt8" />
      <use
         height="100%"
         width="100%"
         y="0"
         x="0"
         style="color:#1924b1"
         id="use731"
         transform="matrix(8.4,0,0,8.4,1276.7,417.7)"
         xlink:href="#gpPt8" />
      <use
         height="100%"
         width="100%"
         y="0"
         x="0"
         style="color:#1924b1"
         id="use733"
         transform="matrix(8.4,0,0,8.4,1335.5,340.7)"
         xlink:href="#gpPt8" />
      <use
         height="100%"
         width="100%"
         y="0"
         x="0"
         style="color:#1924b1"
         id="use735"
         transform="matrix(8.4,0,0,8.4,1453.2,283.8)"
         xlink:href="#gpPt8" />
      <use
         height="100%"
         width="100%"
         y="0"
         x="0"
         style="color:#1924b1"
         id="use737"
         transform="matrix(8.4,0,0,8.4,1512,388.5)"
         xlink:href="#gpPt8" />
      <use
         height="100%"
         width="100%"
         y="0"
         x="0"
         style="color:#1924b1"
         id="use739"
         transform="matrix(8.4,0,0,8.4,354.7,123.1)"
         xlink:href="#gpPt8" />
    </g>
  </g>
  <g
     id="gnuplot_plot_3"
     transform="translate(-20.676,-25.005562)">
    <title
       id="title744">BDWrel</title>
    <g
       style="color:#ffffff;fill:none;stroke:#1924b1;stroke-width:2;stroke-linecap:butt;stroke-linejoin:miter"
       id="g746" />
    <g
       style="color:#808080;fill:none;stroke:currentColor;stroke-width:2;stroke-linecap:butt;stroke-linejoin:miter"
       id="g758">
      <g
         style="font-size:28px;font-family:Times;text-anchor:end;fill:#000000;stroke:none"
         id="g756"
         font-size="28.00"
         transform="translate(285.7,174.2)">
        <text
           id="text754">
          <tspan
             style="font-family:Times"
             id="tspan748">BDW</tspan>
          <tspan
             style="font-size:22.39999962px;font-family:Times"
             id="tspan750"
             dy="8.3999996"
             font-size="22.4">rel</tspan>
          <tspan
             style="font-size:28px"
             id="tspan752"
             dy="-8.3999996"
             font-size="28.0" />
        </text>
      </g>
    </g>
    <g
       style="color:#808080;fill:none;stroke:currentColor;stroke-width:2;stroke-linecap:butt;stroke-linejoin:miter"
       id="g762">
      <path
         style="stroke:#a61a00;stroke-dasharray:2, 4"
         inkscape:connector-curvature="0"
         id="path760"
         d="m 305.2,165.1 h 99 M 129.7,386.9 h 14.3 14.2 14.3 14.2 14.3 14.3 14.2 14.3 14.2 14.3 14.3 14.2 14.3 14.2 14.3 14.3 14.2 14.3 14.2 14.3 14.3 14.2 14.3 14.2 14.3 14.2 14.3 14.3 14.2 14.3 14.2 14.3 14.3 14.2 14.3 14.2 14.3 14.3 14.2 14.3 14.2 14.3 14.3 14.2 14.3 14.2 14.3 14.3 14.2 14.3 14.2 14.3 14.3 14.2 14.3 14.2 14.3 14.3 14.2 14.3 14.2 14.3 14.3 14.2 14.3 14.2 14.3 14.3 14.2 14.3 14.2 14.3 14.3 14.2 14.3 14.2 14.3 14.2 14.3 14.3 14.2 14.3 14.2 14.3 14.3 14.2 14.3 14.2 14.3 14.3 14.2 14.3 14.2 14.3 14.3 14.2 14.3 14.2 14.3" />
    </g>
  </g>
  <g
     style="color:#000000;fill:none;stroke:currentColor;stroke-width:1;stroke-linecap:butt;stroke-linejoin:miter"
     id="g771"
     transform="translate(-20.676,-25.005562)">
    <path
       style="stroke:#000000"
       inkscape:connector-curvature="0"
       id="path769"
       d="M 129.7,39.1 V 502.9 H 1541.4 V 39.1 Z" />
  </g>
</svg>
