%!PS-Adobe-3.0 EPSF-3.0
%%Title: bandwidth.eps
%%Creator: matplotlib version 2.2.3, http://matplotlib.org/
%%CreationDate: Sat Oct  6 18:31:18 2018
%%Orientation: portrait
%%BoundingBox: -45 44 657 747
%%EndComments
%%BeginProlog
/mpldict 9 dict def
mpldict begin
/m { moveto } bind def
/l { lineto } bind def
/r { rlineto } bind def
/c { curveto } bind def
/cl { closepath } bind def
/box {
m
1 index 0 r
0 exch r
neg 0 r
cl
} bind def
/clipbox {
box
clip
newpath
} bind def
%!PS-Adobe-3.0 Resource-Font
%%Title: DejaVu Sans
%%Copyright: Copyright (c) 2003 by Bitstream, Inc. All Rights Reserved. Copyright (c) 2006 by Tavmjong Bah. All Rights Reserved. DejaVu changes are in public domain 
%%Creator: Converted from TrueType to type 3 by PPR
25 dict begin
/_d{bind def}bind def
/_m{moveto}_d
/_l{lineto}_d
/_cl{closepath eofill}_d
/_c{curveto}_d
/_sc{7 -1 roll{setcachedevice}{pop pop pop pop pop pop}ifelse}_d
/_e{exec}_d
/FontName /DejaVuSans def
/PaintType 0 def
/FontMatrix[.001 0 0 .001 0 0]def
/FontBBox[-1021 -463 1793 1232]def
/FontType 3 def
/Encoding [ /space /parenleft /parenright /hyphen /slash /zero /one /two /three /four /six /eight /A /B /C /D /F /G /H /I /K /L /M /N /O /P /Q /S /T /V /W /X /Y /a /b /c /e /g /h /i /k /l /m /n /o /s ] def
/FontInfo 10 dict dup begin
/FamilyName (DejaVu Sans) def
/FullName (DejaVu Sans) def
/Notice (Copyright (c) 2003 by Bitstream, Inc. All Rights Reserved. Copyright (c) 2006 by Tavmjong Bah. All Rights Reserved. DejaVu changes are in public domain ) def
/Weight (Book) def
/Version (Version 2.35) def
/ItalicAngle 0.0 def
/isFixedPitch false def
/UnderlinePosition -130 def
/UnderlineThickness 90 def
end readonly def
/CharStrings 47 dict dup begin
/.notdef 0 def
/space{318 0 0 0 0 0 _sc
}_d
/parenleft{390 0 86 -131 310 759 _sc
310 759 _m
266 683 234 609 213 536 _c
191 463 181 389 181 314 _c
181 238 191 164 213 91 _c
234 17 266 -56 310 -131 _c
232 -131 _l
183 -54 146 20 122 94 _c
98 168 86 241 86 314 _c
86 386 98 459 122 533 _c
146 607 182 682 232 759 _c
310 759 _l
_cl}_d
/parenright{390 0 80 -131 304 759 _sc
80 759 _m
158 759 _l
206 682 243 607 267 533 _c
291 459 304 386 304 314 _c
304 241 291 168 267 94 _c
243 20 206 -54 158 -131 _c
80 -131 _l
123 -56 155 17 177 91 _c
198 164 209 238 209 314 _c
209 389 198 463 177 536 _c
155 609 123 683 80 759 _c
_cl}_d
/hyphen{361 0 49 234 312 314 _sc
49 314 _m
312 314 _l
312 234 _l
49 234 _l
49 314 _l
_cl}_d
/slash{337 0 0 -92 337 729 _sc
254 729 _m
337 729 _l
83 -92 _l
0 -92 _l
254 729 _l
_cl}_d
/zero{636 0 66 -13 570 742 _sc
318 664 _m
267 664 229 639 203 589 _c
177 539 165 464 165 364 _c
165 264 177 189 203 139 _c
229 89 267 64 318 64 _c
369 64 407 89 433 139 _c
458 189 471 264 471 364 _c
471 464 458 539 433 589 _c
407 639 369 664 318 664 _c
318 742 _m
399 742 461 709 505 645 _c
548 580 570 486 570 364 _c
570 241 548 147 505 83 _c
461 19 399 -13 318 -13 _c
236 -13 173 19 130 83 _c
87 147 66 241 66 364 _c
66 486 87 580 130 645 _c
173 709 236 742 318 742 _c
_cl}_d
/one{636 0 110 0 544 729 _sc
124 83 _m
285 83 _l
285 639 _l
110 604 _l
110 694 _l
284 729 _l
383 729 _l
383 83 _l
544 83 _l
544 0 _l
124 0 _l
124 83 _l
_cl}_d
/two{{636 0 73 0 536 742 _sc
192 83 _m
536 83 _l
536 0 _l
73 0 _l
73 83 _l
110 121 161 173 226 239 _c
290 304 331 346 348 365 _c
380 400 402 430 414 455 _c
426 479 433 504 433 528 _c
433 566 419 598 392 622 _c
365 646 330 659 286 659 _c
255 659 222 653 188 643 _c
154 632 117 616 78 594 _c
78 694 _l
118 710 155 722 189 730 _c
223 738 255 742 284 742 _c
}_e{359 742 419 723 464 685 _c
509 647 532 597 532 534 _c
532 504 526 475 515 449 _c
504 422 484 390 454 354 _c
446 344 420 317 376 272 _c
332 227 271 164 192 83 _c
_cl}_e}_d
/three{{636 0 76 -13 556 742 _sc
406 393 _m
453 383 490 362 516 330 _c
542 298 556 258 556 212 _c
556 140 531 84 482 45 _c
432 6 362 -13 271 -13 _c
240 -13 208 -10 176 -4 _c
144 1 110 10 76 22 _c
76 117 _l
103 101 133 89 166 81 _c
198 73 232 69 268 69 _c
330 69 377 81 409 105 _c
441 129 458 165 458 212 _c
458 254 443 288 413 312 _c
383 336 341 349 287 349 _c
}_e{202 349 _l
202 430 _l
291 430 _l
339 430 376 439 402 459 _c
428 478 441 506 441 543 _c
441 580 427 609 401 629 _c
374 649 336 659 287 659 _c
260 659 231 656 200 650 _c
169 644 135 635 98 623 _c
98 711 _l
135 721 170 729 203 734 _c
235 739 266 742 296 742 _c
370 742 429 725 473 691 _c
517 657 539 611 539 553 _c
539 513 527 479 504 451 _c
481 423 448 403 406 393 _c
_cl}_e}_d
/four{636 0 49 0 580 729 _sc
378 643 _m
129 254 _l
378 254 _l
378 643 _l
352 729 _m
476 729 _l
476 254 _l
580 254 _l
580 172 _l
476 172 _l
476 0 _l
378 0 _l
378 172 _l
49 172 _l
49 267 _l
352 729 _l
_cl}_d
/six{{636 0 70 -13 573 742 _sc
330 404 _m
286 404 251 388 225 358 _c
199 328 186 286 186 234 _c
186 181 199 139 225 109 _c
251 79 286 64 330 64 _c
374 64 409 79 435 109 _c
461 139 474 181 474 234 _c
474 286 461 328 435 358 _c
409 388 374 404 330 404 _c
526 713 _m
526 623 _l
501 635 476 644 451 650 _c
425 656 400 659 376 659 _c
310 659 260 637 226 593 _c
}_e{192 549 172 482 168 394 _c
187 422 211 444 240 459 _c
269 474 301 482 336 482 _c
409 482 467 459 509 415 _c
551 371 573 310 573 234 _c
573 159 550 99 506 54 _c
462 9 403 -13 330 -13 _c
246 -13 181 19 137 83 _c
92 147 70 241 70 364 _c
70 479 97 571 152 639 _c
206 707 280 742 372 742 _c
396 742 421 739 447 735 _c
472 730 498 723 526 713 _c
_cl}_e}_d
/eight{{636 0 68 -13 568 742 _sc
318 346 _m
271 346 234 333 207 308 _c
180 283 167 249 167 205 _c
167 161 180 126 207 101 _c
234 76 271 64 318 64 _c
364 64 401 76 428 102 _c
455 127 469 161 469 205 _c
469 249 455 283 429 308 _c
402 333 365 346 318 346 _c
219 388 _m
177 398 144 418 120 447 _c
96 476 85 511 85 553 _c
85 611 105 657 147 691 _c
188 725 245 742 318 742 _c
}_e{390 742 447 725 489 691 _c
530 657 551 611 551 553 _c
551 511 539 476 515 447 _c
491 418 459 398 417 388 _c
464 377 501 355 528 323 _c
554 291 568 251 568 205 _c
568 134 546 80 503 43 _c
459 5 398 -13 318 -13 _c
237 -13 175 5 132 43 _c
89 80 68 134 68 205 _c
68 251 81 291 108 323 _c
134 355 171 377 219 388 _c
183 544 _m
183 506 194 476 218 455 _c
}_e{242 434 275 424 318 424 _c
360 424 393 434 417 455 _c
441 476 453 506 453 544 _c
453 582 441 611 417 632 _c
393 653 360 664 318 664 _c
275 664 242 653 218 632 _c
194 611 183 582 183 544 _c
_cl}_e}_d
/A{684 0 8 0 676 729 _sc
342 632 _m
208 269 _l
476 269 _l
342 632 _l
286 729 _m
398 729 _l
676 0 _l
573 0 _l
507 187 _l
178 187 _l
112 0 _l
8 0 _l
286 729 _l
_cl}_d
/B{{686 0 98 0 615 729 _sc
197 348 _m
197 81 _l
355 81 _l
408 81 447 92 473 114 _c
498 136 511 169 511 215 _c
511 260 498 293 473 315 _c
447 337 408 348 355 348 _c
197 348 _l
197 648 _m
197 428 _l
343 428 _l
391 428 426 437 450 455 _c
474 473 486 500 486 538 _c
486 574 474 602 450 620 _c
426 638 391 648 343 648 _c
197 648 _l
98 729 _m
350 729 _l
}_e{425 729 483 713 524 682 _c
564 650 585 606 585 549 _c
585 504 574 468 553 442 _c
532 416 502 399 462 393 _c
510 382 548 360 575 327 _c
601 294 615 253 615 204 _c
615 138 592 88 548 53 _c
504 17 441 0 360 0 _c
98 0 _l
98 729 _l
_cl}_e}_d
/C{{698 0 56 -13 644 742 _sc
644 673 _m
644 569 _l
610 599 575 622 537 638 _c
499 653 460 661 418 661 _c
334 661 270 635 226 584 _c
182 533 160 460 160 364 _c
160 268 182 194 226 143 _c
270 92 334 67 418 67 _c
460 67 499 74 537 90 _c
575 105 610 128 644 159 _c
644 56 _l
609 32 572 15 534 4 _c
496 -7 455 -13 412 -13 _c
302 -13 215 20 151 87 _c
}_e{87 154 56 246 56 364 _c
56 481 87 573 151 641 _c
215 708 302 742 412 742 _c
456 742 497 736 535 725 _c
573 713 610 696 644 673 _c
_cl}_e}_d
/D{770 0 98 0 711 729 _sc
197 648 _m
197 81 _l
316 81 _l
416 81 490 103 537 149 _c
583 195 607 267 607 365 _c
607 463 583 534 537 580 _c
490 625 416 648 316 648 _c
197 648 _l
98 729 _m
301 729 _l
442 729 546 699 612 641 _c
678 582 711 490 711 365 _c
711 239 677 147 611 88 _c
545 29 441 0 301 0 _c
98 0 _l
98 729 _l
_cl}_d
/F{575 0 98 0 517 729 _sc
98 729 _m
517 729 _l
517 646 _l
197 646 _l
197 431 _l
486 431 _l
486 348 _l
197 348 _l
197 0 _l
98 0 _l
98 729 _l
_cl}_d
/G{{775 0 56 -13 693 742 _sc
595 104 _m
595 300 _l
434 300 _l
434 381 _l
693 381 _l
693 68 _l
655 40 613 20 567 7 _c
521 -6 472 -13 420 -13 _c
306 -13 216 20 152 86 _c
88 152 56 245 56 364 _c
56 482 88 575 152 642 _c
216 708 306 742 420 742 _c
467 742 512 736 555 724 _c
598 712 638 695 674 673 _c
674 568 _l
637 598 598 621 557 637 _c
516 653 473 661 428 661 _c
}_e{338 661 271 636 227 586 _c
182 536 160 462 160 364 _c
160 265 182 191 227 141 _c
271 91 338 67 428 67 _c
462 67 493 70 521 76 _c
549 82 573 91 595 104 _c
_cl}_e}_d
/H{752 0 98 0 654 729 _sc
98 729 _m
197 729 _l
197 430 _l
555 430 _l
555 729 _l
654 729 _l
654 0 _l
555 0 _l
555 347 _l
197 347 _l
197 0 _l
98 0 _l
98 729 _l
_cl}_d
/I{295 0 98 0 197 729 _sc
98 729 _m
197 729 _l
197 0 _l
98 0 _l
98 729 _l
_cl}_d
/K{656 0 98 0 677 729 _sc
98 729 _m
197 729 _l
197 421 _l
524 729 _l
651 729 _l
289 389 _l
677 0 _l
547 0 _l
197 351 _l
197 0 _l
98 0 _l
98 729 _l
_cl}_d
/L{557 0 98 0 552 729 _sc
98 729 _m
197 729 _l
197 83 _l
552 83 _l
552 0 _l
98 0 _l
98 729 _l
_cl}_d
/M{863 0 98 0 765 729 _sc
98 729 _m
245 729 _l
431 233 _l
618 729 _l
765 729 _l
765 0 _l
669 0 _l
669 640 _l
481 140 _l
382 140 _l
194 640 _l
194 0 _l
98 0 _l
98 729 _l
_cl}_d
/N{748 0 98 0 650 729 _sc
98 729 _m
231 729 _l
554 119 _l
554 729 _l
650 729 _l
650 0 _l
517 0 _l
194 610 _l
194 0 _l
98 0 _l
98 729 _l
_cl}_d
/O{787 0 56 -13 731 742 _sc
394 662 _m
322 662 265 635 223 582 _c
181 528 160 456 160 364 _c
160 272 181 199 223 146 _c
265 92 322 66 394 66 _c
465 66 522 92 564 146 _c
606 199 627 272 627 364 _c
627 456 606 528 564 582 _c
522 635 465 662 394 662 _c
394 742 _m
496 742 577 707 639 639 _c
700 571 731 479 731 364 _c
731 248 700 157 639 89 _c
577 21 496 -13 394 -13 _c
291 -13 209 21 148 89 _c
86 157 56 248 56 364 _c
56 479 86 571 148 639 _c
209 707 291 742 394 742 _c
_cl}_d
/P{603 0 98 0 569 729 _sc
197 648 _m
197 374 _l
321 374 _l
367 374 402 385 427 409 _c
452 433 465 467 465 511 _c
465 555 452 588 427 612 _c
402 636 367 648 321 648 _c
197 648 _l
98 729 _m
321 729 _l
402 729 464 710 506 673 _c
548 636 569 582 569 511 _c
569 439 548 384 506 348 _c
464 311 402 293 321 293 _c
197 293 _l
197 0 _l
98 0 _l
98 729 _l
_cl}_d
/Q{{787 0 56 -128 731 742 _sc
394 662 _m
322 662 265 635 223 582 _c
181 528 160 456 160 364 _c
160 272 181 199 223 146 _c
265 92 322 66 394 66 _c
465 66 522 92 564 146 _c
606 199 627 272 627 364 _c
627 456 606 528 564 582 _c
522 635 465 662 394 662 _c
532 13 _m
662 -128 _l
543 -128 _l
435 -11 _l
424 -11 416 -12 410 -12 _c
404 -12 399 -13 394 -13 _c
291 -13 209 21 148 89 _c
}_e{86 157 56 248 56 364 _c
56 479 86 571 148 639 _c
209 707 291 742 394 742 _c
496 742 577 707 639 639 _c
700 571 731 479 731 364 _c
731 279 714 206 680 146 _c
646 86 596 41 532 13 _c
_cl}_e}_d
/S{{635 0 66 -13 579 742 _sc
535 705 _m
535 609 _l
497 627 462 640 429 649 _c
395 657 363 662 333 662 _c
279 662 237 651 208 631 _c
179 610 165 580 165 542 _c
165 510 174 485 194 469 _c
213 452 250 439 304 429 _c
364 417 _l
437 403 491 378 526 343 _c
561 307 579 260 579 201 _c
579 130 555 77 508 41 _c
460 5 391 -13 300 -13 _c
265 -13 228 -9 189 -2 _c
}_e{150 5 110 16 69 32 _c
69 134 _l
109 111 148 94 186 83 _c
224 71 262 66 300 66 _c
356 66 399 77 430 99 _c
460 121 476 152 476 194 _c
476 230 465 258 443 278 _c
421 298 385 313 335 323 _c
275 335 _l
201 349 148 372 115 404 _c
82 435 66 478 66 534 _c
66 598 88 649 134 686 _c
179 723 242 742 322 742 _c
356 742 390 739 426 733 _c
461 727 497 717 535 705 _c
}_e{_cl}_e}_d
/T{611 0 -2 0 614 729 _sc
-2 729 _m
614 729 _l
614 646 _l
355 646 _l
355 0 _l
256 0 _l
256 646 _l
-2 646 _l
-2 729 _l
_cl}_d
/V{684 0 8 0 676 729 _sc
286 0 _m
8 729 _l
111 729 _l
342 115 _l
573 729 _l
676 729 _l
398 0 _l
286 0 _l
_cl}_d
/W{989 0 33 0 956 729 _sc
33 729 _m
133 729 _l
286 113 _l
439 729 _l
550 729 _l
703 113 _l
856 729 _l
956 729 _l
773 0 _l
649 0 _l
495 633 _l
340 0 _l
216 0 _l
33 729 _l
_cl}_d
/X{685 0 30 0 654 729 _sc
63 729 _m
169 729 _l
350 458 _l
532 729 _l
638 729 _l
404 379 _l
654 0 _l
548 0 _l
343 310 _l
136 0 _l
30 0 _l
290 389 _l
63 729 _l
_cl}_d
/Y{611 0 -1 0 613 729 _sc
-1 729 _m
104 729 _l
306 429 _l
507 729 _l
613 729 _l
355 347 _l
355 0 _l
256 0 _l
256 347 _l
-1 729 _l
_cl}_d
/a{{613 0 60 -13 522 560 _sc
343 275 _m
270 275 220 266 192 250 _c
164 233 150 205 150 165 _c
150 133 160 107 181 89 _c
202 70 231 61 267 61 _c
317 61 357 78 387 114 _c
417 149 432 196 432 255 _c
432 275 _l
343 275 _l
522 312 _m
522 0 _l
432 0 _l
432 83 _l
411 49 385 25 355 10 _c
325 -5 287 -13 243 -13 _c
187 -13 142 2 109 33 _c
76 64 60 106 60 159 _c
}_e{60 220 80 266 122 298 _c
163 329 224 345 306 345 _c
432 345 _l
432 354 _l
432 395 418 427 391 450 _c
364 472 326 484 277 484 _c
245 484 215 480 185 472 _c
155 464 127 453 100 439 _c
100 522 _l
132 534 164 544 195 550 _c
226 556 256 560 286 560 _c
365 560 424 539 463 498 _c
502 457 522 395 522 312 _c
_cl}_e}_d
/b{{635 0 91 -13 580 760 _sc
487 273 _m
487 339 473 390 446 428 _c
418 466 381 485 334 485 _c
286 485 249 466 222 428 _c
194 390 181 339 181 273 _c
181 207 194 155 222 117 _c
249 79 286 61 334 61 _c
381 61 418 79 446 117 _c
473 155 487 207 487 273 _c
181 464 _m
199 496 223 520 252 536 _c
281 552 316 560 356 560 _c
422 560 476 533 518 481 _c
559 428 580 359 580 273 _c
}_e{580 187 559 117 518 65 _c
476 13 422 -13 356 -13 _c
316 -13 281 -5 252 10 _c
223 25 199 49 181 82 _c
181 0 _l
91 0 _l
91 760 _l
181 760 _l
181 464 _l
_cl}_e}_d
/c{{550 0 55 -13 488 560 _sc
488 526 _m
488 442 _l
462 456 437 466 411 473 _c
385 480 360 484 334 484 _c
276 484 230 465 198 428 _c
166 391 150 339 150 273 _c
150 206 166 154 198 117 _c
230 80 276 62 334 62 _c
360 62 385 65 411 72 _c
437 79 462 90 488 104 _c
488 21 _l
462 9 436 0 410 -5 _c
383 -10 354 -13 324 -13 _c
242 -13 176 12 128 64 _c
}_e{79 115 55 185 55 273 _c
55 362 79 432 128 483 _c
177 534 244 560 330 560 _c
358 560 385 557 411 551 _c
437 545 463 537 488 526 _c
_cl}_e}_d
/e{{615 0 55 -13 562 560 _sc
562 296 _m
562 252 _l
149 252 _l
153 190 171 142 205 110 _c
238 78 284 62 344 62 _c
378 62 412 66 444 74 _c
476 82 509 95 541 113 _c
541 28 _l
509 14 476 3 442 -3 _c
408 -9 373 -13 339 -13 _c
251 -13 182 12 131 62 _c
80 112 55 181 55 268 _c
55 357 79 428 127 481 _c
175 533 241 560 323 560 _c
397 560 455 536 498 489 _c
}_e{540 441 562 377 562 296 _c
472 322 _m
471 371 457 410 431 440 _c
404 469 368 484 324 484 _c
274 484 234 469 204 441 _c
174 413 156 373 152 322 _c
472 322 _l
_cl}_e}_d
/g{{635 0 55 -207 544 560 _sc
454 280 _m
454 344 440 395 414 431 _c
387 467 349 485 301 485 _c
253 485 215 467 188 431 _c
161 395 148 344 148 280 _c
148 215 161 165 188 129 _c
215 93 253 75 301 75 _c
349 75 387 93 414 129 _c
440 165 454 215 454 280 _c
544 68 _m
544 -24 523 -93 482 -139 _c
440 -184 377 -207 292 -207 _c
260 -207 231 -204 203 -200 _c
175 -195 147 -188 121 -178 _c
}_e{121 -91 _l
147 -105 173 -115 199 -122 _c
225 -129 251 -133 278 -133 _c
336 -133 380 -117 410 -87 _c
439 -56 454 -10 454 52 _c
454 96 _l
435 64 411 40 382 24 _c
353 8 319 0 279 0 _c
211 0 157 25 116 76 _c
75 127 55 195 55 280 _c
55 364 75 432 116 483 _c
157 534 211 560 279 560 _c
319 560 353 552 382 536 _c
411 520 435 496 454 464 _c
454 547 _l
544 547 _l
}_e{544 68 _l
_cl}_e}_d
/h{634 0 91 0 549 760 _sc
549 330 _m
549 0 _l
459 0 _l
459 327 _l
459 379 448 417 428 443 _c
408 469 378 482 338 482 _c
289 482 251 466 223 435 _c
195 404 181 362 181 309 _c
181 0 _l
91 0 _l
91 760 _l
181 760 _l
181 462 _l
202 494 227 519 257 535 _c
286 551 320 560 358 560 _c
420 560 468 540 500 501 _c
532 462 549 405 549 330 _c
_cl}_d
/i{278 0 94 0 184 760 _sc
94 547 _m
184 547 _l
184 0 _l
94 0 _l
94 547 _l
94 760 _m
184 760 _l
184 646 _l
94 646 _l
94 760 _l
_cl}_d
/k{579 0 91 0 576 760 _sc
91 760 _m
181 760 _l
181 311 _l
449 547 _l
564 547 _l
274 291 _l
576 0 _l
459 0 _l
181 267 _l
181 0 _l
91 0 _l
91 760 _l
_cl}_d
/l{278 0 94 0 184 760 _sc
94 760 _m
184 760 _l
184 0 _l
94 0 _l
94 760 _l
_cl}_d
/m{{974 0 91 0 889 560 _sc
520 442 _m
542 482 569 511 600 531 _c
631 550 668 560 711 560 _c
767 560 811 540 842 500 _c
873 460 889 403 889 330 _c
889 0 _l
799 0 _l
799 327 _l
799 379 789 418 771 444 _c
752 469 724 482 686 482 _c
639 482 602 466 575 435 _c
548 404 535 362 535 309 _c
535 0 _l
445 0 _l
445 327 _l
445 379 435 418 417 444 _c
398 469 369 482 331 482 _c
}_e{285 482 248 466 221 435 _c
194 404 181 362 181 309 _c
181 0 _l
91 0 _l
91 547 _l
181 547 _l
181 462 _l
201 495 226 520 255 536 _c
283 552 317 560 357 560 _c
397 560 430 550 458 530 _c
486 510 506 480 520 442 _c
_cl}_e}_d
/n{634 0 91 0 549 560 _sc
549 330 _m
549 0 _l
459 0 _l
459 327 _l
459 379 448 417 428 443 _c
408 469 378 482 338 482 _c
289 482 251 466 223 435 _c
195 404 181 362 181 309 _c
181 0 _l
91 0 _l
91 547 _l
181 547 _l
181 462 _l
202 494 227 519 257 535 _c
286 551 320 560 358 560 _c
420 560 468 540 500 501 _c
532 462 549 405 549 330 _c
_cl}_d
/o{612 0 55 -13 557 560 _sc
306 484 _m
258 484 220 465 192 427 _c
164 389 150 338 150 273 _c
150 207 163 156 191 118 _c
219 80 257 62 306 62 _c
354 62 392 80 420 118 _c
448 156 462 207 462 273 _c
462 337 448 389 420 427 _c
392 465 354 484 306 484 _c
306 560 _m
384 560 445 534 490 484 _c
534 433 557 363 557 273 _c
557 183 534 113 490 63 _c
445 12 384 -13 306 -13 _c
227 -13 165 12 121 63 _c
77 113 55 183 55 273 _c
55 363 77 433 121 484 _c
165 534 227 560 306 560 _c
_cl}_d
/s{{521 0 54 -13 472 560 _sc
443 531 _m
443 446 _l
417 458 391 468 364 475 _c
336 481 308 485 279 485 _c
234 485 200 478 178 464 _c
156 450 145 430 145 403 _c
145 382 153 366 169 354 _c
185 342 217 330 265 320 _c
296 313 _l
360 299 405 279 432 255 _c
458 230 472 195 472 151 _c
472 100 452 60 412 31 _c
372 1 316 -13 246 -13 _c
216 -13 186 -10 154 -5 _c
}_e{122 0 89 8 54 20 _c
54 113 _l
87 95 120 82 152 74 _c
184 65 216 61 248 61 _c
290 61 323 68 346 82 _c
368 96 380 117 380 144 _c
380 168 371 187 355 200 _c
339 213 303 226 247 238 _c
216 245 _l
160 257 119 275 95 299 _c
70 323 58 356 58 399 _c
58 450 76 490 112 518 _c
148 546 200 560 268 560 _c
301 560 332 557 362 552 _c
391 547 418 540 443 531 _c
}_e{_cl}_e}_d
end readonly def

/BuildGlyph
 {exch begin
 CharStrings exch
 2 copy known not{pop /.notdef}if
 true 3 1 roll get exec
 end}_d

/BuildChar {
 1 index /Encoding get exch get
 1 index /BuildGlyph get exec
}_d

FontName currentdict end definefont pop
%!PS-Adobe-3.0 Resource-Font
%%Title: DejaVu Sans Bold
%%Copyright: Copyright (c) 2003 by Bitstream, Inc. All Rights Reserved. Copyright (c) 2006 by Tavmjong Bah. All Rights Reserved. DejaVu changes are in public domain 
%%Creator: Converted from TrueType to type 3 by PPR
25 dict begin
/_d{bind def}bind def
/_m{moveto}_d
/_l{lineto}_d
/_cl{closepath eofill}_d
/_c{curveto}_d
/_sc{7 -1 roll{setcachedevice}{pop pop pop pop pop pop}ifelse}_d
/_e{exec}_d
/FontName /DejaVuSans-Bold def
/PaintType 0 def
/FontMatrix[.001 0 0 .001 0 0]def
/FontBBox[-1069 -415 1975 1174]def
/FontType 3 def
/Encoding [ /space /M /T /e /g /h /m /o /p /r /t /u /y ] def
/FontInfo 10 dict dup begin
/FamilyName (DejaVu Sans) def
/FullName (DejaVu Sans Bold) def
/Notice (Copyright (c) 2003 by Bitstream, Inc. All Rights Reserved. Copyright (c) 2006 by Tavmjong Bah. All Rights Reserved. DejaVu changes are in public domain ) def
/Weight (Bold) def
/Version (Version 2.35) def
/ItalicAngle 0.0 def
/isFixedPitch false def
/UnderlinePosition -130 def
/UnderlineThickness 90 def
end readonly def
/CharStrings 14 dict dup begin
/.notdef 0 def
/space{348 0 0 0 0 0 _sc
}_d
/M{995 0 92 0 903 729 _sc
92 729 _m
331 729 _l
497 339 _l
664 729 _l
903 729 _l
903 0 _l
725 0 _l
725 533 _l
557 140 _l
438 140 _l
270 533 _l
270 0 _l
92 0 _l
92 729 _l
_cl}_d
/T{682 0 5 0 677 729 _sc
5 729 _m
677 729 _l
677 587 _l
435 587 _l
435 0 _l
247 0 _l
247 587 _l
5 587 _l
5 729 _l
_cl}_d
/e{{678 0 43 -13 630 560 _sc
630 275 _m
630 225 _l
221 225 _l
225 184 240 153 266 133 _c
291 112 326 102 372 102 _c
408 102 446 107 485 118 _c
523 129 563 146 604 168 _c
604 33 _l
562 17 521 6 480 -1 _c
438 -9 397 -13 356 -13 _c
257 -13 180 12 125 62 _c
70 112 43 182 43 273 _c
43 362 70 432 124 483 _c
178 534 252 560 346 560 _c
432 560 500 534 552 482 _c
}_e{604 430 630 361 630 275 _c
450 333 _m
450 366 440 393 421 413 _c
401 433 376 444 345 444 _c
311 444 283 434 262 415 _c
241 396 228 369 223 333 _c
450 333 _l
_cl}_e}_d
/g{{716 0 45 -215 632 559 _sc
456 93 _m
432 61 405 37 376 22 _c
347 7 314 0 276 0 _c
209 0 154 26 110 79 _c
66 131 45 198 45 280 _c
45 361 66 428 110 480 _c
154 532 209 559 276 559 _c
314 559 347 551 376 536 _c
405 521 432 498 456 466 _c
456 547 _l
632 547 _l
632 55 _l
632 -32 604 -99 548 -145 _c
492 -191 412 -215 307 -215 _c
273 -215 240 -212 208 -207 _c
}_e{176 -201 144 -193 112 -183 _c
112 -47 _l
142 -64 172 -77 202 -86 _c
231 -94 260 -99 290 -99 _c
347 -99 389 -86 416 -61 _c
442 -36 456 2 456 55 _c
456 93 _l
341 433 _m
305 433 276 419 256 393 _c
236 366 226 328 226 280 _c
226 230 235 192 255 166 _c
275 140 303 127 341 127 _c
377 127 406 140 426 167 _c
446 193 456 231 456 280 _c
456 328 446 366 426 393 _c
}_e{406 419 377 433 341 433 _c
_cl}_e}_d
/h{712 0 84 0 634 760 _sc
634 333 _m
634 0 _l
458 0 _l
458 54 _l
458 254 _l
458 302 457 334 455 352 _c
453 370 449 383 444 392 _c
437 403 428 412 416 418 _c
404 424 390 428 376 428 _c
339 428 310 414 290 386 _c
269 358 259 319 259 269 _c
259 0 _l
84 0 _l
84 760 _l
259 760 _l
259 467 _l
285 499 312 522 342 537 _c
372 552 405 560 441 560 _c
504 560 552 540 585 502 _c
617 463 634 407 634 333 _c
_cl}_d
/m{{1042 0 83 0 963 560 _sc
591 456 _m
613 490 639 515 669 533 _c
699 551 733 560 770 560 _c
832 560 880 540 913 502 _c
946 463 963 407 963 333 _c
963 0 _l
787 0 _l
787 285 _l
787 289 788 294 788 298 _c
788 302 788 309 788 318 _c
788 356 782 384 771 402 _c
759 419 741 428 716 428 _c
682 428 657 414 639 387 _c
621 359 611 320 611 269 _c
611 0 _l
435 0 _l
435 285 _l
}_e{435 345 429 384 419 402 _c
409 419 390 428 364 428 _c
330 428 304 414 286 387 _c
268 359 259 320 259 269 _c
259 0 _l
83 0 _l
83 547 _l
259 547 _l
259 467 _l
280 497 305 520 333 536 _c
361 552 391 560 425 560 _c
462 560 495 550 524 532 _c
553 514 575 488 591 456 _c
_cl}_e}_d
/o{687 0 43 -13 644 560 _sc
344 435 _m
305 435 275 421 255 393 _c
235 365 225 325 225 273 _c
225 220 235 180 255 152 _c
275 124 305 111 344 111 _c
382 111 411 124 431 152 _c
451 180 462 220 462 273 _c
462 325 451 365 431 393 _c
411 421 382 435 344 435 _c
344 560 _m
438 560 511 534 564 484 _c
617 433 644 363 644 273 _c
644 183 617 112 564 62 _c
511 12 438 -13 344 -13 _c
250 -13 176 12 123 62 _c
69 112 43 183 43 273 _c
43 363 69 433 123 484 _c
176 534 250 560 344 560 _c
_cl}_d
/p{{716 0 84 -207 671 560 _sc
259 79 _m
259 -207 _l
84 -207 _l
84 547 _l
259 547 _l
259 467 _l
283 499 309 522 339 537 _c
368 552 402 560 440 560 _c
507 560 562 533 606 479 _c
649 425 671 357 671 273 _c
671 188 649 119 606 66 _c
562 13 507 -13 440 -13 _c
402 -13 368 -5 339 9 _c
309 23 283 47 259 79 _c
375 433 _m
337 433 309 419 289 392 _c
269 364 259 325 259 273 _c
}_e{259 221 269 181 289 154 _c
309 126 337 113 375 113 _c
412 113 440 126 460 154 _c
480 181 490 221 490 273 _c
490 325 480 364 460 392 _c
440 419 412 433 375 433 _c
_cl}_e}_d
/r{493 0 84 0 490 560 _sc
490 398 _m
474 405 459 410 444 414 _c
429 417 414 419 399 419 _c
354 419 319 404 295 376 _c
271 347 259 306 259 252 _c
259 0 _l
84 0 _l
84 547 _l
259 547 _l
259 457 _l
281 493 306 519 336 535 _c
365 551 400 560 441 560 _c
447 560 453 559 460 559 _c
466 559 476 558 490 556 _c
490 398 _l
_cl}_d
/t{478 0 13 0 455 702 _sc
275 702 _m
275 547 _l
455 547 _l
455 422 _l
275 422 _l
275 190 _l
275 164 280 147 290 138 _c
300 129 320 125 350 125 _c
440 125 _l
440 0 _l
290 0 _l
221 0 172 14 143 43 _c
114 71 100 120 100 190 _c
100 422 _l
13 422 _l
13 547 _l
100 547 _l
100 702 _l
275 702 _l
_cl}_d
/u{{712 0 78 -13 628 547 _sc
78 213 _m
78 547 _l
254 547 _l
254 492 _l
254 462 253 425 253 380 _c
253 335 253 305 253 291 _c
253 247 254 215 256 196 _c
258 176 262 162 268 154 _c
275 142 284 133 296 127 _c
307 121 320 118 336 118 _c
372 118 401 132 422 160 _c
442 188 453 227 453 277 _c
453 547 _l
628 547 _l
628 0 _l
453 0 _l
453 79 _l
427 47 399 23 369 9 _c
}_e{339 -5 307 -13 272 -13 _c
208 -13 160 6 127 44 _c
94 82 78 139 78 213 _c
_cl}_e}_d
/y{652 0 12 -215 634 547 _sc
12 547 _m
187 547 _l
334 176 _l
459 547 _l
634 547 _l
404 -51 _l
380 -111 353 -154 323 -178 _c
292 -202 251 -215 201 -215 _c
100 -215 _l
100 -100 _l
155 -100 _l
184 -100 205 -95 219 -86 _c
233 -76 243 -59 251 -35 _c
256 -20 _l
12 547 _l
_cl}_d
end readonly def

/BuildGlyph
 {exch begin
 CharStrings exch
 2 copy known not{pop /.notdef}if
 true 3 1 roll get exec
 end}_d

/BuildChar {
 1 index /Encoding get exch get
 1 index /BuildGlyph get exec
}_d

FontName currentdict end definefont pop
end
%%EndProlog
mpldict begin
-45.608 44.446 translate
703.216 703.108 0 0 clipbox
gsave
0 0 m
703.216 0 l
703.216 703.108431 l
0 703.108431 l
cl
1.000 setgray
fill
grestore
gsave
52.4875 55.905719 m
616.2535 55.905719 l
616.2535 674.705306 l
52.4875 674.705306 l
cl
1.000 setgray
fill
grestore
0.800 setlinewidth
1 setlinejoin
0 setlinecap
[2.96 1.28] 0 setdash
0.800 setgray
gsave
563.8 618.8 52.49 55.91 clipbox
78.113227 55.905719 m
78.113227 674.705306 l
stroke
grestore
0.150 setgray
/DejaVuSans findfont
12.000 scalefont
setfont
gsave
74.017093 21.616292 translate
60.000000 rotate
0.000000 0.000000 m /A glyphshow
8.208984 0.000000 m /M glyphshow
18.562500 0.000000 m /G glyphshow
grestore
0.800 setgray
gsave
563.8 618.8 52.49 55.91 clipbox
100.396468 55.905719 m
100.396468 674.705306 l
stroke
grestore
0.150 setgray
gsave
92.894084 9.816696 translate
60.000000 rotate
0.000000 0.000000 m /C glyphshow
8.378906 0.000000 m /A glyphshow
16.587891 0.000000 m /N glyphshow
25.564453 0.000000 m /D glyphshow
34.804688 0.000000 m /L glyphshow
grestore
0.800 setgray
gsave
563.8 618.8 52.49 55.91 clipbox
122.679709 55.905719 m
122.679709 674.705306 l
stroke
grestore
0.150 setgray
gsave
116.720294 15.161697 translate
60.000000 rotate
0.000000 0.000000 m /C glyphshow
8.378906 0.000000 m /o glyphshow
15.720703 0.000000 m /M glyphshow
26.074219 0.000000 m /D glyphshow
grestore
0.800 setgray
gsave
563.8 618.8 52.49 55.91 clipbox
144.962951 55.905719 m
144.962951 674.705306 l
stroke
grestore
0.150 setgray
gsave
138.675410 14.025039 translate
60.000000 rotate
0.000000 0.000000 m /L glyphshow
6.685547 0.000000 m /a glyphshow
14.039062 0.000000 m /g glyphshow
21.656250 0.000000 m /h glyphshow
29.261719 0.000000 m /o glyphshow
grestore
0.800 setgray
gsave
563.8 618.8 52.49 55.91 clipbox
167.246192 55.905719 m
167.246192 674.705306 l
stroke
grestore
0.150 setgray
gsave
160.642245 12.928975 translate
60.000000 rotate
0.000000 0.000000 m /M glyphshow
10.353516 0.000000 m /A glyphshow
18.562500 0.000000 m /C glyphshow
26.941406 0.000000 m /S glyphshow
34.558594 0.000000 m /i glyphshow
grestore
0.800 setgray
gsave
563.8 618.8 52.49 55.91 clipbox
189.529433 55.905719 m
189.529433 674.705306 l
stroke
grestore
0.150 setgray
gsave
183.859079 16.163039 translate
60.000000 rotate
0.000000 0.000000 m /m glyphshow
11.689453 0.000000 m /i glyphshow
15.023438 0.000000 m /n glyphshow
22.628906 0.000000 m /i glyphshow
25.962891 0.000000 m /A glyphshow
grestore
0.800 setgray
gsave
563.8 618.8 52.49 55.91 clipbox
211.812674 55.905719 m
211.812674 674.705306 l
stroke
grestore
0.150 setgray
gsave
206.466539 17.286165 translate
60.000000 rotate
0.000000 0.000000 m /m glyphshow
11.689453 0.000000 m /i glyphshow
15.023438 0.000000 m /n glyphshow
22.628906 0.000000 m /i glyphshow
25.962891 0.000000 m /F glyphshow
grestore
0.800 setgray
gsave
563.8 618.8 52.49 55.91 clipbox
234.095915 55.905719 m
234.095915 674.705306 l
stroke
grestore
0.150 setgray
gsave
228.644312 16.920811 translate
60.000000 rotate
0.000000 0.000000 m /m glyphshow
11.689453 0.000000 m /i glyphshow
15.023438 0.000000 m /n glyphshow
22.628906 0.000000 m /i glyphshow
25.962891 0.000000 m /T glyphshow
grestore
0.800 setgray
gsave
563.8 618.8 52.49 55.91 clipbox
256.379156 55.905719 m
256.379156 674.705306 l
stroke
grestore
0.150 setgray
gsave
249.673647 12.577152 translate
60.000000 rotate
0.000000 0.000000 m /N glyphshow
8.976562 0.000000 m /e glyphshow
16.359375 0.000000 m /k glyphshow
23.308594 0.000000 m /b glyphshow
30.925781 0.000000 m /o glyphshow
grestore
0.800 setgray
gsave
563.8 618.8 52.49 55.91 clipbox
278.662397 55.905719 m
278.662397 674.705306 l
stroke
grestore
0.150 setgray
gsave
273.085794 16.487798 translate
60.000000 rotate
0.000000 0.000000 m /S glyphshow
7.617188 0.000000 m /W glyphshow
19.482422 0.000000 m /four glyphshow
27.117188 0.000000 m /l glyphshow
30.451172 0.000000 m /i glyphshow
grestore
0.800 setgray
gsave
563.8 618.8 52.49 55.91 clipbox
300.945638 55.905719 m
300.945638 674.705306 l
stroke
grestore
0.150 setgray
gsave
293.658097 10.560937 translate
60.000000 rotate
0.000000 0.000000 m /S glyphshow
7.617188 0.000000 m /W glyphshow
19.482422 0.000000 m /F glyphshow
26.384766 0.000000 m /F glyphshow
33.287109 0.000000 m /T glyphshow
grestore
0.800 setgray
gsave
563.8 618.8 52.49 55.91 clipbox
323.228879 55.905719 m
323.228879 674.705306 l
stroke
grestore
0.150 setgray
gsave
316.328057 11.900570 translate
60.000000 rotate
0.000000 0.000000 m /X glyphshow
8.220703 0.000000 m /S glyphshow
15.837891 0.000000 m /B glyphshow
24.070312 0.000000 m /e glyphshow
31.453125 0.000000 m /n glyphshow
grestore
0.800 setgray
gsave
563.8 618.8 52.49 55.91 clipbox
345.512121 55.905719 m
345.512121 674.705306 l
stroke
grestore
0.150 setgray
gsave
338.970673 13.145481 translate
60.000000 rotate
0.000000 0.000000 m /C glyphshow
8.378906 0.000000 m /C glyphshow
16.757812 0.000000 m /S glyphshow
24.375000 0.000000 m /space glyphshow
28.189453 0.000000 m /Q glyphshow
grestore
0.800 setgray
gsave
563.8 618.8 52.49 55.91 clipbox
367.795362 55.905719 m
367.795362 674.705306 l
stroke
grestore
0.150 setgray
gsave
361.984383 15.675899 translate
60.000000 rotate
0.000000 0.000000 m /F glyphshow
6.902344 0.000000 m /F glyphshow
13.804688 0.000000 m /V glyphshow
22.013672 0.000000 m /C glyphshow
30.392578 0.000000 m /hyphen glyphshow
grestore
0.800 setgray
gsave
563.8 618.8 52.49 55.91 clipbox
390.078603 55.905719 m
390.078603 674.705306 l
stroke
grestore
0.150 setgray
gsave
383.080124 11.562279 translate
60.000000 rotate
0.000000 0.000000 m /N glyphshow
8.976562 0.000000 m /I glyphshow
12.515625 0.000000 m /C glyphshow
20.894531 0.000000 m /A glyphshow
29.103516 0.000000 m /M glyphshow
grestore
0.800 setgray
gsave
563.8 618.8 52.49 55.91 clipbox
412.361844 55.905719 m
412.361844 674.705306 l
stroke
grestore
0.150 setgray
gsave
404.492272 8.544722 translate
60.000000 rotate
0.000000 0.000000 m /m glyphshow
11.689453 0.000000 m /V glyphshow
19.898438 0.000000 m /M glyphshow
30.251953 0.000000 m /C glyphshow
38.630859 0.000000 m /hyphen glyphshow
grestore
0.800 setgray
gsave
563.8 618.8 52.49 55.91 clipbox
434.645085 55.905719 m
434.645085 674.705306 l
stroke
grestore
0.150 setgray
gsave
428.033325 12.901912 translate
60.000000 rotate
0.000000 0.000000 m /N glyphshow
8.976562 0.000000 m /G glyphshow
18.275391 0.000000 m /S glyphshow
25.892578 0.000000 m /space glyphshow
29.707031 0.000000 m /A glyphshow
grestore
0.800 setgray
gsave
563.8 618.8 52.49 55.91 clipbox
456.928326 55.905719 m
456.928326 674.705306 l
stroke
grestore
0.150 setgray
gsave
449.031410 8.450000 translate
60.000000 rotate
0.000000 0.000000 m /M glyphshow
10.353516 0.000000 m /O glyphshow
19.798828 0.000000 m /D glyphshow
29.039062 0.000000 m /Y glyphshow
36.369141 0.000000 m /L glyphshow
grestore
0.800 setgray
gsave
563.8 618.8 52.49 55.91 clipbox
479.211567 55.905719 m
479.211567 674.705306 l
stroke
grestore
0.150 setgray
gsave
472.158401 11.372836 translate
60.000000 rotate
0.000000 0.000000 m /N glyphshow
8.976562 0.000000 m /T glyphshow
16.306641 0.000000 m /C glyphshow
24.685547 0.000000 m /h glyphshow
32.291016 0.000000 m /e glyphshow
grestore
0.800 setgray
gsave
563.8 618.8 52.49 55.91 clipbox
501.494808 55.905719 m
501.494808 674.705306 l
stroke
grestore
0.150 setgray
gsave
495.179924 13.930317 translate
60.000000 rotate
0.000000 0.000000 m /F glyphshow
6.902344 0.000000 m /F glyphshow
13.804688 0.000000 m /B glyphshow
22.037109 0.000000 m /hyphen glyphshow
26.367188 0.000000 m /M glyphshow
grestore
0.800 setgray
gsave
563.8 618.8 52.49 55.91 clipbox
523.778049 55.905719 m
523.778049 674.705306 l
stroke
grestore
0.150 setgray
gsave
520.908477 25.865230 translate
60.000000 rotate
0.000000 0.000000 m /H glyphshow
9.023438 0.000000 m /P glyphshow
16.259766 0.000000 m /L glyphshow
grestore
0.800 setgray
gsave
563.8 618.8 52.49 55.91 clipbox
546.061291 55.905719 m
546.061291 674.705306 l
stroke
grestore
0.150 setgray
gsave
540.445625 16.352482 translate
60.000000 rotate
0.000000 0.000000 m /H glyphshow
9.023438 0.000000 m /P glyphshow
16.259766 0.000000 m /C glyphshow
24.638672 0.000000 m /G glyphshow
grestore
0.800 setgray
gsave
563.8 618.8 52.49 55.91 clipbox
568.344532 55.905719 m
568.344532 674.705306 l
stroke
grestore
0.150 setgray
gsave
562.728866 16.352482 translate
60.000000 rotate
0.000000 0.000000 m /B glyphshow
8.232422 0.000000 m /a glyphshow
15.585938 0.000000 m /b glyphshow
23.203125 0.000000 m /e glyphshow
30.585938 0.000000 m /l glyphshow
grestore
0.800 setgray
gsave
563.8 618.8 52.49 55.91 clipbox
590.627773 55.905719 m
590.627773 674.705306 l
stroke
grestore
0.150 setgray
gsave
585.012107 16.352482 translate
60.000000 rotate
0.000000 0.000000 m /B glyphshow
8.232422 0.000000 m /a glyphshow
15.585938 0.000000 m /b glyphshow
23.203125 0.000000 m /e glyphshow
30.585938 0.000000 m /l glyphshow
grestore
0.800 setgray
gsave
563.8 618.8 52.49 55.91 clipbox
52.4875 55.905719 m
616.2535 55.905719 l
stroke
grestore
0.150 setgray
gsave
39.246875 51.343219 translate
0.000000 rotate
0.000000 0.000000 m /zero glyphshow
grestore
0.800 setgray
gsave
563.8 618.8 52.49 55.91 clipbox
52.4875 109.6287 m
616.2535 109.6287 l
stroke
grestore
0.150 setgray
gsave
31.606250 105.066200 translate
0.000000 rotate
0.000000 0.000000 m /four glyphshow
7.634766 0.000000 m /zero glyphshow
grestore
0.800 setgray
gsave
563.8 618.8 52.49 55.91 clipbox
52.4875 163.351681 m
616.2535 163.351681 l
stroke
grestore
0.150 setgray
gsave
31.606250 158.789181 translate
0.000000 rotate
0.000000 0.000000 m /eight glyphshow
7.634766 0.000000 m /zero glyphshow
grestore
0.800 setgray
gsave
563.8 618.8 52.49 55.91 clipbox
52.4875 217.074662 m
616.2535 217.074662 l
stroke
grestore
0.150 setgray
gsave
23.965625 212.512162 translate
0.000000 rotate
0.000000 0.000000 m /one glyphshow
7.634766 0.000000 m /two glyphshow
15.269531 0.000000 m /zero glyphshow
grestore
0.800 setgray
gsave
563.8 618.8 52.49 55.91 clipbox
52.4875 270.797643 m
616.2535 270.797643 l
stroke
grestore
0.150 setgray
gsave
23.965625 266.235143 translate
0.000000 rotate
0.000000 0.000000 m /one glyphshow
7.634766 0.000000 m /six glyphshow
15.269531 0.000000 m /zero glyphshow
grestore
0.800 setgray
gsave
563.8 618.8 52.49 55.91 clipbox
52.4875 324.520624 m
616.2535 324.520624 l
stroke
grestore
0.150 setgray
gsave
23.965625 319.958124 translate
0.000000 rotate
0.000000 0.000000 m /two glyphshow
7.634766 0.000000 m /zero glyphshow
15.269531 0.000000 m /zero glyphshow
grestore
0.800 setgray
gsave
563.8 618.8 52.49 55.91 clipbox
52.4875 378.243605 m
616.2535 378.243605 l
stroke
grestore
0.150 setgray
gsave
23.965625 373.681105 translate
0.000000 rotate
0.000000 0.000000 m /two glyphshow
7.634766 0.000000 m /four glyphshow
15.269531 0.000000 m /zero glyphshow
grestore
0.800 setgray
gsave
563.8 618.8 52.49 55.91 clipbox
52.4875 431.966586 m
616.2535 431.966586 l
stroke
grestore
0.150 setgray
gsave
23.965625 427.404086 translate
0.000000 rotate
0.000000 0.000000 m /two glyphshow
7.634766 0.000000 m /eight glyphshow
15.269531 0.000000 m /zero glyphshow
grestore
0.800 setgray
gsave
563.8 618.8 52.49 55.91 clipbox
52.4875 485.689566 m
616.2535 485.689566 l
stroke
grestore
0.150 setgray
gsave
23.965625 481.127066 translate
0.000000 rotate
0.000000 0.000000 m /three glyphshow
7.634766 0.000000 m /two glyphshow
15.269531 0.000000 m /zero glyphshow
grestore
0.800 setgray
gsave
563.8 618.8 52.49 55.91 clipbox
52.4875 539.412547 m
616.2535 539.412547 l
stroke
grestore
0.150 setgray
gsave
23.965625 534.850047 translate
0.000000 rotate
0.000000 0.000000 m /three glyphshow
7.634766 0.000000 m /six glyphshow
15.269531 0.000000 m /zero glyphshow
grestore
0.800 setgray
gsave
563.8 618.8 52.49 55.91 clipbox
52.4875 593.135528 m
616.2535 593.135528 l
stroke
grestore
0.150 setgray
gsave
23.965625 588.573028 translate
0.000000 rotate
0.000000 0.000000 m /four glyphshow
7.634766 0.000000 m /zero glyphshow
15.269531 0.000000 m /zero glyphshow
grestore
0.800 setgray
gsave
563.8 618.8 52.49 55.91 clipbox
52.4875 646.858509 m
616.2535 646.858509 l
stroke
grestore
0.150 setgray
gsave
23.965625 642.296009 translate
0.000000 rotate
0.000000 0.000000 m /four glyphshow
7.634766 0.000000 m /four glyphshow
15.269531 0.000000 m /zero glyphshow
grestore
/DejaVuSans findfont
13.200 scalefont
setfont
gsave
17.215625 337.196138 translate
90.000000 rotate
0.000000 0.000000 m /parenleft glyphshow
5.144928 0.000000 m /G glyphshow
15.363953 0.000000 m /B glyphshow
24.411041 0.000000 m /slash glyphshow
28.854095 0.000000 m /s glyphshow
35.724731 0.000000 m /e glyphshow
43.838135 0.000000 m /c glyphshow
51.088684 0.000000 m /parenright glyphshow
grestore
2.000 setlinewidth
[7.4 3.2] 0 setdash
0.769 0.306 0.322 setrgbcolor
gsave
563.8 618.8 52.49 55.91 clipbox
52.4875 219.102704 m
616.2535 219.102704 l
stroke
grestore
gsave
563.8 618.8 52.49 55.91 clipbox
/o {
gsave
newpath
translate
0 -7.5 m
1.989023 -7.5 3.896849 -6.709753 5.303301 -5.303301 c
6.709753 -3.896849 7.5 -1.989023 7.5 0 c
7.5 1.989023 6.709753 3.896849 5.303301 5.303301 c
3.896849 6.709753 1.989023 7.5 0 7.5 c
-1.989023 7.5 -3.896849 6.709753 -5.303301 5.303301 c
-6.709753 3.896849 -7.5 1.989023 -7.5 0 c
-7.5 -1.989023 -6.709753 -3.896849 -5.303301 -5.303301 c
-3.896849 -6.709753 -1.989023 -7.5 0 -7.5 c
cl

0.769 0.306 0.322 setrgbcolor
fill
grestore
} bind def
78.1132 222.03 o
100.396 146.533 o
122.68 76.8574 o
144.963 58.0403 o
167.246 56.3309 o
189.529 161.159 o
211.813 219.107 o
234.096 59.2581 o
256.379 193.272 o
278.662 115.228 o
300.946 131.095 o
323.229 141.833 o
345.512 205.659 o
367.795 72.5531 o
390.079 140.452 o
412.362 96.6795 o
434.645 64.8466 o
456.928 60.593 o
479.212 79.4346 o
501.495 80.0289 o
523.778 116.438 o
546.061 219.881 o
568.345 217.267 o
590.628 217.368 o
grestore
0.298 0.447 0.690 setrgbcolor
gsave
563.8 618.8 52.49 55.91 clipbox
52.4875 645.258908 m
616.2535 645.258908 l
stroke
grestore
gsave
563.8 618.8 52.49 55.91 clipbox
/o {
gsave
newpath
translate
0 -7.5 m
1.989023 -7.5 3.896849 -6.709753 5.303301 -5.303301 c
6.709753 -3.896849 7.5 -1.989023 7.5 0 c
7.5 1.989023 6.709753 3.896849 5.303301 5.303301 c
3.896849 6.709753 1.989023 7.5 0 7.5 c
-1.989023 7.5 -3.896849 6.709753 -5.303301 5.303301 c
-6.709753 3.896849 -7.5 1.989023 -7.5 0 c
-7.5 -1.989023 -6.709753 -3.896849 -5.303301 -5.303301 c
-3.896849 -6.709753 -1.989023 -7.5 0 -7.5 c
cl

0.298 0.447 0.690 setrgbcolor
fill
grestore
} bind def
78.1132 417.176 o
100.396 155.242 o
122.68 91.2292 o
144.963 57.8455 o
167.246 56.7766 o
189.529 316.075 o
211.813 454.682 o
234.096 86.6542 o
256.379 434.879 o
278.662 212.636 o
300.946 204.34 o
323.229 284.087 o
345.512 299.075 o
367.795 182.323 o
390.079 158.95 o
412.362 117.05 o
434.645 59.6137 o
456.928 93.8171 o
479.212 105.394 o
501.495 202.434 o
523.778 277.427 o
546.061 384.405 o
568.345 563.755 o
590.628 306.01 o
grestore
0.333 0.659 0.408 setrgbcolor
gsave
563.8 618.8 52.49 55.91 clipbox
52.4875 633.208843 m
616.2535 633.208843 l
stroke
grestore
gsave
563.8 618.8 52.49 55.91 clipbox
/o {
gsave
newpath
translate
0 -7.5 m
1.989023 -7.5 3.896849 -6.709753 5.303301 -5.303301 c
6.709753 -3.896849 7.5 -1.989023 7.5 0 c
7.5 1.989023 6.709753 3.896849 5.303301 5.303301 c
3.896849 6.709753 1.989023 7.5 0 7.5 c
-1.989023 7.5 -3.896849 6.709753 -5.303301 5.303301 c
-6.709753 3.896849 -7.5 1.989023 -7.5 0 c
-7.5 -1.989023 -6.709753 -3.896849 -5.303301 -5.303301 c
-3.896849 -6.709753 -1.989023 -7.5 0 -7.5 c
cl

0.333 0.659 0.408 setrgbcolor
fill
grestore
} bind def
78.1132 405.112 o
100.396 181.644 o
122.68 96.0945 o
144.963 57.9373 o
167.246 56.7132 o
189.529 332.581 o
211.813 474.284 o
234.096 82.9684 o
256.379 474.228 o
278.662 212.777 o
300.946 211.43 o
323.229 331.638 o
345.512 301.801 o
367.795 198.687 o
390.079 169.059 o
412.362 138.429 o
434.645 59.5564 o
456.928 95.1456 o
479.212 142.383 o
501.495 212.89 o
523.778 282.042 o
546.061 394.746 o
568.345 486.5 o
590.628 317.351 o
grestore
1.000 setlinewidth
0 setlinejoin
2 setlinecap
[] 0 setdash
0.800 setgray
gsave
52.4875 55.905719 m
52.4875 674.705306 l
stroke
grestore
gsave
616.2535 55.905719 m
616.2535 674.705306 l
stroke
grestore
gsave
52.4875 55.905719 m
616.2535 55.905719 l
stroke
grestore
gsave
52.4875 674.705306 m
616.2535 674.705306 l
stroke
grestore
0.150 setgray
/DejaVuSans-Bold findfont
20.000 scalefont
setfont
gsave
219.237688 680.705306 translate
0.000000 rotate
0.000000 0.000000 m /M glyphshow
19.902344 0.000000 m /e glyphshow
33.466797 0.000000 m /m glyphshow
54.306641 0.000000 m /o glyphshow
68.046875 0.000000 m /r glyphshow
77.910156 0.000000 m /y glyphshow
90.947266 0.000000 m /space glyphshow
97.910156 0.000000 m /T glyphshow
111.552734 0.000000 m /h glyphshow
125.791016 0.000000 m /r glyphshow
135.654297 0.000000 m /o glyphshow
149.394531 0.000000 m /u glyphshow
163.632812 0.000000 m /g glyphshow
177.949219 0.000000 m /h glyphshow
192.187500 0.000000 m /p glyphshow
206.503906 0.000000 m /u glyphshow
220.742188 0.000000 m /t glyphshow
grestore
gsave
/o {
gsave
newpath
translate
0 -7.5 m
1.989023 -7.5 3.896849 -6.709753 5.303301 -5.303301 c
6.709753 -3.896849 7.5 -1.989023 7.5 0 c
7.5 1.989023 6.709753 3.896849 5.303301 5.303301 c
3.896849 6.709753 1.989023 7.5 0 7.5 c
-1.989023 7.5 -3.896849 6.709753 -5.303301 5.303301 c
-6.709753 3.896849 -7.5 1.989023 -7.5 0 c
-7.5 -1.989023 -6.709753 -3.896849 -5.303301 -5.303301 c
-3.896849 -6.709753 -1.989023 -7.5 0 -7.5 c
cl

0.769 0.306 0.322 setrgbcolor
fill
grestore
} bind def
639.053 383.818 o
grestore
/DejaVuSans findfont
12.000 scalefont
setfont
gsave
660.653500 379.618013 translate
0.000000 rotate
0.000000 0.000000 m /X glyphshow
8.220703 0.000000 m /e glyphshow
15.603516 0.000000 m /o glyphshow
22.945312 0.000000 m /n glyphshow
grestore
gsave
/o {
gsave
newpath
translate
0 -7.5 m
1.989023 -7.5 3.896849 -6.709753 5.303301 -5.303301 c
6.709753 -3.896849 7.5 -1.989023 7.5 0 c
7.5 1.989023 6.709753 3.896849 5.303301 5.303301 c
3.896849 6.709753 1.989023 7.5 0 7.5 c
-1.989023 7.5 -3.896849 6.709753 -5.303301 5.303301 c
-6.709753 3.896849 -7.5 1.989023 -7.5 0 c
-7.5 -1.989023 -6.709753 -3.896849 -5.303301 -5.303301 c
-3.896849 -6.709753 -1.989023 -7.5 0 -7.5 c
cl

0.298 0.447 0.690 setrgbcolor
fill
grestore
} bind def
639.053 366.193 o
grestore
gsave
660.653500 361.993013 translate
0.000000 rotate
0.000000 0.000000 m /K glyphshow
7.869141 0.000000 m /N glyphshow
16.845703 0.000000 m /L glyphshow
grestore
gsave
/o {
gsave
newpath
translate
0 -7.5 m
1.989023 -7.5 3.896849 -6.709753 5.303301 -5.303301 c
6.709753 -3.896849 7.5 -1.989023 7.5 0 c
7.5 1.989023 6.709753 3.896849 5.303301 5.303301 c
3.896849 6.709753 1.989023 7.5 0 7.5 c
-1.989023 7.5 -3.896849 6.709753 -5.303301 5.303301 c
-6.709753 3.896849 -7.5 1.989023 -7.5 0 c
-7.5 -1.989023 -6.709753 -3.896849 -5.303301 -5.303301 c
-3.896849 -6.709753 -1.989023 -7.5 0 -7.5 c
cl

0.333 0.659 0.408 setrgbcolor
fill
grestore
} bind def
639.053 348.568 o
grestore
gsave
660.653500 344.368013 translate
0.000000 rotate
0.000000 0.000000 m /K glyphshow
7.869141 0.000000 m /N glyphshow
16.845703 0.000000 m /M glyphshow
grestore

end
showpage
