%!PS-Adobe-3.0 EPSF-3.0
%%Title: flops_per_core.eps
%%Creator: matplotlib version 2.2.3, http://matplotlib.org/
%%CreationDate: Sat Oct  6 18:31:17 2018
%%Orientation: portrait
%%BoundingBox: -45 44 657 747
%%EndComments
%%BeginProlog
/mpldict 9 dict def
mpldict begin
/m { moveto } bind def
/l { lineto } bind def
/r { rlineto } bind def
/c { curveto } bind def
/cl { closepath } bind def
/box {
m
1 index 0 r
0 exch r
neg 0 r
cl
} bind def
/clipbox {
box
clip
newpath
} bind def
%!PS-Adobe-3.0 Resource-Font
%%Title: DejaVu Sans
%%Copyright: Copyright (c) 2003 by Bitstream, Inc. All Rights Reserved. Copyright (c) 2006 by Tavmjong Bah. All Rights Reserved. DejaVu changes are in public domain 
%%Creator: Converted from TrueType to type 3 by PPR
25 dict begin
/_d{bind def}bind def
/_m{moveto}_d
/_l{lineto}_d
/_cl{closepath eofill}_d
/_c{curveto}_d
/_sc{7 -1 roll{setcachedevice}{pop pop pop pop pop pop}ifelse}_d
/_e{exec}_d
/FontName /DejaVuSans def
/PaintType 0 def
/FontMatrix[.001 0 0 .001 0 0]def
/FontBBox[-1021 -463 1793 1232]def
/FontType 3 def
/Encoding [ /space /hyphen /period /slash /zero /one /two /four /five /seven /A /B /C /D /E /F /G /H /I /K /L /M /N /O /P /Q /S /T /V /W /X /Y /a /b /e /f /g /h /i /k /l /m /n /o /p /s ] def
/FontInfo 10 dict dup begin
/FamilyName (DejaVu Sans) def
/FullName (DejaVu Sans) def
/Notice (Copyright (c) 2003 by Bitstream, Inc. All Rights Reserved. Copyright (c) 2006 by Tavmjong Bah. All Rights Reserved. DejaVu changes are in public domain ) def
/Weight (Book) def
/Version (Version 2.35) def
/ItalicAngle 0.0 def
/isFixedPitch false def
/UnderlinePosition -130 def
/UnderlineThickness 90 def
end readonly def
/CharStrings 47 dict dup begin
/.notdef 0 def
/space{318 0 0 0 0 0 _sc
}_d
/hyphen{361 0 49 234 312 314 _sc
49 314 _m
312 314 _l
312 234 _l
49 234 _l
49 314 _l
_cl}_d
/period{318 0 107 0 210 124 _sc
107 124 _m
210 124 _l
210 0 _l
107 0 _l
107 124 _l
_cl}_d
/slash{337 0 0 -92 337 729 _sc
254 729 _m
337 729 _l
83 -92 _l
0 -92 _l
254 729 _l
_cl}_d
/zero{636 0 66 -13 570 742 _sc
318 664 _m
267 664 229 639 203 589 _c
177 539 165 464 165 364 _c
165 264 177 189 203 139 _c
229 89 267 64 318 64 _c
369 64 407 89 433 139 _c
458 189 471 264 471 364 _c
471 464 458 539 433 589 _c
407 639 369 664 318 664 _c
318 742 _m
399 742 461 709 505 645 _c
548 580 570 486 570 364 _c
570 241 548 147 505 83 _c
461 19 399 -13 318 -13 _c
236 -13 173 19 130 83 _c
87 147 66 241 66 364 _c
66 486 87 580 130 645 _c
173 709 236 742 318 742 _c
_cl}_d
/one{636 0 110 0 544 729 _sc
124 83 _m
285 83 _l
285 639 _l
110 604 _l
110 694 _l
284 729 _l
383 729 _l
383 83 _l
544 83 _l
544 0 _l
124 0 _l
124 83 _l
_cl}_d
/two{{636 0 73 0 536 742 _sc
192 83 _m
536 83 _l
536 0 _l
73 0 _l
73 83 _l
110 121 161 173 226 239 _c
290 304 331 346 348 365 _c
380 400 402 430 414 455 _c
426 479 433 504 433 528 _c
433 566 419 598 392 622 _c
365 646 330 659 286 659 _c
255 659 222 653 188 643 _c
154 632 117 616 78 594 _c
78 694 _l
118 710 155 722 189 730 _c
223 738 255 742 284 742 _c
}_e{359 742 419 723 464 685 _c
509 647 532 597 532 534 _c
532 504 526 475 515 449 _c
504 422 484 390 454 354 _c
446 344 420 317 376 272 _c
332 227 271 164 192 83 _c
_cl}_e}_d
/four{636 0 49 0 580 729 _sc
378 643 _m
129 254 _l
378 254 _l
378 643 _l
352 729 _m
476 729 _l
476 254 _l
580 254 _l
580 172 _l
476 172 _l
476 0 _l
378 0 _l
378 172 _l
49 172 _l
49 267 _l
352 729 _l
_cl}_d
/five{{636 0 77 -13 549 729 _sc
108 729 _m
495 729 _l
495 646 _l
198 646 _l
198 467 _l
212 472 227 476 241 478 _c
255 480 270 482 284 482 _c
365 482 429 459 477 415 _c
525 370 549 310 549 234 _c
549 155 524 94 475 51 _c
426 8 357 -13 269 -13 _c
238 -13 207 -10 175 -6 _c
143 -1 111 6 77 17 _c
77 116 _l
106 100 136 88 168 80 _c
199 72 232 69 267 69 _c
}_e{323 69 368 83 401 113 _c
433 143 450 183 450 234 _c
450 284 433 324 401 354 _c
368 384 323 399 267 399 _c
241 399 214 396 188 390 _c
162 384 135 375 108 363 _c
108 729 _l
_cl}_e}_d
/seven{636 0 82 0 551 729 _sc
82 729 _m
551 729 _l
551 687 _l
286 0 _l
183 0 _l
432 646 _l
82 646 _l
82 729 _l
_cl}_d
/A{684 0 8 0 676 729 _sc
342 632 _m
208 269 _l
476 269 _l
342 632 _l
286 729 _m
398 729 _l
676 0 _l
573 0 _l
507 187 _l
178 187 _l
112 0 _l
8 0 _l
286 729 _l
_cl}_d
/B{{686 0 98 0 615 729 _sc
197 348 _m
197 81 _l
355 81 _l
408 81 447 92 473 114 _c
498 136 511 169 511 215 _c
511 260 498 293 473 315 _c
447 337 408 348 355 348 _c
197 348 _l
197 648 _m
197 428 _l
343 428 _l
391 428 426 437 450 455 _c
474 473 486 500 486 538 _c
486 574 474 602 450 620 _c
426 638 391 648 343 648 _c
197 648 _l
98 729 _m
350 729 _l
}_e{425 729 483 713 524 682 _c
564 650 585 606 585 549 _c
585 504 574 468 553 442 _c
532 416 502 399 462 393 _c
510 382 548 360 575 327 _c
601 294 615 253 615 204 _c
615 138 592 88 548 53 _c
504 17 441 0 360 0 _c
98 0 _l
98 729 _l
_cl}_e}_d
/C{{698 0 56 -13 644 742 _sc
644 673 _m
644 569 _l
610 599 575 622 537 638 _c
499 653 460 661 418 661 _c
334 661 270 635 226 584 _c
182 533 160 460 160 364 _c
160 268 182 194 226 143 _c
270 92 334 67 418 67 _c
460 67 499 74 537 90 _c
575 105 610 128 644 159 _c
644 56 _l
609 32 572 15 534 4 _c
496 -7 455 -13 412 -13 _c
302 -13 215 20 151 87 _c
}_e{87 154 56 246 56 364 _c
56 481 87 573 151 641 _c
215 708 302 742 412 742 _c
456 742 497 736 535 725 _c
573 713 610 696 644 673 _c
_cl}_e}_d
/D{770 0 98 0 711 729 _sc
197 648 _m
197 81 _l
316 81 _l
416 81 490 103 537 149 _c
583 195 607 267 607 365 _c
607 463 583 534 537 580 _c
490 625 416 648 316 648 _c
197 648 _l
98 729 _m
301 729 _l
442 729 546 699 612 641 _c
678 582 711 490 711 365 _c
711 239 677 147 611 88 _c
545 29 441 0 301 0 _c
98 0 _l
98 729 _l
_cl}_d
/E{632 0 98 0 568 729 _sc
98 729 _m
559 729 _l
559 646 _l
197 646 _l
197 430 _l
544 430 _l
544 347 _l
197 347 _l
197 83 _l
568 83 _l
568 0 _l
98 0 _l
98 729 _l
_cl}_d
/F{575 0 98 0 517 729 _sc
98 729 _m
517 729 _l
517 646 _l
197 646 _l
197 431 _l
486 431 _l
486 348 _l
197 348 _l
197 0 _l
98 0 _l
98 729 _l
_cl}_d
/G{{775 0 56 -13 693 742 _sc
595 104 _m
595 300 _l
434 300 _l
434 381 _l
693 381 _l
693 68 _l
655 40 613 20 567 7 _c
521 -6 472 -13 420 -13 _c
306 -13 216 20 152 86 _c
88 152 56 245 56 364 _c
56 482 88 575 152 642 _c
216 708 306 742 420 742 _c
467 742 512 736 555 724 _c
598 712 638 695 674 673 _c
674 568 _l
637 598 598 621 557 637 _c
516 653 473 661 428 661 _c
}_e{338 661 271 636 227 586 _c
182 536 160 462 160 364 _c
160 265 182 191 227 141 _c
271 91 338 67 428 67 _c
462 67 493 70 521 76 _c
549 82 573 91 595 104 _c
_cl}_e}_d
/H{752 0 98 0 654 729 _sc
98 729 _m
197 729 _l
197 430 _l
555 430 _l
555 729 _l
654 729 _l
654 0 _l
555 0 _l
555 347 _l
197 347 _l
197 0 _l
98 0 _l
98 729 _l
_cl}_d
/I{295 0 98 0 197 729 _sc
98 729 _m
197 729 _l
197 0 _l
98 0 _l
98 729 _l
_cl}_d
/K{656 0 98 0 677 729 _sc
98 729 _m
197 729 _l
197 421 _l
524 729 _l
651 729 _l
289 389 _l
677 0 _l
547 0 _l
197 351 _l
197 0 _l
98 0 _l
98 729 _l
_cl}_d
/L{557 0 98 0 552 729 _sc
98 729 _m
197 729 _l
197 83 _l
552 83 _l
552 0 _l
98 0 _l
98 729 _l
_cl}_d
/M{863 0 98 0 765 729 _sc
98 729 _m
245 729 _l
431 233 _l
618 729 _l
765 729 _l
765 0 _l
669 0 _l
669 640 _l
481 140 _l
382 140 _l
194 640 _l
194 0 _l
98 0 _l
98 729 _l
_cl}_d
/N{748 0 98 0 650 729 _sc
98 729 _m
231 729 _l
554 119 _l
554 729 _l
650 729 _l
650 0 _l
517 0 _l
194 610 _l
194 0 _l
98 0 _l
98 729 _l
_cl}_d
/O{787 0 56 -13 731 742 _sc
394 662 _m
322 662 265 635 223 582 _c
181 528 160 456 160 364 _c
160 272 181 199 223 146 _c
265 92 322 66 394 66 _c
465 66 522 92 564 146 _c
606 199 627 272 627 364 _c
627 456 606 528 564 582 _c
522 635 465 662 394 662 _c
394 742 _m
496 742 577 707 639 639 _c
700 571 731 479 731 364 _c
731 248 700 157 639 89 _c
577 21 496 -13 394 -13 _c
291 -13 209 21 148 89 _c
86 157 56 248 56 364 _c
56 479 86 571 148 639 _c
209 707 291 742 394 742 _c
_cl}_d
/P{603 0 98 0 569 729 _sc
197 648 _m
197 374 _l
321 374 _l
367 374 402 385 427 409 _c
452 433 465 467 465 511 _c
465 555 452 588 427 612 _c
402 636 367 648 321 648 _c
197 648 _l
98 729 _m
321 729 _l
402 729 464 710 506 673 _c
548 636 569 582 569 511 _c
569 439 548 384 506 348 _c
464 311 402 293 321 293 _c
197 293 _l
197 0 _l
98 0 _l
98 729 _l
_cl}_d
/Q{{787 0 56 -128 731 742 _sc
394 662 _m
322 662 265 635 223 582 _c
181 528 160 456 160 364 _c
160 272 181 199 223 146 _c
265 92 322 66 394 66 _c
465 66 522 92 564 146 _c
606 199 627 272 627 364 _c
627 456 606 528 564 582 _c
522 635 465 662 394 662 _c
532 13 _m
662 -128 _l
543 -128 _l
435 -11 _l
424 -11 416 -12 410 -12 _c
404 -12 399 -13 394 -13 _c
291 -13 209 21 148 89 _c
}_e{86 157 56 248 56 364 _c
56 479 86 571 148 639 _c
209 707 291 742 394 742 _c
496 742 577 707 639 639 _c
700 571 731 479 731 364 _c
731 279 714 206 680 146 _c
646 86 596 41 532 13 _c
_cl}_e}_d
/S{{635 0 66 -13 579 742 _sc
535 705 _m
535 609 _l
497 627 462 640 429 649 _c
395 657 363 662 333 662 _c
279 662 237 651 208 631 _c
179 610 165 580 165 542 _c
165 510 174 485 194 469 _c
213 452 250 439 304 429 _c
364 417 _l
437 403 491 378 526 343 _c
561 307 579 260 579 201 _c
579 130 555 77 508 41 _c
460 5 391 -13 300 -13 _c
265 -13 228 -9 189 -2 _c
}_e{150 5 110 16 69 32 _c
69 134 _l
109 111 148 94 186 83 _c
224 71 262 66 300 66 _c
356 66 399 77 430 99 _c
460 121 476 152 476 194 _c
476 230 465 258 443 278 _c
421 298 385 313 335 323 _c
275 335 _l
201 349 148 372 115 404 _c
82 435 66 478 66 534 _c
66 598 88 649 134 686 _c
179 723 242 742 322 742 _c
356 742 390 739 426 733 _c
461 727 497 717 535 705 _c
}_e{_cl}_e}_d
/T{611 0 -2 0 614 729 _sc
-2 729 _m
614 729 _l
614 646 _l
355 646 _l
355 0 _l
256 0 _l
256 646 _l
-2 646 _l
-2 729 _l
_cl}_d
/V{684 0 8 0 676 729 _sc
286 0 _m
8 729 _l
111 729 _l
342 115 _l
573 729 _l
676 729 _l
398 0 _l
286 0 _l
_cl}_d
/W{989 0 33 0 956 729 _sc
33 729 _m
133 729 _l
286 113 _l
439 729 _l
550 729 _l
703 113 _l
856 729 _l
956 729 _l
773 0 _l
649 0 _l
495 633 _l
340 0 _l
216 0 _l
33 729 _l
_cl}_d
/X{685 0 30 0 654 729 _sc
63 729 _m
169 729 _l
350 458 _l
532 729 _l
638 729 _l
404 379 _l
654 0 _l
548 0 _l
343 310 _l
136 0 _l
30 0 _l
290 389 _l
63 729 _l
_cl}_d
/Y{611 0 -1 0 613 729 _sc
-1 729 _m
104 729 _l
306 429 _l
507 729 _l
613 729 _l
355 347 _l
355 0 _l
256 0 _l
256 347 _l
-1 729 _l
_cl}_d
/a{{613 0 60 -13 522 560 _sc
343 275 _m
270 275 220 266 192 250 _c
164 233 150 205 150 165 _c
150 133 160 107 181 89 _c
202 70 231 61 267 61 _c
317 61 357 78 387 114 _c
417 149 432 196 432 255 _c
432 275 _l
343 275 _l
522 312 _m
522 0 _l
432 0 _l
432 83 _l
411 49 385 25 355 10 _c
325 -5 287 -13 243 -13 _c
187 -13 142 2 109 33 _c
76 64 60 106 60 159 _c
}_e{60 220 80 266 122 298 _c
163 329 224 345 306 345 _c
432 345 _l
432 354 _l
432 395 418 427 391 450 _c
364 472 326 484 277 484 _c
245 484 215 480 185 472 _c
155 464 127 453 100 439 _c
100 522 _l
132 534 164 544 195 550 _c
226 556 256 560 286 560 _c
365 560 424 539 463 498 _c
502 457 522 395 522 312 _c
_cl}_e}_d
/b{{635 0 91 -13 580 760 _sc
487 273 _m
487 339 473 390 446 428 _c
418 466 381 485 334 485 _c
286 485 249 466 222 428 _c
194 390 181 339 181 273 _c
181 207 194 155 222 117 _c
249 79 286 61 334 61 _c
381 61 418 79 446 117 _c
473 155 487 207 487 273 _c
181 464 _m
199 496 223 520 252 536 _c
281 552 316 560 356 560 _c
422 560 476 533 518 481 _c
559 428 580 359 580 273 _c
}_e{580 187 559 117 518 65 _c
476 13 422 -13 356 -13 _c
316 -13 281 -5 252 10 _c
223 25 199 49 181 82 _c
181 0 _l
91 0 _l
91 760 _l
181 760 _l
181 464 _l
_cl}_e}_d
/e{{615 0 55 -13 562 560 _sc
562 296 _m
562 252 _l
149 252 _l
153 190 171 142 205 110 _c
238 78 284 62 344 62 _c
378 62 412 66 444 74 _c
476 82 509 95 541 113 _c
541 28 _l
509 14 476 3 442 -3 _c
408 -9 373 -13 339 -13 _c
251 -13 182 12 131 62 _c
80 112 55 181 55 268 _c
55 357 79 428 127 481 _c
175 533 241 560 323 560 _c
397 560 455 536 498 489 _c
}_e{540 441 562 377 562 296 _c
472 322 _m
471 371 457 410 431 440 _c
404 469 368 484 324 484 _c
274 484 234 469 204 441 _c
174 413 156 373 152 322 _c
472 322 _l
_cl}_e}_d
/f{352 0 23 0 371 760 _sc
371 760 _m
371 685 _l
285 685 _l
253 685 230 678 218 665 _c
205 652 199 629 199 595 _c
199 547 _l
347 547 _l
347 477 _l
199 477 _l
199 0 _l
109 0 _l
109 477 _l
23 477 _l
23 547 _l
109 547 _l
109 585 _l
109 645 123 690 151 718 _c
179 746 224 760 286 760 _c
371 760 _l
_cl}_d
/g{{635 0 55 -207 544 560 _sc
454 280 _m
454 344 440 395 414 431 _c
387 467 349 485 301 485 _c
253 485 215 467 188 431 _c
161 395 148 344 148 280 _c
148 215 161 165 188 129 _c
215 93 253 75 301 75 _c
349 75 387 93 414 129 _c
440 165 454 215 454 280 _c
544 68 _m
544 -24 523 -93 482 -139 _c
440 -184 377 -207 292 -207 _c
260 -207 231 -204 203 -200 _c
175 -195 147 -188 121 -178 _c
}_e{121 -91 _l
147 -105 173 -115 199 -122 _c
225 -129 251 -133 278 -133 _c
336 -133 380 -117 410 -87 _c
439 -56 454 -10 454 52 _c
454 96 _l
435 64 411 40 382 24 _c
353 8 319 0 279 0 _c
211 0 157 25 116 76 _c
75 127 55 195 55 280 _c
55 364 75 432 116 483 _c
157 534 211 560 279 560 _c
319 560 353 552 382 536 _c
411 520 435 496 454 464 _c
454 547 _l
544 547 _l
}_e{544 68 _l
_cl}_e}_d
/h{634 0 91 0 549 760 _sc
549 330 _m
549 0 _l
459 0 _l
459 327 _l
459 379 448 417 428 443 _c
408 469 378 482 338 482 _c
289 482 251 466 223 435 _c
195 404 181 362 181 309 _c
181 0 _l
91 0 _l
91 760 _l
181 760 _l
181 462 _l
202 494 227 519 257 535 _c
286 551 320 560 358 560 _c
420 560 468 540 500 501 _c
532 462 549 405 549 330 _c
_cl}_d
/i{278 0 94 0 184 760 _sc
94 547 _m
184 547 _l
184 0 _l
94 0 _l
94 547 _l
94 760 _m
184 760 _l
184 646 _l
94 646 _l
94 760 _l
_cl}_d
/k{579 0 91 0 576 760 _sc
91 760 _m
181 760 _l
181 311 _l
449 547 _l
564 547 _l
274 291 _l
576 0 _l
459 0 _l
181 267 _l
181 0 _l
91 0 _l
91 760 _l
_cl}_d
/l{278 0 94 0 184 760 _sc
94 760 _m
184 760 _l
184 0 _l
94 0 _l
94 760 _l
_cl}_d
/m{{974 0 91 0 889 560 _sc
520 442 _m
542 482 569 511 600 531 _c
631 550 668 560 711 560 _c
767 560 811 540 842 500 _c
873 460 889 403 889 330 _c
889 0 _l
799 0 _l
799 327 _l
799 379 789 418 771 444 _c
752 469 724 482 686 482 _c
639 482 602 466 575 435 _c
548 404 535 362 535 309 _c
535 0 _l
445 0 _l
445 327 _l
445 379 435 418 417 444 _c
398 469 369 482 331 482 _c
}_e{285 482 248 466 221 435 _c
194 404 181 362 181 309 _c
181 0 _l
91 0 _l
91 547 _l
181 547 _l
181 462 _l
201 495 226 520 255 536 _c
283 552 317 560 357 560 _c
397 560 430 550 458 530 _c
486 510 506 480 520 442 _c
_cl}_e}_d
/n{634 0 91 0 549 560 _sc
549 330 _m
549 0 _l
459 0 _l
459 327 _l
459 379 448 417 428 443 _c
408 469 378 482 338 482 _c
289 482 251 466 223 435 _c
195 404 181 362 181 309 _c
181 0 _l
91 0 _l
91 547 _l
181 547 _l
181 462 _l
202 494 227 519 257 535 _c
286 551 320 560 358 560 _c
420 560 468 540 500 501 _c
532 462 549 405 549 330 _c
_cl}_d
/o{612 0 55 -13 557 560 _sc
306 484 _m
258 484 220 465 192 427 _c
164 389 150 338 150 273 _c
150 207 163 156 191 118 _c
219 80 257 62 306 62 _c
354 62 392 80 420 118 _c
448 156 462 207 462 273 _c
462 337 448 389 420 427 _c
392 465 354 484 306 484 _c
306 560 _m
384 560 445 534 490 484 _c
534 433 557 363 557 273 _c
557 183 534 113 490 63 _c
445 12 384 -13 306 -13 _c
227 -13 165 12 121 63 _c
77 113 55 183 55 273 _c
55 363 77 433 121 484 _c
165 534 227 560 306 560 _c
_cl}_d
/p{{635 0 91 -207 580 560 _sc
181 82 _m
181 -207 _l
91 -207 _l
91 547 _l
181 547 _l
181 464 _l
199 496 223 520 252 536 _c
281 552 316 560 356 560 _c
422 560 476 533 518 481 _c
559 428 580 359 580 273 _c
580 187 559 117 518 65 _c
476 13 422 -13 356 -13 _c
316 -13 281 -5 252 10 _c
223 25 199 49 181 82 _c
487 273 _m
487 339 473 390 446 428 _c
418 466 381 485 334 485 _c
}_e{286 485 249 466 222 428 _c
194 390 181 339 181 273 _c
181 207 194 155 222 117 _c
249 79 286 61 334 61 _c
381 61 418 79 446 117 _c
473 155 487 207 487 273 _c
_cl}_e}_d
/s{{521 0 54 -13 472 560 _sc
443 531 _m
443 446 _l
417 458 391 468 364 475 _c
336 481 308 485 279 485 _c
234 485 200 478 178 464 _c
156 450 145 430 145 403 _c
145 382 153 366 169 354 _c
185 342 217 330 265 320 _c
296 313 _l
360 299 405 279 432 255 _c
458 230 472 195 472 151 _c
472 100 452 60 412 31 _c
372 1 316 -13 246 -13 _c
216 -13 186 -10 154 -5 _c
}_e{122 0 89 8 54 20 _c
54 113 _l
87 95 120 82 152 74 _c
184 65 216 61 248 61 _c
290 61 323 68 346 82 _c
368 96 380 117 380 144 _c
380 168 371 187 355 200 _c
339 213 303 226 247 238 _c
216 245 _l
160 257 119 275 95 299 _c
70 323 58 356 58 399 _c
58 450 76 490 112 518 _c
148 546 200 560 268 560 _c
301 560 332 557 362 552 _c
391 547 418 540 443 531 _c
}_e{_cl}_e}_d
end readonly def

/BuildGlyph
 {exch begin
 CharStrings exch
 2 copy known not{pop /.notdef}if
 true 3 1 roll get exec
 end}_d

/BuildChar {
 1 index /Encoding get exch get
 1 index /BuildGlyph get exec
}_d

FontName currentdict end definefont pop
%!PS-Adobe-3.0 Resource-Font
%%Title: DejaVu Sans Bold
%%Copyright: Copyright (c) 2003 by Bitstream, Inc. All Rights Reserved. Copyright (c) 2006 by Tavmjong Bah. All Rights Reserved. DejaVu changes are in public domain 
%%Creator: Converted from TrueType to type 3 by PPR
25 dict begin
/_d{bind def}bind def
/_m{moveto}_d
/_l{lineto}_d
/_cl{closepath eofill}_d
/_c{curveto}_d
/_sc{7 -1 roll{setcachedevice}{pop pop pop pop pop pop}ifelse}_d
/_e{exec}_d
/FontName /DejaVuSans-Bold def
/PaintType 0 def
/FontMatrix[.001 0 0 .001 0 0]def
/FontBBox[-1069 -415 1975 1174]def
/FontType 3 def
/Encoding [ /space /parenleft /parenright /plus /slash /D /F /O /P /S /a /c /e /g /i /l /n /o /p /r /s /t ] def
/FontInfo 10 dict dup begin
/FamilyName (DejaVu Sans) def
/FullName (DejaVu Sans Bold) def
/Notice (Copyright (c) 2003 by Bitstream, Inc. All Rights Reserved. Copyright (c) 2006 by Tavmjong Bah. All Rights Reserved. DejaVu changes are in public domain ) def
/Weight (Bold) def
/Version (Version 2.35) def
/ItalicAngle 0.0 def
/isFixedPitch false def
/UnderlinePosition -130 def
/UnderlineThickness 90 def
end readonly def
/CharStrings 23 dict dup begin
/.notdef 0 def
/space{348 0 0 0 0 0 _sc
}_d
/parenleft{457 0 86 -131 377 759 _sc
377 -131 _m
232 -131 _l
182 -50 145 26 121 98 _c
97 170 86 241 86 313 _c
86 384 98 456 122 529 _c
146 602 182 679 232 759 _c
377 759 _l
335 681 303 606 283 532 _c
262 458 252 386 252 314 _c
252 242 262 169 283 95 _c
303 21 335 -53 377 -131 _c
_cl}_d
/parenright{457 0 80 -131 371 759 _sc
80 -131 _m
122 -53 153 21 174 95 _c
194 169 205 242 205 314 _c
205 386 194 458 174 532 _c
153 606 122 681 80 759 _c
225 759 _l
274 679 311 602 335 529 _c
359 456 371 384 371 313 _c
371 241 359 170 335 98 _c
311 26 275 -50 225 -131 _c
80 -131 _l
_cl}_d
/plus{838 0 106 0 732 627 _sc
477 627 _m
477 371 _l
732 371 _l
732 256 _l
477 256 _l
477 0 _l
361 0 _l
361 256 _l
106 256 _l
106 371 _l
361 371 _l
361 627 _l
477 627 _l
_cl}_d
/slash{365 0 0 -92 365 729 _sc
257 729 _m
365 729 _l
108 -92 _l
0 -92 _l
257 729 _l
_cl}_d
/D{830 0 92 0 778 729 _sc
280 587 _m
280 142 _l
347 142 _l
423 142 482 161 523 199 _c
563 237 584 292 584 365 _c
584 437 563 492 523 530 _c
483 568 424 587 347 587 _c
280 587 _l
92 729 _m
290 729 _l
400 729 483 721 537 705 _c
591 689 638 663 677 625 _c
711 592 736 554 753 511 _c
769 468 778 419 778 365 _c
778 310 769 261 753 218 _c
736 174 711 136 677 104 _c
637 66 590 39 536 23 _c
481 7 399 0 290 0 _c
92 0 _l
92 729 _l
_cl}_d
/F{683 0 92 0 599 729 _sc
92 729 _m
599 729 _l
599 587 _l
280 587 _l
280 451 _l
580 451 _l
580 309 _l
280 309 _l
280 0 _l
92 0 _l
92 729 _l
_cl}_d
/O{850 0 50 -13 800 742 _sc
425 606 _m
367 606 323 584 291 542 _c
259 500 244 440 244 364 _c
244 287 259 227 291 185 _c
323 143 367 122 425 122 _c
482 122 526 143 558 185 _c
590 227 606 287 606 364 _c
606 440 590 500 558 542 _c
526 584 482 606 425 606 _c
425 742 _m
542 742 634 708 700 641 _c
766 574 800 482 800 364 _c
800 246 766 153 700 87 _c
634 20 542 -13 425 -13 _c
308 -13 216 20 150 87 _c
83 153 50 246 50 364 _c
50 482 83 574 150 641 _c
216 708 308 742 425 742 _c
_cl}_d
/P{733 0 92 0 692 729 _sc
92 729 _m
404 729 _l
496 729 567 708 617 667 _c
667 625 692 567 692 491 _c
692 414 667 355 617 314 _c
567 273 496 253 404 253 _c
280 253 _l
280 0 _l
92 0 _l
92 729 _l
280 593 _m
280 389 _l
384 389 _l
420 389 448 397 468 415 _c
488 433 498 458 498 491 _c
498 523 488 548 468 566 _c
448 584 420 593 384 593 _c
280 593 _l
_cl}_d
/S{{720 0 72 -13 647 742 _sc
599 706 _m
599 552 _l
559 570 520 583 482 592 _c
444 601 408 606 374 606 _c
329 606 296 599 274 587 _c
252 575 242 556 242 530 _c
242 510 249 494 264 484 _c
278 473 305 464 343 456 _c
423 440 _l
503 424 561 399 595 366 _c
629 332 647 285 647 224 _c
647 144 623 84 575 45 _c
527 6 455 -13 357 -13 _c
311 -13 264 -8 218 0 _c
}_e{171 8 124 20 78 38 _c
78 197 _l
124 172 169 153 213 141 _c
256 128 298 122 339 122 _c
379 122 411 128 433 142 _c
455 156 466 175 466 201 _c
466 223 458 241 443 253 _c
428 265 399 277 355 287 _c
282 303 _l
209 319 156 344 122 378 _c
88 412 72 458 72 516 _c
72 588 95 644 142 683 _c
188 722 256 742 344 742 _c
384 742 425 739 467 733 _c
509 727 553 718 599 706 _c
}_e{_cl}_e}_d
/a{{675 0 43 -13 596 560 _sc
329 246 _m
292 246 264 239 246 227 _c
228 215 219 197 219 173 _c
219 151 226 133 241 121 _c
256 108 277 102 303 102 _c
336 102 364 113 386 137 _c
408 161 420 190 420 226 _c
420 246 _l
329 246 _l
596 312 _m
596 0 _l
420 0 _l
420 81 _l
396 47 370 23 341 9 _c
311 -5 276 -13 234 -13 _c
177 -13 131 3 96 36 _c
60 68 43 111 43 164 _c
}_e{43 228 65 275 109 305 _c
153 335 222 350 317 350 _c
420 350 _l
420 364 _l
420 391 409 411 387 424 _c
365 437 331 444 285 444 _c
247 444 212 440 180 432 _c
148 424 118 413 91 399 _c
91 532 _l
128 541 165 548 203 553 _c
241 557 279 560 317 560 _c
415 560 486 540 530 501 _c
574 462 596 399 596 312 _c
_cl}_e}_d
/c{{593 0 43 -13 526 560 _sc
526 530 _m
526 387 _l
502 403 478 415 454 423 _c
430 431 405 435 380 435 _c
331 435 293 420 266 392 _c
238 364 225 324 225 273 _c
225 221 238 181 266 153 _c
293 125 331 111 380 111 _c
407 111 433 115 458 123 _c
482 131 505 143 526 159 _c
526 16 _l
498 6 470 -1 442 -6 _c
414 -10 386 -13 358 -13 _c
259 -13 182 12 126 62 _c
}_e{70 112 43 183 43 273 _c
43 363 70 433 126 484 _c
182 534 259 560 358 560 _c
386 560 414 557 442 552 _c
470 547 498 540 526 530 _c
_cl}_e}_d
/e{{678 0 43 -13 630 560 _sc
630 275 _m
630 225 _l
221 225 _l
225 184 240 153 266 133 _c
291 112 326 102 372 102 _c
408 102 446 107 485 118 _c
523 129 563 146 604 168 _c
604 33 _l
562 17 521 6 480 -1 _c
438 -9 397 -13 356 -13 _c
257 -13 180 12 125 62 _c
70 112 43 182 43 273 _c
43 362 70 432 124 483 _c
178 534 252 560 346 560 _c
432 560 500 534 552 482 _c
}_e{604 430 630 361 630 275 _c
450 333 _m
450 366 440 393 421 413 _c
401 433 376 444 345 444 _c
311 444 283 434 262 415 _c
241 396 228 369 223 333 _c
450 333 _l
_cl}_e}_d
/g{{716 0 45 -215 632 559 _sc
456 93 _m
432 61 405 37 376 22 _c
347 7 314 0 276 0 _c
209 0 154 26 110 79 _c
66 131 45 198 45 280 _c
45 361 66 428 110 480 _c
154 532 209 559 276 559 _c
314 559 347 551 376 536 _c
405 521 432 498 456 466 _c
456 547 _l
632 547 _l
632 55 _l
632 -32 604 -99 548 -145 _c
492 -191 412 -215 307 -215 _c
273 -215 240 -212 208 -207 _c
}_e{176 -201 144 -193 112 -183 _c
112 -47 _l
142 -64 172 -77 202 -86 _c
231 -94 260 -99 290 -99 _c
347 -99 389 -86 416 -61 _c
442 -36 456 2 456 55 _c
456 93 _l
341 433 _m
305 433 276 419 256 393 _c
236 366 226 328 226 280 _c
226 230 235 192 255 166 _c
275 140 303 127 341 127 _c
377 127 406 140 426 167 _c
446 193 456 231 456 280 _c
456 328 446 366 426 393 _c
}_e{406 419 377 433 341 433 _c
_cl}_e}_d
/i{343 0 84 0 259 760 _sc
84 547 _m
259 547 _l
259 0 _l
84 0 _l
84 547 _l
84 760 _m
259 760 _l
259 617 _l
84 617 _l
84 760 _l
_cl}_d
/l{343 0 84 0 259 760 _sc
84 760 _m
259 760 _l
259 0 _l
84 0 _l
84 760 _l
_cl}_d
/n{712 0 84 0 634 560 _sc
634 333 _m
634 0 _l
458 0 _l
458 54 _l
458 255 _l
458 302 457 334 455 352 _c
453 370 449 383 444 392 _c
437 403 428 412 416 418 _c
404 424 390 428 376 428 _c
339 428 310 414 290 386 _c
269 358 259 319 259 269 _c
259 0 _l
84 0 _l
84 547 _l
259 547 _l
259 467 _l
285 499 312 522 342 537 _c
372 552 405 560 441 560 _c
504 560 552 540 585 502 _c
617 463 634 407 634 333 _c
_cl}_d
/o{687 0 43 -13 644 560 _sc
344 435 _m
305 435 275 421 255 393 _c
235 365 225 325 225 273 _c
225 220 235 180 255 152 _c
275 124 305 111 344 111 _c
382 111 411 124 431 152 _c
451 180 462 220 462 273 _c
462 325 451 365 431 393 _c
411 421 382 435 344 435 _c
344 560 _m
438 560 511 534 564 484 _c
617 433 644 363 644 273 _c
644 183 617 112 564 62 _c
511 12 438 -13 344 -13 _c
250 -13 176 12 123 62 _c
69 112 43 183 43 273 _c
43 363 69 433 123 484 _c
176 534 250 560 344 560 _c
_cl}_d
/p{{716 0 84 -207 671 560 _sc
259 79 _m
259 -207 _l
84 -207 _l
84 547 _l
259 547 _l
259 467 _l
283 499 309 522 339 537 _c
368 552 402 560 440 560 _c
507 560 562 533 606 479 _c
649 425 671 357 671 273 _c
671 188 649 119 606 66 _c
562 13 507 -13 440 -13 _c
402 -13 368 -5 339 9 _c
309 23 283 47 259 79 _c
375 433 _m
337 433 309 419 289 392 _c
269 364 259 325 259 273 _c
}_e{259 221 269 181 289 154 _c
309 126 337 113 375 113 _c
412 113 440 126 460 154 _c
480 181 490 221 490 273 _c
490 325 480 364 460 392 _c
440 419 412 433 375 433 _c
_cl}_e}_d
/r{493 0 84 0 490 560 _sc
490 398 _m
474 405 459 410 444 414 _c
429 417 414 419 399 419 _c
354 419 319 404 295 376 _c
271 347 259 306 259 252 _c
259 0 _l
84 0 _l
84 547 _l
259 547 _l
259 457 _l
281 493 306 519 336 535 _c
365 551 400 560 441 560 _c
447 560 453 559 460 559 _c
466 559 476 558 490 556 _c
490 398 _l
_cl}_d
/s{{595 0 52 -13 548 560 _sc
511 530 _m
511 397 _l
473 412 437 424 403 432 _c
368 440 335 444 304 444 _c
270 444 246 439 230 431 _c
214 423 206 410 206 393 _c
206 379 212 368 224 361 _c
236 353 258 348 290 344 _c
321 340 _l
410 328 470 310 501 284 _c
532 258 548 217 548 161 _c
548 103 526 59 483 30 _c
440 1 376 -13 291 -13 _c
255 -13 217 -10 179 -5 _c
}_e{140 0 100 8 60 20 _c
60 153 _l
94 135 130 122 167 114 _c
203 106 241 102 279 102 _c
313 102 338 106 356 116 _c
373 125 382 139 382 158 _c
382 174 376 185 364 193 _c
352 201 328 207 293 211 _c
262 215 _l
184 224 130 242 99 269 _c
67 295 52 335 52 389 _c
52 447 71 490 111 518 _c
151 546 212 560 294 560 _c
326 560 359 557 395 552 _c
431 547 469 540 511 530 _c
}_e{_cl}_e}_d
/t{478 0 13 0 455 702 _sc
275 702 _m
275 547 _l
455 547 _l
455 422 _l
275 422 _l
275 190 _l
275 164 280 147 290 138 _c
300 129 320 125 350 125 _c
440 125 _l
440 0 _l
290 0 _l
221 0 172 14 143 43 _c
114 71 100 120 100 190 _c
100 422 _l
13 422 _l
13 547 _l
100 547 _l
100 702 _l
275 702 _l
_cl}_d
end readonly def

/BuildGlyph
 {exch begin
 CharStrings exch
 2 copy known not{pop /.notdef}if
 true 3 1 roll get exec
 end}_d

/BuildChar {
 1 index /Encoding get exch get
 1 index /BuildGlyph get exec
}_d

FontName currentdict end definefont pop
end
%%EndProlog
mpldict begin
-45.615 44.446 translate
703.23 703.108 0 0 clipbox
gsave
0 0 m
703.230375 0 l
703.230375 703.108431 l
0 703.108431 l
cl
1.000 setgray
fill
grestore
gsave
56.3 55.905719 m
612.596 55.905719 l
612.596 674.705306 l
56.3 674.705306 l
cl
1.000 setgray
fill
grestore
0.800 setlinewidth
1 setlinejoin
0 setlinecap
[2.96 1.28] 0 setdash
0.800 setgray
gsave
556.3 618.8 56.3 55.91 clipbox
81.586182 55.905719 m
81.586182 674.705306 l
stroke
grestore
0.150 setgray
/DejaVuSans findfont
12.000 scalefont
setfont
gsave
77.490047 21.616292 translate
60.000000 rotate
0.000000 0.000000 m /A glyphshow
8.208984 0.000000 m /M glyphshow
18.562500 0.000000 m /G glyphshow
grestore
0.800 setgray
gsave
556.3 618.8 56.3 55.91 clipbox
103.574166 55.905719 m
103.574166 674.705306 l
stroke
grestore
0.150 setgray
gsave
96.071781 9.816696 translate
60.000000 rotate
0.000000 0.000000 m /C glyphshow
8.378906 0.000000 m /A glyphshow
16.587891 0.000000 m /N glyphshow
25.564453 0.000000 m /D glyphshow
34.804688 0.000000 m /L glyphshow
grestore
0.800 setgray
gsave
556.3 618.8 56.3 55.91 clipbox
125.56215 55.905719 m
125.56215 674.705306 l
stroke
grestore
0.150 setgray
gsave
119.602734 15.161697 translate
60.000000 rotate
0.000000 0.000000 m /C glyphshow
8.378906 0.000000 m /o glyphshow
15.720703 0.000000 m /M glyphshow
26.074219 0.000000 m /D glyphshow
grestore
0.800 setgray
gsave
556.3 618.8 56.3 55.91 clipbox
147.550134 55.905719 m
147.550134 674.705306 l
stroke
grestore
0.150 setgray
gsave
141.262594 14.025039 translate
60.000000 rotate
0.000000 0.000000 m /L glyphshow
6.685547 0.000000 m /a glyphshow
14.039062 0.000000 m /g glyphshow
21.656250 0.000000 m /h glyphshow
29.261719 0.000000 m /o glyphshow
grestore
0.800 setgray
gsave
556.3 618.8 56.3 55.91 clipbox
169.538119 55.905719 m
169.538119 674.705306 l
stroke
grestore
0.150 setgray
gsave
162.934171 12.928975 translate
60.000000 rotate
0.000000 0.000000 m /M glyphshow
10.353516 0.000000 m /A glyphshow
18.562500 0.000000 m /C glyphshow
26.941406 0.000000 m /S glyphshow
34.558594 0.000000 m /i glyphshow
grestore
0.800 setgray
gsave
556.3 618.8 56.3 55.91 clipbox
191.526103 55.905719 m
191.526103 674.705306 l
stroke
grestore
0.150 setgray
gsave
185.855749 16.163039 translate
60.000000 rotate
0.000000 0.000000 m /m glyphshow
11.689453 0.000000 m /i glyphshow
15.023438 0.000000 m /n glyphshow
22.628906 0.000000 m /i glyphshow
25.962891 0.000000 m /A glyphshow
grestore
0.800 setgray
gsave
556.3 618.8 56.3 55.91 clipbox
213.514087 55.905719 m
213.514087 674.705306 l
stroke
grestore
0.150 setgray
gsave
208.167952 17.286165 translate
60.000000 rotate
0.000000 0.000000 m /m glyphshow
11.689453 0.000000 m /i glyphshow
15.023438 0.000000 m /n glyphshow
22.628906 0.000000 m /i glyphshow
25.962891 0.000000 m /F glyphshow
grestore
0.800 setgray
gsave
556.3 618.8 56.3 55.91 clipbox
235.502071 55.905719 m
235.502071 674.705306 l
stroke
grestore
0.150 setgray
gsave
230.050468 16.920811 translate
60.000000 rotate
0.000000 0.000000 m /m glyphshow
11.689453 0.000000 m /i glyphshow
15.023438 0.000000 m /n glyphshow
22.628906 0.000000 m /i glyphshow
25.962891 0.000000 m /T glyphshow
grestore
0.800 setgray
gsave
556.3 618.8 56.3 55.91 clipbox
257.490055 55.905719 m
257.490055 674.705306 l
stroke
grestore
0.150 setgray
gsave
250.784546 12.577152 translate
60.000000 rotate
0.000000 0.000000 m /N glyphshow
8.976562 0.000000 m /e glyphshow
16.359375 0.000000 m /k glyphshow
23.308594 0.000000 m /b glyphshow
30.925781 0.000000 m /o glyphshow
grestore
0.800 setgray
gsave
556.3 618.8 56.3 55.91 clipbox
279.47804 55.905719 m
279.47804 674.705306 l
stroke
grestore
0.150 setgray
gsave
273.901436 16.487798 translate
60.000000 rotate
0.000000 0.000000 m /S glyphshow
7.617188 0.000000 m /W glyphshow
19.482422 0.000000 m /four glyphshow
27.117188 0.000000 m /l glyphshow
30.451172 0.000000 m /i glyphshow
grestore
0.800 setgray
gsave
556.3 618.8 56.3 55.91 clipbox
301.466024 55.905719 m
301.466024 674.705306 l
stroke
grestore
0.150 setgray
gsave
294.178483 10.560937 translate
60.000000 rotate
0.000000 0.000000 m /S glyphshow
7.617188 0.000000 m /W glyphshow
19.482422 0.000000 m /F glyphshow
26.384766 0.000000 m /F glyphshow
33.287109 0.000000 m /T glyphshow
grestore
0.800 setgray
gsave
556.3 618.8 56.3 55.91 clipbox
323.454008 55.905719 m
323.454008 674.705306 l
stroke
grestore
0.150 setgray
gsave
316.553186 11.900570 translate
60.000000 rotate
0.000000 0.000000 m /X glyphshow
8.220703 0.000000 m /S glyphshow
15.837891 0.000000 m /B glyphshow
24.070312 0.000000 m /e glyphshow
31.453125 0.000000 m /n glyphshow
grestore
0.800 setgray
gsave
556.3 618.8 56.3 55.91 clipbox
345.441992 55.905719 m
345.441992 674.705306 l
stroke
grestore
0.150 setgray
gsave
338.900545 13.145481 translate
60.000000 rotate
0.000000 0.000000 m /C glyphshow
8.378906 0.000000 m /C glyphshow
16.757812 0.000000 m /S glyphshow
24.375000 0.000000 m /space glyphshow
28.189453 0.000000 m /Q glyphshow
grestore
0.800 setgray
gsave
556.3 618.8 56.3 55.91 clipbox
367.429976 55.905719 m
367.429976 674.705306 l
stroke
grestore
0.150 setgray
gsave
361.618998 15.675899 translate
60.000000 rotate
0.000000 0.000000 m /F glyphshow
6.902344 0.000000 m /F glyphshow
13.804688 0.000000 m /V glyphshow
22.013672 0.000000 m /C glyphshow
30.392578 0.000000 m /hyphen glyphshow
grestore
0.800 setgray
gsave
556.3 618.8 56.3 55.91 clipbox
389.41796 55.905719 m
389.41796 674.705306 l
stroke
grestore
0.150 setgray
gsave
382.419482 11.562279 translate
60.000000 rotate
0.000000 0.000000 m /N glyphshow
8.976562 0.000000 m /I glyphshow
12.515625 0.000000 m /C glyphshow
20.894531 0.000000 m /A glyphshow
29.103516 0.000000 m /M glyphshow
grestore
0.800 setgray
gsave
556.3 618.8 56.3 55.91 clipbox
411.405945 55.905719 m
411.405945 674.705306 l
stroke
grestore
0.150 setgray
gsave
403.536373 8.544722 translate
60.000000 rotate
0.000000 0.000000 m /m glyphshow
11.689453 0.000000 m /V glyphshow
19.898438 0.000000 m /M glyphshow
30.251953 0.000000 m /C glyphshow
38.630859 0.000000 m /hyphen glyphshow
grestore
0.800 setgray
gsave
556.3 618.8 56.3 55.91 clipbox
433.393929 55.905719 m
433.393929 674.705306 l
stroke
grestore
0.150 setgray
gsave
426.782169 12.901912 translate
60.000000 rotate
0.000000 0.000000 m /N glyphshow
8.976562 0.000000 m /G glyphshow
18.275391 0.000000 m /S glyphshow
25.892578 0.000000 m /space glyphshow
29.707031 0.000000 m /A glyphshow
grestore
0.800 setgray
gsave
556.3 618.8 56.3 55.91 clipbox
455.381913 55.905719 m
455.381913 674.705306 l
stroke
grestore
0.150 setgray
gsave
447.484997 8.450000 translate
60.000000 rotate
0.000000 0.000000 m /M glyphshow
10.353516 0.000000 m /O glyphshow
19.798828 0.000000 m /D glyphshow
29.039062 0.000000 m /Y glyphshow
36.369141 0.000000 m /L glyphshow
grestore
0.800 setgray
gsave
556.3 618.8 56.3 55.91 clipbox
477.369897 55.905719 m
477.369897 674.705306 l
stroke
grestore
0.150 setgray
gsave
470.316731 11.372836 translate
60.000000 rotate
0.000000 0.000000 m /N glyphshow
8.976562 0.000000 m /T glyphshow
16.306641 0.000000 m /C glyphshow
24.685547 0.000000 m /h glyphshow
32.291016 0.000000 m /e glyphshow
grestore
0.800 setgray
gsave
556.3 618.8 56.3 55.91 clipbox
499.357881 55.905719 m
499.357881 674.705306 l
stroke
grestore
0.150 setgray
gsave
493.042997 13.930317 translate
60.000000 rotate
0.000000 0.000000 m /F glyphshow
6.902344 0.000000 m /F glyphshow
13.804688 0.000000 m /B glyphshow
22.037109 0.000000 m /hyphen glyphshow
26.367188 0.000000 m /M glyphshow
grestore
0.800 setgray
gsave
556.3 618.8 56.3 55.91 clipbox
521.345866 55.905719 m
521.345866 674.705306 l
stroke
grestore
0.150 setgray
gsave
518.476294 25.865230 translate
60.000000 rotate
0.000000 0.000000 m /H glyphshow
9.023438 0.000000 m /P glyphshow
16.259766 0.000000 m /L glyphshow
grestore
0.800 setgray
gsave
556.3 618.8 56.3 55.91 clipbox
543.33385 55.905719 m
543.33385 674.705306 l
stroke
grestore
0.150 setgray
gsave
537.718184 16.352482 translate
60.000000 rotate
0.000000 0.000000 m /H glyphshow
9.023438 0.000000 m /P glyphshow
16.259766 0.000000 m /C glyphshow
24.638672 0.000000 m /G glyphshow
grestore
0.800 setgray
gsave
556.3 618.8 56.3 55.91 clipbox
565.321834 55.905719 m
565.321834 674.705306 l
stroke
grestore
0.150 setgray
gsave
559.706168 16.352482 translate
60.000000 rotate
0.000000 0.000000 m /B glyphshow
8.232422 0.000000 m /a glyphshow
15.585938 0.000000 m /b glyphshow
23.203125 0.000000 m /e glyphshow
30.585938 0.000000 m /l glyphshow
grestore
0.800 setgray
gsave
556.3 618.8 56.3 55.91 clipbox
587.309818 55.905719 m
587.309818 674.705306 l
stroke
grestore
0.150 setgray
gsave
581.694152 16.352482 translate
60.000000 rotate
0.000000 0.000000 m /B glyphshow
8.232422 0.000000 m /a glyphshow
15.585938 0.000000 m /b glyphshow
23.203125 0.000000 m /e glyphshow
30.585938 0.000000 m /l glyphshow
grestore
0.800 setgray
gsave
556.3 618.8 56.3 55.91 clipbox
56.3 55.905719 m
612.596 55.905719 l
stroke
grestore
0.150 setgray
gsave
31.606250 51.343219 translate
0.000000 rotate
0.000000 0.000000 m /zero glyphshow
7.634766 0.000000 m /period glyphshow
11.449219 0.000000 m /zero glyphshow
grestore
0.800 setgray
gsave
556.3 618.8 56.3 55.91 clipbox
56.3 108.86149 m
612.596 108.86149 l
stroke
grestore
0.150 setgray
gsave
31.606250 104.298990 translate
0.000000 rotate
0.000000 0.000000 m /two glyphshow
7.634766 0.000000 m /period glyphshow
11.449219 0.000000 m /five glyphshow
grestore
0.800 setgray
gsave
556.3 618.8 56.3 55.91 clipbox
56.3 161.817261 m
612.596 161.817261 l
stroke
grestore
0.150 setgray
gsave
31.606250 157.254761 translate
0.000000 rotate
0.000000 0.000000 m /five glyphshow
7.634766 0.000000 m /period glyphshow
11.449219 0.000000 m /zero glyphshow
grestore
0.800 setgray
gsave
556.3 618.8 56.3 55.91 clipbox
56.3 214.773031 m
612.596 214.773031 l
stroke
grestore
0.150 setgray
gsave
31.606250 210.210531 translate
0.000000 rotate
0.000000 0.000000 m /seven glyphshow
7.634766 0.000000 m /period glyphshow
11.449219 0.000000 m /five glyphshow
grestore
0.800 setgray
gsave
556.3 618.8 56.3 55.91 clipbox
56.3 267.728802 m
612.596 267.728802 l
stroke
grestore
0.150 setgray
gsave
23.965625 263.166302 translate
0.000000 rotate
0.000000 0.000000 m /one glyphshow
7.634766 0.000000 m /zero glyphshow
15.269531 0.000000 m /period glyphshow
19.083984 0.000000 m /zero glyphshow
grestore
0.800 setgray
gsave
556.3 618.8 56.3 55.91 clipbox
56.3 320.684573 m
612.596 320.684573 l
stroke
grestore
0.150 setgray
gsave
23.965625 316.122073 translate
0.000000 rotate
0.000000 0.000000 m /one glyphshow
7.634766 0.000000 m /two glyphshow
15.269531 0.000000 m /period glyphshow
19.083984 0.000000 m /five glyphshow
grestore
0.800 setgray
gsave
556.3 618.8 56.3 55.91 clipbox
56.3 373.640344 m
612.596 373.640344 l
stroke
grestore
0.150 setgray
gsave
23.965625 369.077844 translate
0.000000 rotate
0.000000 0.000000 m /one glyphshow
7.634766 0.000000 m /five glyphshow
15.269531 0.000000 m /period glyphshow
19.083984 0.000000 m /zero glyphshow
grestore
0.800 setgray
gsave
556.3 618.8 56.3 55.91 clipbox
56.3 426.596115 m
612.596 426.596115 l
stroke
grestore
0.150 setgray
gsave
23.965625 422.033615 translate
0.000000 rotate
0.000000 0.000000 m /one glyphshow
7.634766 0.000000 m /seven glyphshow
15.269531 0.000000 m /period glyphshow
19.083984 0.000000 m /five glyphshow
grestore
0.800 setgray
gsave
556.3 618.8 56.3 55.91 clipbox
56.3 479.551886 m
612.596 479.551886 l
stroke
grestore
0.150 setgray
gsave
23.965625 474.989386 translate
0.000000 rotate
0.000000 0.000000 m /two glyphshow
7.634766 0.000000 m /zero glyphshow
15.269531 0.000000 m /period glyphshow
19.083984 0.000000 m /zero glyphshow
grestore
0.800 setgray
gsave
556.3 618.8 56.3 55.91 clipbox
56.3 532.507656 m
612.596 532.507656 l
stroke
grestore
0.150 setgray
gsave
23.965625 527.945156 translate
0.000000 rotate
0.000000 0.000000 m /two glyphshow
7.634766 0.000000 m /two glyphshow
15.269531 0.000000 m /period glyphshow
19.083984 0.000000 m /five glyphshow
grestore
0.800 setgray
gsave
556.3 618.8 56.3 55.91 clipbox
56.3 585.463427 m
612.596 585.463427 l
stroke
grestore
0.150 setgray
gsave
23.965625 580.900927 translate
0.000000 rotate
0.000000 0.000000 m /two glyphshow
7.634766 0.000000 m /five glyphshow
15.269531 0.000000 m /period glyphshow
19.083984 0.000000 m /zero glyphshow
grestore
0.800 setgray
gsave
556.3 618.8 56.3 55.91 clipbox
56.3 638.419198 m
612.596 638.419198 l
stroke
grestore
0.150 setgray
gsave
23.965625 633.856698 translate
0.000000 rotate
0.000000 0.000000 m /two glyphshow
7.634766 0.000000 m /seven glyphshow
15.269531 0.000000 m /period glyphshow
19.083984 0.000000 m /five glyphshow
grestore
/DejaVuSans findfont
13.200 scalefont
setfont
gsave
17.215625 338.727388 translate
90.000000 rotate
0.000000 0.000000 m /G glyphshow
10.219025 0.000000 m /f glyphshow
14.861694 0.000000 m /l glyphshow
18.525604 0.000000 m /o glyphshow
26.593933 0.000000 m /p glyphshow
34.964905 0.000000 m /s glyphshow
41.835541 0.000000 m /slash glyphshow
46.278595 0.000000 m /s glyphshow
grestore
gsave
556.3 618.8 56.3 55.91 clipbox
/o {
gsave
newpath
translate
0 -7.5 m
1.989023 -7.5 3.896849 -6.709753 5.303301 -5.303301 c
6.709753 -3.896849 7.5 -1.989023 7.5 0 c
7.5 1.989023 6.709753 3.896849 5.303301 5.303301 c
3.896849 6.709753 1.989023 7.5 0 7.5 c
-1.989023 7.5 -3.896849 6.709753 -5.303301 5.303301 c
-6.709753 3.896849 -7.5 1.989023 -7.5 0 c
-7.5 -1.989023 -6.709753 -3.896849 -5.303301 -5.303301 c
-3.896849 -6.709753 -1.989023 -7.5 0 -7.5 c
cl

0.769 0.306 0.322 setrgbcolor
fill
grestore
} bind def
81.5862 64.9778 o
103.574 133.949 o
125.562 101.843 o
147.55 62.9914 o
169.538 55.9116 o
191.526 56.5561 o
213.514 74.27 o
235.502 55.9057 o
257.49 102.837 o
279.478 114.66 o
301.466 65.8305 o
323.454 64.6024 o
345.442 97.152 o
367.43 174.207 o
389.418 69.1929 o
411.406 127.382 o
433.394 55.9128 o
455.382 187.029 o
477.37 185.447 o
499.358 94.8344 o
521.346 645.239 o
543.334 68.69 o
565.322 62.4623 o
587.31 62.4854 o
grestore
gsave
556.3 618.8 56.3 55.91 clipbox
/o {
gsave
newpath
translate
0 -7.5 m
1.989023 -7.5 3.896849 -6.709753 5.303301 -5.303301 c
6.709753 -3.896849 7.5 -1.989023 7.5 0 c
7.5 1.989023 6.709753 3.896849 5.303301 5.303301 c
3.896849 6.709753 1.989023 7.5 0 7.5 c
-1.989023 7.5 -3.896849 6.709753 -5.303301 5.303301 c
-6.709753 3.896849 -7.5 1.989023 -7.5 0 c
-7.5 -1.989023 -6.709753 -3.896849 -5.303301 -5.303301 c
-3.896849 -6.709753 -1.989023 -7.5 0 -7.5 c
cl

0.298 0.447 0.690 setrgbcolor
fill
grestore
} bind def
81.5862 61.9312 o
103.574 433.938 o
125.562 74.1752 o
147.55 58.0122 o
169.538 55.9116 o
191.526 57.9523 o
213.514 69.7206 o
235.502 55.9057 o
257.49 97.1888 o
279.478 84.5536 o
301.466 59.3064 o
323.454 63.015 o
345.442 80.6784 o
367.43 99.5275 o
389.418 59.6055 o
411.406 74.2034 o
433.394 55.9061 o
455.382 148.364 o
477.37 84.319 o
499.358 66.3788 o
521.346 475.182 o
543.334 60.452 o
565.322 60.1067 o
587.31 57.122 o
grestore
gsave
556.3 618.8 56.3 55.91 clipbox
/o {
gsave
newpath
translate
0 -7.5 m
1.989023 -7.5 3.896849 -6.709753 5.303301 -5.303301 c
6.709753 -3.896849 7.5 -1.989023 7.5 0 c
7.5 1.989023 6.709753 3.896849 5.303301 5.303301 c
3.896849 6.709753 1.989023 7.5 0 7.5 c
-1.989023 7.5 -3.896849 6.709753 -5.303301 5.303301 c
-6.709753 3.896849 -7.5 1.989023 -7.5 0 c
-7.5 -1.989023 -6.709753 -3.896849 -5.303301 -5.303301 c
-3.896849 -6.709753 -1.989023 -7.5 0 -7.5 c
cl

0.333 0.659 0.408 setrgbcolor
fill
grestore
} bind def
81.5862 60.2698 o
103.574 329.704 o
125.562 72.1819 o
147.55 57.8895 o
169.538 55.9112 o
191.526 57.8266 o
213.514 70.3603 o
235.502 55.9057 o
257.49 96.3704 o
279.478 83.2865 o
301.466 59.0122 o
323.454 63.3873 o
345.442 75.1349 o
367.43 93.2778 o
389.418 59.5218 o
411.406 72.9962 o
433.394 55.9061 o
455.382 132.918 o
477.37 87.6486 o
499.358 65.8087 o
521.346 427.048 o
543.334 60.1103 o
565.322 59.0186 o
587.31 57.1988 o
grestore
1.000 setlinewidth
0 setlinejoin
2 setlinecap
[] 0 setdash
0.800 setgray
gsave
56.3 55.905719 m
56.3 674.705306 l
stroke
grestore
gsave
612.596 55.905719 m
612.596 674.705306 l
stroke
grestore
gsave
56.3 55.905719 m
612.596 55.905719 l
stroke
grestore
gsave
56.3 674.705306 m
612.596 674.705306 l
stroke
grestore
0.150 setgray
/DejaVuSans-Bold findfont
20.000 scalefont
setfont
gsave
124.815187 680.705306 translate
0.000000 rotate
0.000000 0.000000 m /F glyphshow
13.662109 0.000000 m /l glyphshow
20.517578 0.000000 m /o glyphshow
34.257812 0.000000 m /a glyphshow
47.753906 0.000000 m /t glyphshow
57.314453 0.000000 m /i glyphshow
64.169922 0.000000 m /n glyphshow
78.408203 0.000000 m /g glyphshow
92.724609 0.000000 m /space glyphshow
99.687500 0.000000 m /P glyphshow
114.345703 0.000000 m /o glyphshow
128.085938 0.000000 m /i glyphshow
134.941406 0.000000 m /n glyphshow
149.179688 0.000000 m /t glyphshow
158.740234 0.000000 m /space glyphshow
165.703125 0.000000 m /O glyphshow
182.705078 0.000000 m /p glyphshow
197.021484 0.000000 m /slash glyphshow
204.326172 0.000000 m /s glyphshow
216.230469 0.000000 m /space glyphshow
223.193359 0.000000 m /parenleft glyphshow
232.333984 0.000000 m /S glyphshow
246.738281 0.000000 m /P glyphshow
261.396484 0.000000 m /plus glyphshow
278.154297 0.000000 m /D glyphshow
294.755859 0.000000 m /P glyphshow
309.414062 0.000000 m /parenright glyphshow
318.554688 0.000000 m /space glyphshow
325.517578 0.000000 m /p glyphshow
339.833984 0.000000 m /e glyphshow
353.398438 0.000000 m /r glyphshow
363.261719 0.000000 m /space glyphshow
370.224609 0.000000 m /c glyphshow
382.080078 0.000000 m /o glyphshow
395.820312 0.000000 m /r glyphshow
405.683594 0.000000 m /e glyphshow
grestore
gsave
/o {
gsave
newpath
translate
0 -7.5 m
1.989023 -7.5 3.896849 -6.709753 5.303301 -5.303301 c
6.709753 -3.896849 7.5 -1.989023 7.5 0 c
7.5 1.989023 6.709753 3.896849 5.303301 5.303301 c
3.896849 6.709753 1.989023 7.5 0 7.5 c
-1.989023 7.5 -3.896849 6.709753 -5.303301 5.303301 c
-6.709753 3.896849 -7.5 1.989023 -7.5 0 c
-7.5 -1.989023 -6.709753 -3.896849 -5.303301 -5.303301 c
-3.896849 -6.709753 -1.989023 -7.5 0 -7.5 c
cl

0.769 0.306 0.322 setrgbcolor
fill
grestore
} bind def
635.396 383.818 o
grestore
/DejaVuSans findfont
12.000 scalefont
setfont
gsave
656.996000 379.618013 translate
0.000000 rotate
0.000000 0.000000 m /X glyphshow
8.220703 0.000000 m /E glyphshow
15.802734 0.000000 m /O glyphshow
25.248047 0.000000 m /N glyphshow
grestore
gsave
/o {
gsave
newpath
translate
0 -7.5 m
1.989023 -7.5 3.896849 -6.709753 5.303301 -5.303301 c
6.709753 -3.896849 7.5 -1.989023 7.5 0 c
7.5 1.989023 6.709753 3.896849 5.303301 5.303301 c
3.896849 6.709753 1.989023 7.5 0 7.5 c
-1.989023 7.5 -3.896849 6.709753 -5.303301 5.303301 c
-6.709753 3.896849 -7.5 1.989023 -7.5 0 c
-7.5 -1.989023 -6.709753 -3.896849 -5.303301 -5.303301 c
-3.896849 -6.709753 -1.989023 -7.5 0 -7.5 c
cl

0.298 0.447 0.690 setrgbcolor
fill
grestore
} bind def
635.396 366.193 o
grestore
gsave
656.996000 361.993013 translate
0.000000 rotate
0.000000 0.000000 m /K glyphshow
7.869141 0.000000 m /N glyphshow
16.845703 0.000000 m /L glyphshow
grestore
gsave
/o {
gsave
newpath
translate
0 -7.5 m
1.989023 -7.5 3.896849 -6.709753 5.303301 -5.303301 c
6.709753 -3.896849 7.5 -1.989023 7.5 0 c
7.5 1.989023 6.709753 3.896849 5.303301 5.303301 c
3.896849 6.709753 1.989023 7.5 0 7.5 c
-1.989023 7.5 -3.896849 6.709753 -5.303301 5.303301 c
-6.709753 3.896849 -7.5 1.989023 -7.5 0 c
-7.5 -1.989023 -6.709753 -3.896849 -5.303301 -5.303301 c
-3.896849 -6.709753 -1.989023 -7.5 0 -7.5 c
cl

0.333 0.659 0.408 setrgbcolor
fill
grestore
} bind def
635.396 348.568 o
grestore
gsave
656.996000 344.368013 translate
0.000000 rotate
0.000000 0.000000 m /K glyphshow
7.869141 0.000000 m /N glyphshow
16.845703 0.000000 m /M glyphshow
grestore

end
showpage
