%!PS-Adobe-3.0 EPSF-3.0
%%Title: mem-bound.eps
%%Creator: matplotlib version 2.2.3, http://matplotlib.org/
%%CreationDate: Sat Oct  6 18:31:19 2018
%%Orientation: portrait
%%BoundingBox: -117 80 729 711
%%EndComments
%%BeginProlog
/mpldict 9 dict def
mpldict begin
/m { moveto } bind def
/l { lineto } bind def
/r { rlineto } bind def
/c { curveto } bind def
/cl { closepath } bind def
/box {
m
1 index 0 r
0 exch r
neg 0 r
cl
} bind def
/clipbox {
box
clip
newpath
} bind def
%!PS-Adobe-3.0 Resource-Font
%%Title: DejaVu Sans
%%Copyright: Copyright (c) 2003 by Bitstream, Inc. All Rights Reserved. Copyright (c) 2006 by Tavmjong Bah. All Rights Reserved. DejaVu changes are in public domain 
%%Creator: Converted from TrueType to type 3 by PPR
25 dict begin
/_d{bind def}bind def
/_m{moveto}_d
/_l{lineto}_d
/_cl{closepath eofill}_d
/_c{curveto}_d
/_sc{7 -1 roll{setcachedevice}{pop pop pop pop pop pop}ifelse}_d
/_e{exec}_d
/FontName /DejaVuSans def
/PaintType 0 def
/FontMatrix[.001 0 0 .001 0 0]def
/FontBBox[-1021 -463 1793 1232]def
/FontType 3 def
/Encoding [ /space /percent /hyphen /zero /one /two /three /four /six /eight /A /B /C /D /E /F /G /H /I /L /M /N /O /P /Q /R /S /T /V /W /X /Y /bracketleft /bracketright /a /b /c /e /g /h /i /k /l /m /n /o /r /s /t /y /z ] def
/FontInfo 10 dict dup begin
/FamilyName (DejaVu Sans) def
/FullName (DejaVu Sans) def
/Notice (Copyright (c) 2003 by Bitstream, Inc. All Rights Reserved. Copyright (c) 2006 by Tavmjong Bah. All Rights Reserved. DejaVu changes are in public domain ) def
/Weight (Book) def
/Version (Version 2.35) def
/ItalicAngle 0.0 def
/isFixedPitch false def
/UnderlinePosition -130 def
/UnderlineThickness 90 def
end readonly def
/CharStrings 52 dict dup begin
/.notdef 0 def
/space{318 0 0 0 0 0 _sc
}_d
/percent{{950 0 55 -13 895 742 _sc
727 321 _m
699 321 676 309 660 285 _c
644 261 636 227 636 184 _c
636 142 644 108 660 84 _c
676 60 699 48 727 48 _c
755 48 777 60 793 84 _c
809 108 817 142 817 184 _c
817 226 809 260 793 284 _c
777 308 755 321 727 321 _c
727 383 _m
778 383 819 365 849 329 _c
879 293 895 244 895 184 _c
895 123 879 75 849 40 _c
819 4 778 -13 727 -13 _c
}_e{675 -13 633 4 603 40 _c
573 75 558 123 558 184 _c
558 245 573 293 603 329 _c
633 365 675 383 727 383 _c
223 680 _m
195 680 173 667 157 643 _c
141 619 133 586 133 544 _c
133 500 141 467 157 443 _c
173 419 195 407 223 407 _c
251 407 274 419 290 443 _c
306 467 314 500 314 544 _c
314 586 305 619 289 643 _c
273 667 251 680 223 680 _c
664 742 _m
742 742 _l
286 -13 _l
}_e{208 -13 _l
664 742 _l
223 742 _m
274 742 315 724 346 688 _c
376 652 392 604 392 544 _c
392 482 376 434 346 398 _c
316 362 275 345 223 345 _c
171 345 130 362 100 398 _c
70 434 55 482 55 544 _c
55 604 70 652 100 688 _c
130 724 171 742 223 742 _c
_cl}_e}_d
/hyphen{361 0 49 234 312 314 _sc
49 314 _m
312 314 _l
312 234 _l
49 234 _l
49 314 _l
_cl}_d
/zero{636 0 66 -13 570 742 _sc
318 664 _m
267 664 229 639 203 589 _c
177 539 165 464 165 364 _c
165 264 177 189 203 139 _c
229 89 267 64 318 64 _c
369 64 407 89 433 139 _c
458 189 471 264 471 364 _c
471 464 458 539 433 589 _c
407 639 369 664 318 664 _c
318 742 _m
399 742 461 709 505 645 _c
548 580 570 486 570 364 _c
570 241 548 147 505 83 _c
461 19 399 -13 318 -13 _c
236 -13 173 19 130 83 _c
87 147 66 241 66 364 _c
66 486 87 580 130 645 _c
173 709 236 742 318 742 _c
_cl}_d
/one{636 0 110 0 544 729 _sc
124 83 _m
285 83 _l
285 639 _l
110 604 _l
110 694 _l
284 729 _l
383 729 _l
383 83 _l
544 83 _l
544 0 _l
124 0 _l
124 83 _l
_cl}_d
/two{{636 0 73 0 536 742 _sc
192 83 _m
536 83 _l
536 0 _l
73 0 _l
73 83 _l
110 121 161 173 226 239 _c
290 304 331 346 348 365 _c
380 400 402 430 414 455 _c
426 479 433 504 433 528 _c
433 566 419 598 392 622 _c
365 646 330 659 286 659 _c
255 659 222 653 188 643 _c
154 632 117 616 78 594 _c
78 694 _l
118 710 155 722 189 730 _c
223 738 255 742 284 742 _c
}_e{359 742 419 723 464 685 _c
509 647 532 597 532 534 _c
532 504 526 475 515 449 _c
504 422 484 390 454 354 _c
446 344 420 317 376 272 _c
332 227 271 164 192 83 _c
_cl}_e}_d
/three{{636 0 76 -13 556 742 _sc
406 393 _m
453 383 490 362 516 330 _c
542 298 556 258 556 212 _c
556 140 531 84 482 45 _c
432 6 362 -13 271 -13 _c
240 -13 208 -10 176 -4 _c
144 1 110 10 76 22 _c
76 117 _l
103 101 133 89 166 81 _c
198 73 232 69 268 69 _c
330 69 377 81 409 105 _c
441 129 458 165 458 212 _c
458 254 443 288 413 312 _c
383 336 341 349 287 349 _c
}_e{202 349 _l
202 430 _l
291 430 _l
339 430 376 439 402 459 _c
428 478 441 506 441 543 _c
441 580 427 609 401 629 _c
374 649 336 659 287 659 _c
260 659 231 656 200 650 _c
169 644 135 635 98 623 _c
98 711 _l
135 721 170 729 203 734 _c
235 739 266 742 296 742 _c
370 742 429 725 473 691 _c
517 657 539 611 539 553 _c
539 513 527 479 504 451 _c
481 423 448 403 406 393 _c
_cl}_e}_d
/four{636 0 49 0 580 729 _sc
378 643 _m
129 254 _l
378 254 _l
378 643 _l
352 729 _m
476 729 _l
476 254 _l
580 254 _l
580 172 _l
476 172 _l
476 0 _l
378 0 _l
378 172 _l
49 172 _l
49 267 _l
352 729 _l
_cl}_d
/six{{636 0 70 -13 573 742 _sc
330 404 _m
286 404 251 388 225 358 _c
199 328 186 286 186 234 _c
186 181 199 139 225 109 _c
251 79 286 64 330 64 _c
374 64 409 79 435 109 _c
461 139 474 181 474 234 _c
474 286 461 328 435 358 _c
409 388 374 404 330 404 _c
526 713 _m
526 623 _l
501 635 476 644 451 650 _c
425 656 400 659 376 659 _c
310 659 260 637 226 593 _c
}_e{192 549 172 482 168 394 _c
187 422 211 444 240 459 _c
269 474 301 482 336 482 _c
409 482 467 459 509 415 _c
551 371 573 310 573 234 _c
573 159 550 99 506 54 _c
462 9 403 -13 330 -13 _c
246 -13 181 19 137 83 _c
92 147 70 241 70 364 _c
70 479 97 571 152 639 _c
206 707 280 742 372 742 _c
396 742 421 739 447 735 _c
472 730 498 723 526 713 _c
_cl}_e}_d
/eight{{636 0 68 -13 568 742 _sc
318 346 _m
271 346 234 333 207 308 _c
180 283 167 249 167 205 _c
167 161 180 126 207 101 _c
234 76 271 64 318 64 _c
364 64 401 76 428 102 _c
455 127 469 161 469 205 _c
469 249 455 283 429 308 _c
402 333 365 346 318 346 _c
219 388 _m
177 398 144 418 120 447 _c
96 476 85 511 85 553 _c
85 611 105 657 147 691 _c
188 725 245 742 318 742 _c
}_e{390 742 447 725 489 691 _c
530 657 551 611 551 553 _c
551 511 539 476 515 447 _c
491 418 459 398 417 388 _c
464 377 501 355 528 323 _c
554 291 568 251 568 205 _c
568 134 546 80 503 43 _c
459 5 398 -13 318 -13 _c
237 -13 175 5 132 43 _c
89 80 68 134 68 205 _c
68 251 81 291 108 323 _c
134 355 171 377 219 388 _c
183 544 _m
183 506 194 476 218 455 _c
}_e{242 434 275 424 318 424 _c
360 424 393 434 417 455 _c
441 476 453 506 453 544 _c
453 582 441 611 417 632 _c
393 653 360 664 318 664 _c
275 664 242 653 218 632 _c
194 611 183 582 183 544 _c
_cl}_e}_d
/A{684 0 8 0 676 729 _sc
342 632 _m
208 269 _l
476 269 _l
342 632 _l
286 729 _m
398 729 _l
676 0 _l
573 0 _l
507 187 _l
178 187 _l
112 0 _l
8 0 _l
286 729 _l
_cl}_d
/B{{686 0 98 0 615 729 _sc
197 348 _m
197 81 _l
355 81 _l
408 81 447 92 473 114 _c
498 136 511 169 511 215 _c
511 260 498 293 473 315 _c
447 337 408 348 355 348 _c
197 348 _l
197 648 _m
197 428 _l
343 428 _l
391 428 426 437 450 455 _c
474 473 486 500 486 538 _c
486 574 474 602 450 620 _c
426 638 391 648 343 648 _c
197 648 _l
98 729 _m
350 729 _l
}_e{425 729 483 713 524 682 _c
564 650 585 606 585 549 _c
585 504 574 468 553 442 _c
532 416 502 399 462 393 _c
510 382 548 360 575 327 _c
601 294 615 253 615 204 _c
615 138 592 88 548 53 _c
504 17 441 0 360 0 _c
98 0 _l
98 729 _l
_cl}_e}_d
/C{{698 0 56 -13 644 742 _sc
644 673 _m
644 569 _l
610 599 575 622 537 638 _c
499 653 460 661 418 661 _c
334 661 270 635 226 584 _c
182 533 160 460 160 364 _c
160 268 182 194 226 143 _c
270 92 334 67 418 67 _c
460 67 499 74 537 90 _c
575 105 610 128 644 159 _c
644 56 _l
609 32 572 15 534 4 _c
496 -7 455 -13 412 -13 _c
302 -13 215 20 151 87 _c
}_e{87 154 56 246 56 364 _c
56 481 87 573 151 641 _c
215 708 302 742 412 742 _c
456 742 497 736 535 725 _c
573 713 610 696 644 673 _c
_cl}_e}_d
/D{770 0 98 0 711 729 _sc
197 648 _m
197 81 _l
316 81 _l
416 81 490 103 537 149 _c
583 195 607 267 607 365 _c
607 463 583 534 537 580 _c
490 625 416 648 316 648 _c
197 648 _l
98 729 _m
301 729 _l
442 729 546 699 612 641 _c
678 582 711 490 711 365 _c
711 239 677 147 611 88 _c
545 29 441 0 301 0 _c
98 0 _l
98 729 _l
_cl}_d
/E{632 0 98 0 568 729 _sc
98 729 _m
559 729 _l
559 646 _l
197 646 _l
197 430 _l
544 430 _l
544 347 _l
197 347 _l
197 83 _l
568 83 _l
568 0 _l
98 0 _l
98 729 _l
_cl}_d
/F{575 0 98 0 517 729 _sc
98 729 _m
517 729 _l
517 646 _l
197 646 _l
197 431 _l
486 431 _l
486 348 _l
197 348 _l
197 0 _l
98 0 _l
98 729 _l
_cl}_d
/G{{775 0 56 -13 693 742 _sc
595 104 _m
595 300 _l
434 300 _l
434 381 _l
693 381 _l
693 68 _l
655 40 613 20 567 7 _c
521 -6 472 -13 420 -13 _c
306 -13 216 20 152 86 _c
88 152 56 245 56 364 _c
56 482 88 575 152 642 _c
216 708 306 742 420 742 _c
467 742 512 736 555 724 _c
598 712 638 695 674 673 _c
674 568 _l
637 598 598 621 557 637 _c
516 653 473 661 428 661 _c
}_e{338 661 271 636 227 586 _c
182 536 160 462 160 364 _c
160 265 182 191 227 141 _c
271 91 338 67 428 67 _c
462 67 493 70 521 76 _c
549 82 573 91 595 104 _c
_cl}_e}_d
/H{752 0 98 0 654 729 _sc
98 729 _m
197 729 _l
197 430 _l
555 430 _l
555 729 _l
654 729 _l
654 0 _l
555 0 _l
555 347 _l
197 347 _l
197 0 _l
98 0 _l
98 729 _l
_cl}_d
/I{295 0 98 0 197 729 _sc
98 729 _m
197 729 _l
197 0 _l
98 0 _l
98 729 _l
_cl}_d
/L{557 0 98 0 552 729 _sc
98 729 _m
197 729 _l
197 83 _l
552 83 _l
552 0 _l
98 0 _l
98 729 _l
_cl}_d
/M{863 0 98 0 765 729 _sc
98 729 _m
245 729 _l
431 233 _l
618 729 _l
765 729 _l
765 0 _l
669 0 _l
669 640 _l
481 140 _l
382 140 _l
194 640 _l
194 0 _l
98 0 _l
98 729 _l
_cl}_d
/N{748 0 98 0 650 729 _sc
98 729 _m
231 729 _l
554 119 _l
554 729 _l
650 729 _l
650 0 _l
517 0 _l
194 610 _l
194 0 _l
98 0 _l
98 729 _l
_cl}_d
/O{787 0 56 -13 731 742 _sc
394 662 _m
322 662 265 635 223 582 _c
181 528 160 456 160 364 _c
160 272 181 199 223 146 _c
265 92 322 66 394 66 _c
465 66 522 92 564 146 _c
606 199 627 272 627 364 _c
627 456 606 528 564 582 _c
522 635 465 662 394 662 _c
394 742 _m
496 742 577 707 639 639 _c
700 571 731 479 731 364 _c
731 248 700 157 639 89 _c
577 21 496 -13 394 -13 _c
291 -13 209 21 148 89 _c
86 157 56 248 56 364 _c
56 479 86 571 148 639 _c
209 707 291 742 394 742 _c
_cl}_d
/P{603 0 98 0 569 729 _sc
197 648 _m
197 374 _l
321 374 _l
367 374 402 385 427 409 _c
452 433 465 467 465 511 _c
465 555 452 588 427 612 _c
402 636 367 648 321 648 _c
197 648 _l
98 729 _m
321 729 _l
402 729 464 710 506 673 _c
548 636 569 582 569 511 _c
569 439 548 384 506 348 _c
464 311 402 293 321 293 _c
197 293 _l
197 0 _l
98 0 _l
98 729 _l
_cl}_d
/Q{{787 0 56 -128 731 742 _sc
394 662 _m
322 662 265 635 223 582 _c
181 528 160 456 160 364 _c
160 272 181 199 223 146 _c
265 92 322 66 394 66 _c
465 66 522 92 564 146 _c
606 199 627 272 627 364 _c
627 456 606 528 564 582 _c
522 635 465 662 394 662 _c
532 13 _m
662 -128 _l
543 -128 _l
435 -11 _l
424 -11 416 -12 410 -12 _c
404 -12 399 -13 394 -13 _c
291 -13 209 21 148 89 _c
}_e{86 157 56 248 56 364 _c
56 479 86 571 148 639 _c
209 707 291 742 394 742 _c
496 742 577 707 639 639 _c
700 571 731 479 731 364 _c
731 279 714 206 680 146 _c
646 86 596 41 532 13 _c
_cl}_e}_d
/R{{695 0 98 0 666 729 _sc
444 342 _m
465 334 486 319 506 296 _c
526 272 546 240 566 199 _c
666 0 _l
560 0 _l
467 187 _l
443 235 419 268 397 284 _c
374 300 343 308 304 308 _c
197 308 _l
197 0 _l
98 0 _l
98 729 _l
321 729 _l
404 729 466 711 507 677 _c
548 642 569 589 569 519 _c
569 473 558 434 537 404 _c
515 374 484 353 444 342 _c
197 648 _m
197 389 _l
321 389 _l
}_e{368 389 404 400 428 422 _c
452 444 465 476 465 519 _c
465 561 452 593 428 615 _c
404 637 368 648 321 648 _c
197 648 _l
_cl}_e}_d
/S{{635 0 66 -13 579 742 _sc
535 705 _m
535 609 _l
497 627 462 640 429 649 _c
395 657 363 662 333 662 _c
279 662 237 651 208 631 _c
179 610 165 580 165 542 _c
165 510 174 485 194 469 _c
213 452 250 439 304 429 _c
364 417 _l
437 403 491 378 526 343 _c
561 307 579 260 579 201 _c
579 130 555 77 508 41 _c
460 5 391 -13 300 -13 _c
265 -13 228 -9 189 -2 _c
}_e{150 5 110 16 69 32 _c
69 134 _l
109 111 148 94 186 83 _c
224 71 262 66 300 66 _c
356 66 399 77 430 99 _c
460 121 476 152 476 194 _c
476 230 465 258 443 278 _c
421 298 385 313 335 323 _c
275 335 _l
201 349 148 372 115 404 _c
82 435 66 478 66 534 _c
66 598 88 649 134 686 _c
179 723 242 742 322 742 _c
356 742 390 739 426 733 _c
461 727 497 717 535 705 _c
}_e{_cl}_e}_d
/T{611 0 -2 0 614 729 _sc
-2 729 _m
614 729 _l
614 646 _l
355 646 _l
355 0 _l
256 0 _l
256 646 _l
-2 646 _l
-2 729 _l
_cl}_d
/V{684 0 8 0 676 729 _sc
286 0 _m
8 729 _l
111 729 _l
342 115 _l
573 729 _l
676 729 _l
398 0 _l
286 0 _l
_cl}_d
/W{989 0 33 0 956 729 _sc
33 729 _m
133 729 _l
286 113 _l
439 729 _l
550 729 _l
703 113 _l
856 729 _l
956 729 _l
773 0 _l
649 0 _l
495 633 _l
340 0 _l
216 0 _l
33 729 _l
_cl}_d
/X{685 0 30 0 654 729 _sc
63 729 _m
169 729 _l
350 458 _l
532 729 _l
638 729 _l
404 379 _l
654 0 _l
548 0 _l
343 310 _l
136 0 _l
30 0 _l
290 389 _l
63 729 _l
_cl}_d
/Y{611 0 -1 0 613 729 _sc
-1 729 _m
104 729 _l
306 429 _l
507 729 _l
613 729 _l
355 347 _l
355 0 _l
256 0 _l
256 347 _l
-1 729 _l
_cl}_d
/bracketleft{390 0 86 -131 293 760 _sc
86 760 _m
293 760 _l
293 690 _l
176 690 _l
176 -61 _l
293 -61 _l
293 -131 _l
86 -131 _l
86 760 _l
_cl}_d
/bracketright{390 0 97 -131 304 760 _sc
304 760 _m
304 -131 _l
97 -131 _l
97 -61 _l
214 -61 _l
214 690 _l
97 690 _l
97 760 _l
304 760 _l
_cl}_d
/a{{613 0 60 -13 522 560 _sc
343 275 _m
270 275 220 266 192 250 _c
164 233 150 205 150 165 _c
150 133 160 107 181 89 _c
202 70 231 61 267 61 _c
317 61 357 78 387 114 _c
417 149 432 196 432 255 _c
432 275 _l
343 275 _l
522 312 _m
522 0 _l
432 0 _l
432 83 _l
411 49 385 25 355 10 _c
325 -5 287 -13 243 -13 _c
187 -13 142 2 109 33 _c
76 64 60 106 60 159 _c
}_e{60 220 80 266 122 298 _c
163 329 224 345 306 345 _c
432 345 _l
432 354 _l
432 395 418 427 391 450 _c
364 472 326 484 277 484 _c
245 484 215 480 185 472 _c
155 464 127 453 100 439 _c
100 522 _l
132 534 164 544 195 550 _c
226 556 256 560 286 560 _c
365 560 424 539 463 498 _c
502 457 522 395 522 312 _c
_cl}_e}_d
/b{{635 0 91 -13 580 760 _sc
487 273 _m
487 339 473 390 446 428 _c
418 466 381 485 334 485 _c
286 485 249 466 222 428 _c
194 390 181 339 181 273 _c
181 207 194 155 222 117 _c
249 79 286 61 334 61 _c
381 61 418 79 446 117 _c
473 155 487 207 487 273 _c
181 464 _m
199 496 223 520 252 536 _c
281 552 316 560 356 560 _c
422 560 476 533 518 481 _c
559 428 580 359 580 273 _c
}_e{580 187 559 117 518 65 _c
476 13 422 -13 356 -13 _c
316 -13 281 -5 252 10 _c
223 25 199 49 181 82 _c
181 0 _l
91 0 _l
91 760 _l
181 760 _l
181 464 _l
_cl}_e}_d
/c{{550 0 55 -13 488 560 _sc
488 526 _m
488 442 _l
462 456 437 466 411 473 _c
385 480 360 484 334 484 _c
276 484 230 465 198 428 _c
166 391 150 339 150 273 _c
150 206 166 154 198 117 _c
230 80 276 62 334 62 _c
360 62 385 65 411 72 _c
437 79 462 90 488 104 _c
488 21 _l
462 9 436 0 410 -5 _c
383 -10 354 -13 324 -13 _c
242 -13 176 12 128 64 _c
}_e{79 115 55 185 55 273 _c
55 362 79 432 128 483 _c
177 534 244 560 330 560 _c
358 560 385 557 411 551 _c
437 545 463 537 488 526 _c
_cl}_e}_d
/e{{615 0 55 -13 562 560 _sc
562 296 _m
562 252 _l
149 252 _l
153 190 171 142 205 110 _c
238 78 284 62 344 62 _c
378 62 412 66 444 74 _c
476 82 509 95 541 113 _c
541 28 _l
509 14 476 3 442 -3 _c
408 -9 373 -13 339 -13 _c
251 -13 182 12 131 62 _c
80 112 55 181 55 268 _c
55 357 79 428 127 481 _c
175 533 241 560 323 560 _c
397 560 455 536 498 489 _c
}_e{540 441 562 377 562 296 _c
472 322 _m
471 371 457 410 431 440 _c
404 469 368 484 324 484 _c
274 484 234 469 204 441 _c
174 413 156 373 152 322 _c
472 322 _l
_cl}_e}_d
/g{{635 0 55 -207 544 560 _sc
454 280 _m
454 344 440 395 414 431 _c
387 467 349 485 301 485 _c
253 485 215 467 188 431 _c
161 395 148 344 148 280 _c
148 215 161 165 188 129 _c
215 93 253 75 301 75 _c
349 75 387 93 414 129 _c
440 165 454 215 454 280 _c
544 68 _m
544 -24 523 -93 482 -139 _c
440 -184 377 -207 292 -207 _c
260 -207 231 -204 203 -200 _c
175 -195 147 -188 121 -178 _c
}_e{121 -91 _l
147 -105 173 -115 199 -122 _c
225 -129 251 -133 278 -133 _c
336 -133 380 -117 410 -87 _c
439 -56 454 -10 454 52 _c
454 96 _l
435 64 411 40 382 24 _c
353 8 319 0 279 0 _c
211 0 157 25 116 76 _c
75 127 55 195 55 280 _c
55 364 75 432 116 483 _c
157 534 211 560 279 560 _c
319 560 353 552 382 536 _c
411 520 435 496 454 464 _c
454 547 _l
544 547 _l
}_e{544 68 _l
_cl}_e}_d
/h{634 0 91 0 549 760 _sc
549 330 _m
549 0 _l
459 0 _l
459 327 _l
459 379 448 417 428 443 _c
408 469 378 482 338 482 _c
289 482 251 466 223 435 _c
195 404 181 362 181 309 _c
181 0 _l
91 0 _l
91 760 _l
181 760 _l
181 462 _l
202 494 227 519 257 535 _c
286 551 320 560 358 560 _c
420 560 468 540 500 501 _c
532 462 549 405 549 330 _c
_cl}_d
/i{278 0 94 0 184 760 _sc
94 547 _m
184 547 _l
184 0 _l
94 0 _l
94 547 _l
94 760 _m
184 760 _l
184 646 _l
94 646 _l
94 760 _l
_cl}_d
/k{579 0 91 0 576 760 _sc
91 760 _m
181 760 _l
181 311 _l
449 547 _l
564 547 _l
274 291 _l
576 0 _l
459 0 _l
181 267 _l
181 0 _l
91 0 _l
91 760 _l
_cl}_d
/l{278 0 94 0 184 760 _sc
94 760 _m
184 760 _l
184 0 _l
94 0 _l
94 760 _l
_cl}_d
/m{{974 0 91 0 889 560 _sc
520 442 _m
542 482 569 511 600 531 _c
631 550 668 560 711 560 _c
767 560 811 540 842 500 _c
873 460 889 403 889 330 _c
889 0 _l
799 0 _l
799 327 _l
799 379 789 418 771 444 _c
752 469 724 482 686 482 _c
639 482 602 466 575 435 _c
548 404 535 362 535 309 _c
535 0 _l
445 0 _l
445 327 _l
445 379 435 418 417 444 _c
398 469 369 482 331 482 _c
}_e{285 482 248 466 221 435 _c
194 404 181 362 181 309 _c
181 0 _l
91 0 _l
91 547 _l
181 547 _l
181 462 _l
201 495 226 520 255 536 _c
283 552 317 560 357 560 _c
397 560 430 550 458 530 _c
486 510 506 480 520 442 _c
_cl}_e}_d
/n{634 0 91 0 549 560 _sc
549 330 _m
549 0 _l
459 0 _l
459 327 _l
459 379 448 417 428 443 _c
408 469 378 482 338 482 _c
289 482 251 466 223 435 _c
195 404 181 362 181 309 _c
181 0 _l
91 0 _l
91 547 _l
181 547 _l
181 462 _l
202 494 227 519 257 535 _c
286 551 320 560 358 560 _c
420 560 468 540 500 501 _c
532 462 549 405 549 330 _c
_cl}_d
/o{612 0 55 -13 557 560 _sc
306 484 _m
258 484 220 465 192 427 _c
164 389 150 338 150 273 _c
150 207 163 156 191 118 _c
219 80 257 62 306 62 _c
354 62 392 80 420 118 _c
448 156 462 207 462 273 _c
462 337 448 389 420 427 _c
392 465 354 484 306 484 _c
306 560 _m
384 560 445 534 490 484 _c
534 433 557 363 557 273 _c
557 183 534 113 490 63 _c
445 12 384 -13 306 -13 _c
227 -13 165 12 121 63 _c
77 113 55 183 55 273 _c
55 363 77 433 121 484 _c
165 534 227 560 306 560 _c
_cl}_d
/r{411 0 91 0 411 560 _sc
411 463 _m
401 469 390 473 378 476 _c
366 478 353 480 339 480 _c
288 480 249 463 222 430 _c
194 397 181 350 181 288 _c
181 0 _l
91 0 _l
91 547 _l
181 547 _l
181 462 _l
199 495 224 520 254 536 _c
284 552 321 560 365 560 _c
371 560 378 559 386 559 _c
393 558 401 557 411 555 _c
411 463 _l
_cl}_d
/s{{521 0 54 -13 472 560 _sc
443 531 _m
443 446 _l
417 458 391 468 364 475 _c
336 481 308 485 279 485 _c
234 485 200 478 178 464 _c
156 450 145 430 145 403 _c
145 382 153 366 169 354 _c
185 342 217 330 265 320 _c
296 313 _l
360 299 405 279 432 255 _c
458 230 472 195 472 151 _c
472 100 452 60 412 31 _c
372 1 316 -13 246 -13 _c
216 -13 186 -10 154 -5 _c
}_e{122 0 89 8 54 20 _c
54 113 _l
87 95 120 82 152 74 _c
184 65 216 61 248 61 _c
290 61 323 68 346 82 _c
368 96 380 117 380 144 _c
380 168 371 187 355 200 _c
339 213 303 226 247 238 _c
216 245 _l
160 257 119 275 95 299 _c
70 323 58 356 58 399 _c
58 450 76 490 112 518 _c
148 546 200 560 268 560 _c
301 560 332 557 362 552 _c
391 547 418 540 443 531 _c
}_e{_cl}_e}_d
/t{392 0 27 0 368 702 _sc
183 702 _m
183 547 _l
368 547 _l
368 477 _l
183 477 _l
183 180 _l
183 135 189 106 201 94 _c
213 81 238 75 276 75 _c
368 75 _l
368 0 _l
276 0 _l
206 0 158 13 132 39 _c
106 65 93 112 93 180 _c
93 477 _l
27 477 _l
27 547 _l
93 547 _l
93 702 _l
183 702 _l
_cl}_d
/y{592 0 30 -207 562 547 _sc
322 -50 _m
296 -114 271 -157 247 -177 _c
223 -197 191 -207 151 -207 _c
79 -207 _l
79 -132 _l
132 -132 _l
156 -132 175 -126 189 -114 _c
203 -102 218 -75 235 -31 _c
251 9 _l
30 547 _l
125 547 _l
296 119 _l
467 547 _l
562 547 _l
322 -50 _l
_cl}_d
/z{525 0 43 0 482 547 _sc
55 547 _m
482 547 _l
482 465 _l
144 72 _l
482 72 _l
482 0 _l
43 0 _l
43 82 _l
381 475 _l
55 475 _l
55 547 _l
_cl}_d
end readonly def

/BuildGlyph
 {exch begin
 CharStrings exch
 2 copy known not{pop /.notdef}if
 true 3 1 roll get exec
 end}_d

/BuildChar {
 1 index /Encoding get exch get
 1 index /BuildGlyph get exec
}_d

FontName currentdict end definefont pop
%!PS-Adobe-3.0 Resource-Font
%%Title: DejaVu Sans Bold
%%Copyright: Copyright (c) 2003 by Bitstream, Inc. All Rights Reserved. Copyright (c) 2006 by Tavmjong Bah. All Rights Reserved. DejaVu changes are in public domain 
%%Creator: Converted from TrueType to type 3 by PPR
25 dict begin
/_d{bind def}bind def
/_m{moveto}_d
/_l{lineto}_d
/_cl{closepath eofill}_d
/_c{curveto}_d
/_sc{7 -1 roll{setcachedevice}{pop pop pop pop pop pop}ifelse}_d
/_e{exec}_d
/FontName /DejaVuSans-Bold def
/PaintType 0 def
/FontMatrix[.001 0 0 .001 0 0]def
/FontBBox[-1069 -415 1975 1174]def
/FontType 3 def
/Encoding [ /space /parenleft /parenright /comma /hyphen /slash /equal /B /K /L /M /N /X /a /b /c /d /e /g /k /l /m /n /o /r /u /y ] def
/FontInfo 10 dict dup begin
/FamilyName (DejaVu Sans) def
/FullName (DejaVu Sans Bold) def
/Notice (Copyright (c) 2003 by Bitstream, Inc. All Rights Reserved. Copyright (c) 2006 by Tavmjong Bah. All Rights Reserved. DejaVu changes are in public domain ) def
/Weight (Bold) def
/Version (Version 2.35) def
/ItalicAngle 0.0 def
/isFixedPitch false def
/UnderlinePosition -130 def
/UnderlineThickness 90 def
end readonly def
/CharStrings 28 dict dup begin
/.notdef 0 def
/space{348 0 0 0 0 0 _sc
}_d
/parenleft{457 0 86 -131 377 759 _sc
377 -131 _m
232 -131 _l
182 -50 145 26 121 98 _c
97 170 86 241 86 313 _c
86 384 98 456 122 529 _c
146 602 182 679 232 759 _c
377 759 _l
335 681 303 606 283 532 _c
262 458 252 386 252 314 _c
252 242 262 169 283 95 _c
303 21 335 -53 377 -131 _c
_cl}_d
/parenright{457 0 80 -131 371 759 _sc
80 -131 _m
122 -53 153 21 174 95 _c
194 169 205 242 205 314 _c
205 386 194 458 174 532 _c
153 606 122 681 80 759 _c
225 759 _l
274 679 311 602 335 529 _c
359 456 371 384 371 313 _c
371 241 359 170 335 98 _c
311 26 275 -50 225 -131 _c
80 -131 _l
_cl}_d
/comma{380 0 53 -141 278 189 _sc
102 189 _m
278 189 _l
278 40 _l
157 -141 _l
53 -141 _l
102 40 _l
102 189 _l
_cl}_d
/hyphen{415 0 54 217 361 359 _sc
54 359 _m
361 359 _l
361 217 _l
54 217 _l
54 359 _l
_cl}_d
/slash{365 0 0 -92 365 729 _sc
257 729 _m
365 729 _l
108 -92 _l
0 -92 _l
257 729 _l
_cl}_d
/equal{838 0 106 144 732 482 _sc
106 482 _m
732 482 _l
732 367 _l
106 367 _l
106 482 _l
106 260 _m
732 260 _l
732 144 _l
106 144 _l
106 260 _l
_cl}_d
/B{{762 0 92 0 692 729 _sc
384 447 _m
413 447 435 453 451 466 _c
466 479 474 498 474 524 _c
474 549 466 568 451 581 _c
435 594 413 601 384 601 _c
280 601 _l
280 447 _l
384 447 _l
390 128 _m
428 128 456 136 475 152 _c
494 168 504 192 504 224 _c
504 255 494 279 475 295 _c
456 311 428 319 390 319 _c
280 319 _l
280 128 _l
390 128 _l
565 390 _m
605 378 636 357 658 325 _c
}_e{680 293 692 255 692 209 _c
692 139 668 86 620 52 _c
572 17 500 0 404 0 _c
92 0 _l
92 729 _l
374 729 _l
475 729 548 713 594 683 _c
639 652 662 603 662 536 _c
662 500 653 470 637 445 _c
620 420 596 402 565 390 _c
_cl}_e}_d
/K{775 0 92 0 805 729 _sc
92 729 _m
280 729 _l
280 463 _l
551 729 _l
769 729 _l
418 384 _l
805 0 _l
570 0 _l
280 287 _l
280 0 _l
92 0 _l
92 729 _l
_cl}_d
/L{637 0 92 0 610 729 _sc
92 729 _m
280 729 _l
280 142 _l
610 142 _l
610 0 _l
92 0 _l
92 729 _l
_cl}_d
/M{995 0 92 0 903 729 _sc
92 729 _m
331 729 _l
497 339 _l
664 729 _l
903 729 _l
903 0 _l
725 0 _l
725 533 _l
557 140 _l
438 140 _l
270 533 _l
270 0 _l
92 0 _l
92 729 _l
_cl}_d
/N{837 0 92 0 745 729 _sc
92 729 _m
302 729 _l
567 229 _l
567 729 _l
745 729 _l
745 0 _l
535 0 _l
270 500 _l
270 0 _l
92 0 _l
92 729 _l
_cl}_d
/X{771 0 19 0 751 729 _sc
498 372 _m
751 0 _l
555 0 _l
385 249 _l
216 0 _l
19 0 _l
272 372 _l
29 729 _l
225 729 _l
385 494 _l
544 729 _l
741 729 _l
498 372 _l
_cl}_d
/a{{675 0 43 -13 596 560 _sc
329 246 _m
292 246 264 239 246 227 _c
228 215 219 197 219 173 _c
219 151 226 133 241 121 _c
256 108 277 102 303 102 _c
336 102 364 113 386 137 _c
408 161 420 190 420 226 _c
420 246 _l
329 246 _l
596 312 _m
596 0 _l
420 0 _l
420 81 _l
396 47 370 23 341 9 _c
311 -5 276 -13 234 -13 _c
177 -13 131 3 96 36 _c
60 68 43 111 43 164 _c
}_e{43 228 65 275 109 305 _c
153 335 222 350 317 350 _c
420 350 _l
420 364 _l
420 391 409 411 387 424 _c
365 437 331 444 285 444 _c
247 444 212 440 180 432 _c
148 424 118 413 91 399 _c
91 532 _l
128 541 165 548 203 553 _c
241 557 279 560 317 560 _c
415 560 486 540 530 501 _c
574 462 596 399 596 312 _c
_cl}_e}_d
/b{{716 0 84 -13 671 760 _sc
375 113 _m
412 113 440 126 460 154 _c
480 181 490 221 490 273 _c
490 325 480 364 460 392 _c
440 419 412 433 375 433 _c
337 433 309 419 289 392 _c
269 364 259 325 259 273 _c
259 221 269 181 289 154 _c
309 126 337 113 375 113 _c
259 467 _m
283 499 309 522 339 537 _c
368 552 402 560 440 560 _c
507 560 562 533 606 479 _c
649 425 671 357 671 273 _c
}_e{671 188 649 119 606 66 _c
562 13 507 -13 440 -13 _c
402 -13 368 -5 339 9 _c
309 23 283 47 259 79 _c
259 0 _l
84 0 _l
84 760 _l
259 760 _l
259 467 _l
_cl}_e}_d
/c{{593 0 43 -13 526 560 _sc
526 530 _m
526 387 _l
502 403 478 415 454 423 _c
430 431 405 435 380 435 _c
331 435 293 420 266 392 _c
238 364 225 324 225 273 _c
225 221 238 181 266 153 _c
293 125 331 111 380 111 _c
407 111 433 115 458 123 _c
482 131 505 143 526 159 _c
526 16 _l
498 6 470 -1 442 -6 _c
414 -10 386 -13 358 -13 _c
259 -13 182 12 126 62 _c
}_e{70 112 43 183 43 273 _c
43 363 70 433 126 484 _c
182 534 259 560 358 560 _c
386 560 414 557 442 552 _c
470 547 498 540 526 530 _c
_cl}_e}_d
/d{{716 0 45 -13 632 760 _sc
456 467 _m
456 760 _l
632 760 _l
632 0 _l
456 0 _l
456 79 _l
432 47 405 23 376 9 _c
347 -5 314 -13 276 -13 _c
208 -13 153 13 110 66 _c
66 119 45 188 45 273 _c
45 357 66 425 110 479 _c
153 533 208 560 276 560 _c
314 560 347 552 376 537 _c
405 522 432 499 456 467 _c
341 113 _m
378 113 406 126 426 154 _c
446 181 456 221 456 273 _c
}_e{456 325 446 364 426 392 _c
406 419 378 433 341 433 _c
303 433 275 419 255 392 _c
235 364 226 325 226 273 _c
226 221 235 181 255 154 _c
275 126 303 113 341 113 _c
_cl}_e}_d
/e{{678 0 43 -13 630 560 _sc
630 275 _m
630 225 _l
221 225 _l
225 184 240 153 266 133 _c
291 112 326 102 372 102 _c
408 102 446 107 485 118 _c
523 129 563 146 604 168 _c
604 33 _l
562 17 521 6 480 -1 _c
438 -9 397 -13 356 -13 _c
257 -13 180 12 125 62 _c
70 112 43 182 43 273 _c
43 362 70 432 124 483 _c
178 534 252 560 346 560 _c
432 560 500 534 552 482 _c
}_e{604 430 630 361 630 275 _c
450 333 _m
450 366 440 393 421 413 _c
401 433 376 444 345 444 _c
311 444 283 434 262 415 _c
241 396 228 369 223 333 _c
450 333 _l
_cl}_e}_d
/g{{716 0 45 -215 632 559 _sc
456 93 _m
432 61 405 37 376 22 _c
347 7 314 0 276 0 _c
209 0 154 26 110 79 _c
66 131 45 198 45 280 _c
45 361 66 428 110 480 _c
154 532 209 559 276 559 _c
314 559 347 551 376 536 _c
405 521 432 498 456 466 _c
456 547 _l
632 547 _l
632 55 _l
632 -32 604 -99 548 -145 _c
492 -191 412 -215 307 -215 _c
273 -215 240 -212 208 -207 _c
}_e{176 -201 144 -193 112 -183 _c
112 -47 _l
142 -64 172 -77 202 -86 _c
231 -94 260 -99 290 -99 _c
347 -99 389 -86 416 -61 _c
442 -36 456 2 456 55 _c
456 93 _l
341 433 _m
305 433 276 419 256 393 _c
236 366 226 328 226 280 _c
226 230 235 192 255 166 _c
275 140 303 127 341 127 _c
377 127 406 140 426 167 _c
446 193 456 231 456 280 _c
456 328 446 366 426 393 _c
}_e{406 419 377 433 341 433 _c
_cl}_e}_d
/k{665 0 84 0 684 760 _sc
84 760 _m
259 760 _l
259 346 _l
460 547 _l
663 547 _l
396 296 _l
684 0 _l
472 0 _l
259 228 _l
259 0 _l
84 0 _l
84 760 _l
_cl}_d
/l{343 0 84 0 259 760 _sc
84 760 _m
259 760 _l
259 0 _l
84 0 _l
84 760 _l
_cl}_d
/m{{1042 0 83 0 963 560 _sc
591 456 _m
613 490 639 515 669 533 _c
699 551 733 560 770 560 _c
832 560 880 540 913 502 _c
946 463 963 407 963 333 _c
963 0 _l
787 0 _l
787 285 _l
787 289 788 294 788 298 _c
788 302 788 309 788 318 _c
788 356 782 384 771 402 _c
759 419 741 428 716 428 _c
682 428 657 414 639 387 _c
621 359 611 320 611 269 _c
611 0 _l
435 0 _l
435 285 _l
}_e{435 345 429 384 419 402 _c
409 419 390 428 364 428 _c
330 428 304 414 286 387 _c
268 359 259 320 259 269 _c
259 0 _l
83 0 _l
83 547 _l
259 547 _l
259 467 _l
280 497 305 520 333 536 _c
361 552 391 560 425 560 _c
462 560 495 550 524 532 _c
553 514 575 488 591 456 _c
_cl}_e}_d
/n{712 0 84 0 634 560 _sc
634 333 _m
634 0 _l
458 0 _l
458 54 _l
458 255 _l
458 302 457 334 455 352 _c
453 370 449 383 444 392 _c
437 403 428 412 416 418 _c
404 424 390 428 376 428 _c
339 428 310 414 290 386 _c
269 358 259 319 259 269 _c
259 0 _l
84 0 _l
84 547 _l
259 547 _l
259 467 _l
285 499 312 522 342 537 _c
372 552 405 560 441 560 _c
504 560 552 540 585 502 _c
617 463 634 407 634 333 _c
_cl}_d
/o{687 0 43 -13 644 560 _sc
344 435 _m
305 435 275 421 255 393 _c
235 365 225 325 225 273 _c
225 220 235 180 255 152 _c
275 124 305 111 344 111 _c
382 111 411 124 431 152 _c
451 180 462 220 462 273 _c
462 325 451 365 431 393 _c
411 421 382 435 344 435 _c
344 560 _m
438 560 511 534 564 484 _c
617 433 644 363 644 273 _c
644 183 617 112 564 62 _c
511 12 438 -13 344 -13 _c
250 -13 176 12 123 62 _c
69 112 43 183 43 273 _c
43 363 69 433 123 484 _c
176 534 250 560 344 560 _c
_cl}_d
/r{493 0 84 0 490 560 _sc
490 398 _m
474 405 459 410 444 414 _c
429 417 414 419 399 419 _c
354 419 319 404 295 376 _c
271 347 259 306 259 252 _c
259 0 _l
84 0 _l
84 547 _l
259 547 _l
259 457 _l
281 493 306 519 336 535 _c
365 551 400 560 441 560 _c
447 560 453 559 460 559 _c
466 559 476 558 490 556 _c
490 398 _l
_cl}_d
/u{{712 0 78 -13 628 547 _sc
78 213 _m
78 547 _l
254 547 _l
254 492 _l
254 462 253 425 253 380 _c
253 335 253 305 253 291 _c
253 247 254 215 256 196 _c
258 176 262 162 268 154 _c
275 142 284 133 296 127 _c
307 121 320 118 336 118 _c
372 118 401 132 422 160 _c
442 188 453 227 453 277 _c
453 547 _l
628 547 _l
628 0 _l
453 0 _l
453 79 _l
427 47 399 23 369 9 _c
}_e{339 -5 307 -13 272 -13 _c
208 -13 160 6 127 44 _c
94 82 78 139 78 213 _c
_cl}_e}_d
/y{652 0 12 -215 634 547 _sc
12 547 _m
187 547 _l
334 176 _l
459 547 _l
634 547 _l
404 -51 _l
380 -111 353 -154 323 -178 _c
292 -202 251 -215 201 -215 _c
100 -215 _l
100 -100 _l
155 -100 _l
184 -100 205 -95 219 -86 _c
233 -76 243 -59 251 -35 _c
256 -20 _l
12 547 _l
_cl}_d
end readonly def

/BuildGlyph
 {exch begin
 CharStrings exch
 2 copy known not{pop /.notdef}if
 true 3 1 roll get exec
 end}_d

/BuildChar {
 1 index /Encoding get exch get
 1 index /BuildGlyph get exec
}_d

FontName currentdict end definefont pop
end
%%EndProlog
mpldict begin
-117.533 80.488 translate
847.065 631.024 0 0 clipbox
gsave
0 0 m
847.065375 0 l
847.065375 631.023994 l
0 631.023994 l
cl
1.000 setgray
fill
grestore
gsave
52.4875 401.736421 m
761.2435 401.736421 l
761.2435 602.620869 l
52.4875 602.620869 l
cl
1.000 setgray
fill
grestore
0.800 setlinewidth
1 setlinejoin
0 setlinecap
[2.96 1.28] 0 setdash
0.800 setgray
gsave
708.8 200.9 52.49 401.7 clipbox
52.4875 401.736421 m
52.4875 602.620869 l
stroke
grestore
gsave
708.8 200.9 52.49 401.7 clipbox
64.3001 401.736421 m
64.3001 602.620869 l
stroke
grestore
gsave
708.8 200.9 52.49 401.7 clipbox
76.1127 401.736421 m
76.1127 602.620869 l
stroke
grestore
0.150 setgray
/DejaVuSans findfont
12.000 scalefont
setfont
gsave
72.016565 367.446995 translate
60.000000 rotate
0.000000 0.000000 m /A glyphshow
8.208984 0.000000 m /M glyphshow
18.562500 0.000000 m /G glyphshow
grestore
0.800 setgray
gsave
708.8 200.9 52.49 401.7 clipbox
87.9253 401.736421 m
87.9253 602.620869 l
stroke
grestore
gsave
708.8 200.9 52.49 401.7 clipbox
99.7379 401.736421 m
99.7379 602.620869 l
stroke
grestore
gsave
708.8 200.9 52.49 401.7 clipbox
111.5505 401.736421 m
111.5505 602.620869 l
stroke
grestore
gsave
708.8 200.9 52.49 401.7 clipbox
123.3631 401.736421 m
123.3631 602.620869 l
stroke
grestore
gsave
708.8 200.9 52.49 401.7 clipbox
135.1757 401.736421 m
135.1757 602.620869 l
stroke
grestore
0.150 setgray
gsave
119.017065 325.661269 translate
60.000000 rotate
0.000000 0.000000 m /C glyphshow
8.378906 0.000000 m /A glyphshow
16.587891 0.000000 m /N glyphshow
25.564453 0.000000 m /D glyphshow
34.804688 0.000000 m /L glyphshow
41.490234 0.000000 m /E glyphshow
49.072266 0.000000 m /space glyphshow
52.886719 0.000000 m /B glyphshow
61.119141 0.000000 m /e glyphshow
68.501953 0.000000 m /n glyphshow
grestore
0.800 setgray
gsave
708.8 200.9 52.49 401.7 clipbox
146.9883 401.736421 m
146.9883 602.620869 l
stroke
grestore
gsave
708.8 200.9 52.49 401.7 clipbox
158.8009 401.736421 m
158.8009 602.620869 l
stroke
grestore
gsave
708.8 200.9 52.49 401.7 clipbox
170.6135 401.736421 m
170.6135 602.620869 l
stroke
grestore
gsave
708.8 200.9 52.49 401.7 clipbox
182.4261 401.736421 m
182.4261 602.620869 l
stroke
grestore
gsave
708.8 200.9 52.49 401.7 clipbox
194.2387 401.736421 m
194.2387 602.620869 l
stroke
grestore
0.150 setgray
gsave
188.279284 360.992399 translate
60.000000 rotate
0.000000 0.000000 m /C glyphshow
8.378906 0.000000 m /o glyphshow
15.720703 0.000000 m /M glyphshow
26.074219 0.000000 m /D glyphshow
grestore
0.800 setgray
gsave
708.8 200.9 52.49 401.7 clipbox
206.0513 401.736421 m
206.0513 602.620869 l
stroke
grestore
gsave
708.8 200.9 52.49 401.7 clipbox
217.8639 401.736421 m
217.8639 602.620869 l
stroke
grestore
gsave
708.8 200.9 52.49 401.7 clipbox
229.6765 401.736421 m
229.6765 602.620869 l
stroke
grestore
gsave
708.8 200.9 52.49 401.7 clipbox
241.4891 401.736421 m
241.4891 602.620869 l
stroke
grestore
gsave
708.8 200.9 52.49 401.7 clipbox
253.3017 401.736421 m
253.3017 602.620869 l
stroke
grestore
0.150 setgray
gsave
245.451659 354.443082 translate
60.000000 rotate
0.000000 0.000000 m /L glyphshow
6.685547 0.000000 m /a glyphshow
14.039062 0.000000 m /g glyphshow
21.656250 0.000000 m /h glyphshow
29.261719 0.000000 m /o glyphshow
36.603516 0.000000 m /s glyphshow
grestore
0.800 setgray
gsave
708.8 200.9 52.49 401.7 clipbox
265.1143 401.736421 m
265.1143 602.620869 l
stroke
grestore
gsave
708.8 200.9 52.49 401.7 clipbox
276.9269 401.736421 m
276.9269 602.620869 l
stroke
grestore
gsave
708.8 200.9 52.49 401.7 clipbox
288.7395 401.736421 m
288.7395 602.620869 l
stroke
grestore
gsave
708.8 200.9 52.49 401.7 clipbox
300.5521 401.736421 m
300.5521 602.620869 l
stroke
grestore
gsave
708.8 200.9 52.49 401.7 clipbox
312.3647 401.736421 m
312.3647 602.620869 l
stroke
grestore
0.150 setgray
gsave
303.924815 352.399803 translate
60.000000 rotate
0.000000 0.000000 m /M glyphshow
10.353516 0.000000 m /A glyphshow
18.562500 0.000000 m /C glyphshow
26.941406 0.000000 m /S glyphshow
34.558594 0.000000 m /i glyphshow
37.892578 0.000000 m /o glyphshow
grestore
0.800 setgray
gsave
708.8 200.9 52.49 401.7 clipbox
324.1773 401.736421 m
324.1773 602.620869 l
stroke
grestore
gsave
708.8 200.9 52.49 401.7 clipbox
335.9899 401.736421 m
335.9899 602.620869 l
stroke
grestore
gsave
708.8 200.9 52.49 401.7 clipbox
347.8025 401.736421 m
347.8025 602.620869 l
stroke
grestore
gsave
708.8 200.9 52.49 401.7 clipbox
359.6151 401.736421 m
359.6151 602.620869 l
stroke
grestore
gsave
708.8 200.9 52.49 401.7 clipbox
371.4277 401.736421 m
371.4277 602.620869 l
stroke
grestore
0.150 setgray
gsave
361.081565 345.796360 translate
60.000000 rotate
0.000000 0.000000 m /m glyphshow
11.689453 0.000000 m /i glyphshow
15.023438 0.000000 m /n glyphshow
22.628906 0.000000 m /i glyphshow
25.962891 0.000000 m /A glyphshow
34.171875 0.000000 m /M glyphshow
44.525391 0.000000 m /R glyphshow
grestore
0.800 setgray
gsave
708.8 200.9 52.49 401.7 clipbox
383.2403 401.736421 m
383.2403 602.620869 l
stroke
grestore
gsave
708.8 200.9 52.49 401.7 clipbox
395.0529 401.736421 m
395.0529 602.620869 l
stroke
grestore
gsave
708.8 200.9 52.49 401.7 clipbox
406.8655 401.736421 m
406.8655 602.620869 l
stroke
grestore
gsave
708.8 200.9 52.49 401.7 clipbox
418.6781 401.736421 m
418.6781 602.620869 l
stroke
grestore
gsave
708.8 200.9 52.49 401.7 clipbox
430.4907 401.736421 m
430.4907 602.620869 l
stroke
grestore
0.150 setgray
gsave
423.250034 356.554019 translate
60.000000 rotate
0.000000 0.000000 m /m glyphshow
11.689453 0.000000 m /i glyphshow
15.023438 0.000000 m /n glyphshow
22.628906 0.000000 m /i glyphshow
25.962891 0.000000 m /F glyphshow
32.865234 0.000000 m /E glyphshow
grestore
0.800 setgray
gsave
708.8 200.9 52.49 401.7 clipbox
442.3033 401.736421 m
442.3033 602.620869 l
stroke
grestore
gsave
708.8 200.9 52.49 401.7 clipbox
454.1159 401.736421 m
454.1159 602.620869 l
stroke
grestore
gsave
708.8 200.9 52.49 401.7 clipbox
465.9285 401.736421 m
465.9285 602.620869 l
stroke
grestore
gsave
708.8 200.9 52.49 401.7 clipbox
477.7411 401.736421 m
477.7411 602.620869 l
stroke
grestore
gsave
708.8 200.9 52.49 401.7 clipbox
489.5537 401.736421 m
489.5537 602.620869 l
stroke
grestore
0.150 setgray
gsave
482.039597 355.606804 translate
60.000000 rotate
0.000000 0.000000 m /m glyphshow
11.689453 0.000000 m /i glyphshow
15.023438 0.000000 m /n glyphshow
22.628906 0.000000 m /i glyphshow
25.962891 0.000000 m /T glyphshow
33.277344 0.000000 m /r glyphshow
38.210938 0.000000 m /i glyphshow
grestore
0.800 setgray
gsave
708.8 200.9 52.49 401.7 clipbox
501.3663 401.736421 m
501.3663 602.620869 l
stroke
grestore
gsave
708.8 200.9 52.49 401.7 clipbox
513.1789 401.736421 m
513.1789 602.620869 l
stroke
grestore
gsave
708.8 200.9 52.49 401.7 clipbox
524.9915 401.736421 m
524.9915 602.620869 l
stroke
grestore
gsave
708.8 200.9 52.49 401.7 clipbox
536.8041 401.736421 m
536.8041 602.620869 l
stroke
grestore
gsave
708.8 200.9 52.49 401.7 clipbox
548.6167 401.736421 m
548.6167 602.620869 l
stroke
grestore
0.150 setgray
gsave
538.161190 345.417473 translate
60.000000 rotate
0.000000 0.000000 m /N glyphshow
8.976562 0.000000 m /e glyphshow
16.359375 0.000000 m /k glyphshow
23.308594 0.000000 m /b glyphshow
30.925781 0.000000 m /o glyphshow
38.267578 0.000000 m /n glyphshow
45.873047 0.000000 m /e glyphshow
grestore
0.800 setgray
gsave
708.8 200.9 52.49 401.7 clipbox
560.4293 401.736421 m
560.4293 602.620869 l
stroke
grestore
gsave
708.8 200.9 52.49 401.7 clipbox
572.2419 401.736421 m
572.2419 602.620869 l
stroke
grestore
gsave
708.8 200.9 52.49 401.7 clipbox
584.0545 401.736421 m
584.0545 602.620869 l
stroke
grestore
gsave
708.8 200.9 52.49 401.7 clipbox
595.8671 401.736421 m
595.8671 602.620869 l
stroke
grestore
gsave
708.8 200.9 52.49 401.7 clipbox
607.6797 401.736421 m
607.6797 602.620869 l
stroke
grestore
0.150 setgray
gsave
599.079659 351.845006 translate
60.000000 rotate
0.000000 0.000000 m /S glyphshow
7.617188 0.000000 m /W glyphshow
19.482422 0.000000 m /four glyphshow
27.117188 0.000000 m /l glyphshow
30.451172 0.000000 m /i glyphshow
33.785156 0.000000 m /t glyphshow
38.490234 0.000000 m /e glyphshow
grestore
0.800 setgray
gsave
708.8 200.9 52.49 401.7 clipbox
619.4923 401.736421 m
619.4923 602.620869 l
stroke
grestore
gsave
708.8 200.9 52.49 401.7 clipbox
631.3049 401.736421 m
631.3049 602.620869 l
stroke
grestore
gsave
708.8 200.9 52.49 401.7 clipbox
643.1175 401.736421 m
643.1175 602.620869 l
stroke
grestore
gsave
708.8 200.9 52.49 401.7 clipbox
654.9301 401.736421 m
654.9301 602.620869 l
stroke
grestore
gsave
708.8 200.9 52.49 401.7 clipbox
666.7427 401.736421 m
666.7427 602.620869 l
stroke
grestore
0.150 setgray
gsave
659.455159 356.391639 translate
60.000000 rotate
0.000000 0.000000 m /S glyphshow
7.617188 0.000000 m /W glyphshow
19.482422 0.000000 m /F glyphshow
26.384766 0.000000 m /F glyphshow
33.287109 0.000000 m /T glyphshow
grestore
0.800 setgray
gsave
708.8 200.9 52.49 401.7 clipbox
678.5553 401.736421 m
678.5553 602.620869 l
stroke
grestore
gsave
708.8 200.9 52.49 401.7 clipbox
690.3679 401.736421 m
690.3679 602.620869 l
stroke
grestore
gsave
708.8 200.9 52.49 401.7 clipbox
702.1805 401.736421 m
702.1805 602.620869 l
stroke
grestore
gsave
708.8 200.9 52.49 401.7 clipbox
713.9931 401.736421 m
713.9931 602.620869 l
stroke
grestore
gsave
708.8 200.9 52.49 401.7 clipbox
725.8057 401.736421 m
725.8057 602.620869 l
stroke
grestore
0.150 setgray
gsave
715.354097 345.431005 translate
60.000000 rotate
0.000000 0.000000 m /X glyphshow
8.220703 0.000000 m /S glyphshow
15.837891 0.000000 m /B glyphshow
24.070312 0.000000 m /e glyphshow
31.453125 0.000000 m /n glyphshow
39.058594 0.000000 m /c glyphshow
45.656250 0.000000 m /h glyphshow
grestore
0.800 setgray
gsave
708.8 200.9 52.49 401.7 clipbox
737.6183 401.736421 m
737.6183 602.620869 l
stroke
grestore
gsave
708.8 200.9 52.49 401.7 clipbox
749.4309 401.736421 m
749.4309 602.620869 l
stroke
grestore
gsave
708.8 200.9 52.49 401.7 clipbox
52.4875 401.736421 m
761.2435 401.736421 l
stroke
grestore
0.150 setgray
gsave
39.246875 397.173921 translate
0.000000 rotate
0.000000 0.000000 m /zero glyphshow
grestore
0.800 setgray
gsave
708.8 200.9 52.49 401.7 clipbox
52.4875 441.913311 m
761.2435 441.913311 l
stroke
grestore
0.150 setgray
gsave
31.606250 437.350811 translate
0.000000 rotate
0.000000 0.000000 m /two glyphshow
7.634766 0.000000 m /zero glyphshow
grestore
0.800 setgray
gsave
708.8 200.9 52.49 401.7 clipbox
52.4875 482.0902 m
761.2435 482.0902 l
stroke
grestore
0.150 setgray
gsave
31.606250 477.527700 translate
0.000000 rotate
0.000000 0.000000 m /four glyphshow
7.634766 0.000000 m /zero glyphshow
grestore
0.800 setgray
gsave
708.8 200.9 52.49 401.7 clipbox
52.4875 522.26709 m
761.2435 522.26709 l
stroke
grestore
0.150 setgray
gsave
31.606250 517.704590 translate
0.000000 rotate
0.000000 0.000000 m /six glyphshow
7.634766 0.000000 m /zero glyphshow
grestore
0.800 setgray
gsave
708.8 200.9 52.49 401.7 clipbox
52.4875 562.443979 m
761.2435 562.443979 l
stroke
grestore
0.150 setgray
gsave
31.606250 557.881479 translate
0.000000 rotate
0.000000 0.000000 m /eight glyphshow
7.634766 0.000000 m /zero glyphshow
grestore
0.800 setgray
gsave
708.8 200.9 52.49 401.7 clipbox
52.4875 602.620869 m
761.2435 602.620869 l
stroke
grestore
0.150 setgray
gsave
23.965625 598.058369 translate
0.000000 rotate
0.000000 0.000000 m /one glyphshow
7.634766 0.000000 m /zero glyphshow
15.269531 0.000000 m /zero glyphshow
grestore
/DejaVuSans findfont
13.200 scalefont
setfont
gsave
17.215625 451.209895 translate
90.000000 rotate
0.000000 0.000000 m /P glyphshow
7.952423 0.000000 m /e glyphshow
16.065826 0.000000 m /r glyphshow
21.487640 0.000000 m /c glyphshow
28.738190 0.000000 m /e glyphshow
36.851593 0.000000 m /n glyphshow
45.209686 0.000000 m /t glyphshow
50.380371 0.000000 m /a glyphshow
58.461578 0.000000 m /g glyphshow
66.832550 0.000000 m /e glyphshow
74.945953 0.000000 m /space glyphshow
79.137878 0.000000 m /bracketleft glyphshow
84.282806 0.000000 m /percent glyphshow
96.813507 0.000000 m /bracketright glyphshow
grestore
gsave
708.8 200.9 52.49 401.7 clipbox
cl
0.298 0.447 0.690 setrgbcolor
fill
grestore
gsave
708.8 200.9 52.49 401.7 clipbox
59.57506 401.736421 m
69.02514 401.736421 l
69.02514 491.732654 l
59.57506 491.732654 l
cl
0.298 0.447 0.690 setrgbcolor
fill
grestore
gsave
708.8 200.9 52.49 401.7 clipbox
cl
0.298 0.447 0.690 setrgbcolor
fill
grestore
gsave
708.8 200.9 52.49 401.7 clipbox
cl
0.298 0.447 0.690 setrgbcolor
fill
grestore
gsave
708.8 200.9 52.49 401.7 clipbox
cl
0.298 0.447 0.690 setrgbcolor
fill
grestore
gsave
708.8 200.9 52.49 401.7 clipbox
cl
0.298 0.447 0.690 setrgbcolor
fill
grestore
gsave
708.8 200.9 52.49 401.7 clipbox
118.63806 401.736421 m
128.08814 401.736421 l
128.08814 455.372569 l
118.63806 455.372569 l
cl
0.298 0.447 0.690 setrgbcolor
fill
grestore
gsave
708.8 200.9 52.49 401.7 clipbox
cl
0.298 0.447 0.690 setrgbcolor
fill
grestore
gsave
708.8 200.9 52.49 401.7 clipbox
cl
0.298 0.447 0.690 setrgbcolor
fill
grestore
gsave
708.8 200.9 52.49 401.7 clipbox
cl
0.298 0.447 0.690 setrgbcolor
fill
grestore
gsave
708.8 200.9 52.49 401.7 clipbox
cl
0.298 0.447 0.690 setrgbcolor
fill
grestore
gsave
708.8 200.9 52.49 401.7 clipbox
177.70106 401.736421 m
187.15114 401.736421 l
187.15114 404.749688 l
177.70106 404.749688 l
cl
0.298 0.447 0.690 setrgbcolor
fill
grestore
gsave
708.8 200.9 52.49 401.7 clipbox
cl
0.298 0.447 0.690 setrgbcolor
fill
grestore
gsave
708.8 200.9 52.49 401.7 clipbox
cl
0.298 0.447 0.690 setrgbcolor
fill
grestore
gsave
708.8 200.9 52.49 401.7 clipbox
cl
0.298 0.447 0.690 setrgbcolor
fill
grestore
gsave
708.8 200.9 52.49 401.7 clipbox
cl
0.298 0.447 0.690 setrgbcolor
fill
grestore
gsave
708.8 200.9 52.49 401.7 clipbox
236.76406 401.736421 m
246.21414 401.736421 l
246.21414 428.253168 l
236.76406 428.253168 l
cl
0.298 0.447 0.690 setrgbcolor
fill
grestore
gsave
708.8 200.9 52.49 401.7 clipbox
cl
0.298 0.447 0.690 setrgbcolor
fill
grestore
gsave
708.8 200.9 52.49 401.7 clipbox
cl
0.298 0.447 0.690 setrgbcolor
fill
grestore
gsave
708.8 200.9 52.49 401.7 clipbox
cl
0.298 0.447 0.690 setrgbcolor
fill
grestore
gsave
708.8 200.9 52.49 401.7 clipbox
cl
0.298 0.447 0.690 setrgbcolor
fill
grestore
gsave
708.8 200.9 52.49 401.7 clipbox
295.82706 401.736421 m
305.27714 401.736421 l
305.27714 403.343497 l
295.82706 403.343497 l
cl
0.298 0.447 0.690 setrgbcolor
fill
grestore
gsave
708.8 200.9 52.49 401.7 clipbox
cl
0.298 0.447 0.690 setrgbcolor
fill
grestore
gsave
708.8 200.9 52.49 401.7 clipbox
cl
0.298 0.447 0.690 setrgbcolor
fill
grestore
gsave
708.8 200.9 52.49 401.7 clipbox
cl
0.298 0.447 0.690 setrgbcolor
fill
grestore
gsave
708.8 200.9 52.49 401.7 clipbox
cl
0.298 0.447 0.690 setrgbcolor
fill
grestore
gsave
708.8 200.9 52.49 401.7 clipbox
354.89006 401.736421 m
364.34014 401.736421 l
364.34014 512.423752 l
354.89006 512.423752 l
cl
0.298 0.447 0.690 setrgbcolor
fill
grestore
gsave
708.8 200.9 52.49 401.7 clipbox
cl
0.298 0.447 0.690 setrgbcolor
fill
grestore
gsave
708.8 200.9 52.49 401.7 clipbox
cl
0.298 0.447 0.690 setrgbcolor
fill
grestore
gsave
708.8 200.9 52.49 401.7 clipbox
cl
0.298 0.447 0.690 setrgbcolor
fill
grestore
gsave
708.8 200.9 52.49 401.7 clipbox
cl
0.298 0.447 0.690 setrgbcolor
fill
grestore
gsave
708.8 200.9 52.49 401.7 clipbox
413.95306 401.736421 m
423.40314 401.736421 l
423.40314 512.624636 l
413.95306 512.624636 l
cl
0.298 0.447 0.690 setrgbcolor
fill
grestore
gsave
708.8 200.9 52.49 401.7 clipbox
cl
0.298 0.447 0.690 setrgbcolor
fill
grestore
gsave
708.8 200.9 52.49 401.7 clipbox
cl
0.298 0.447 0.690 setrgbcolor
fill
grestore
gsave
708.8 200.9 52.49 401.7 clipbox
cl
0.298 0.447 0.690 setrgbcolor
fill
grestore
gsave
708.8 200.9 52.49 401.7 clipbox
cl
0.298 0.447 0.690 setrgbcolor
fill
grestore
gsave
708.8 200.9 52.49 401.7 clipbox
473.01606 401.736421 m
482.46614 401.736421 l
482.46614 470.037133 l
473.01606 470.037133 l
cl
0.298 0.447 0.690 setrgbcolor
fill
grestore
gsave
708.8 200.9 52.49 401.7 clipbox
cl
0.298 0.447 0.690 setrgbcolor
fill
grestore
gsave
708.8 200.9 52.49 401.7 clipbox
cl
0.298 0.447 0.690 setrgbcolor
fill
grestore
gsave
708.8 200.9 52.49 401.7 clipbox
cl
0.298 0.447 0.690 setrgbcolor
fill
grestore
gsave
708.8 200.9 52.49 401.7 clipbox
cl
0.298 0.447 0.690 setrgbcolor
fill
grestore
gsave
708.8 200.9 52.49 401.7 clipbox
532.07906 401.736421 m
541.52914 401.736421 l
541.52914 475.862782 l
532.07906 475.862782 l
cl
0.298 0.447 0.690 setrgbcolor
fill
grestore
gsave
708.8 200.9 52.49 401.7 clipbox
cl
0.298 0.447 0.690 setrgbcolor
fill
grestore
gsave
708.8 200.9 52.49 401.7 clipbox
cl
0.298 0.447 0.690 setrgbcolor
fill
grestore
gsave
708.8 200.9 52.49 401.7 clipbox
cl
0.298 0.447 0.690 setrgbcolor
fill
grestore
gsave
708.8 200.9 52.49 401.7 clipbox
cl
0.298 0.447 0.690 setrgbcolor
fill
grestore
gsave
708.8 200.9 52.49 401.7 clipbox
591.14206 401.736421 m
600.59214 401.736421 l
600.59214 420.016906 l
591.14206 420.016906 l
cl
0.298 0.447 0.690 setrgbcolor
fill
grestore
gsave
708.8 200.9 52.49 401.7 clipbox
cl
0.298 0.447 0.690 setrgbcolor
fill
grestore
gsave
708.8 200.9 52.49 401.7 clipbox
cl
0.298 0.447 0.690 setrgbcolor
fill
grestore
gsave
708.8 200.9 52.49 401.7 clipbox
cl
0.298 0.447 0.690 setrgbcolor
fill
grestore
gsave
708.8 200.9 52.49 401.7 clipbox
cl
0.298 0.447 0.690 setrgbcolor
fill
grestore
gsave
708.8 200.9 52.49 401.7 clipbox
650.20506 401.736421 m
659.65514 401.736421 l
659.65514 458.58672 l
650.20506 458.58672 l
cl
0.298 0.447 0.690 setrgbcolor
fill
grestore
gsave
708.8 200.9 52.49 401.7 clipbox
cl
0.298 0.447 0.690 setrgbcolor
fill
grestore
gsave
708.8 200.9 52.49 401.7 clipbox
cl
0.298 0.447 0.690 setrgbcolor
fill
grestore
gsave
708.8 200.9 52.49 401.7 clipbox
cl
0.298 0.447 0.690 setrgbcolor
fill
grestore
gsave
708.8 200.9 52.49 401.7 clipbox
cl
0.298 0.447 0.690 setrgbcolor
fill
grestore
gsave
708.8 200.9 52.49 401.7 clipbox
709.26806 401.736421 m
718.71814 401.736421 l
718.71814 545.77057 l
709.26806 545.77057 l
cl
0.298 0.447 0.690 setrgbcolor
fill
grestore
gsave
708.8 200.9 52.49 401.7 clipbox
cl
0.298 0.447 0.690 setrgbcolor
fill
grestore
gsave
708.8 200.9 52.49 401.7 clipbox
cl
0.298 0.447 0.690 setrgbcolor
fill
grestore
gsave
708.8 200.9 52.49 401.7 clipbox
cl
0.298 0.447 0.690 setrgbcolor
fill
grestore
gsave
708.8 200.9 52.49 401.7 clipbox
cl
0.333 0.659 0.408 setrgbcolor
fill
grestore
gsave
708.8 200.9 52.49 401.7 clipbox
cl
0.333 0.659 0.408 setrgbcolor
fill
grestore
gsave
708.8 200.9 52.49 401.7 clipbox
71.38766 401.736421 m
80.83774 401.736421 l
80.83774 557.020099 l
71.38766 557.020099 l
cl
0.333 0.659 0.408 setrgbcolor
fill
grestore
gsave
708.8 200.9 52.49 401.7 clipbox
cl
0.333 0.659 0.408 setrgbcolor
fill
grestore
gsave
708.8 200.9 52.49 401.7 clipbox
cl
0.333 0.659 0.408 setrgbcolor
fill
grestore
gsave
708.8 200.9 52.49 401.7 clipbox
cl
0.333 0.659 0.408 setrgbcolor
fill
grestore
gsave
708.8 200.9 52.49 401.7 clipbox
cl
0.333 0.659 0.408 setrgbcolor
fill
grestore
gsave
708.8 200.9 52.49 401.7 clipbox
130.45066 401.736421 m
139.90074 401.736421 l
139.90074 537.132539 l
130.45066 537.132539 l
cl
0.333 0.659 0.408 setrgbcolor
fill
grestore
gsave
708.8 200.9 52.49 401.7 clipbox
cl
0.333 0.659 0.408 setrgbcolor
fill
grestore
gsave
708.8 200.9 52.49 401.7 clipbox
cl
0.333 0.659 0.408 setrgbcolor
fill
grestore
gsave
708.8 200.9 52.49 401.7 clipbox
cl
0.333 0.659 0.408 setrgbcolor
fill
grestore
gsave
708.8 200.9 52.49 401.7 clipbox
cl
0.333 0.659 0.408 setrgbcolor
fill
grestore
gsave
708.8 200.9 52.49 401.7 clipbox
189.51366 401.736421 m
198.96374 401.736421 l
198.96374 564.452824 l
189.51366 564.452824 l
cl
0.333 0.659 0.408 setrgbcolor
fill
grestore
gsave
708.8 200.9 52.49 401.7 clipbox
cl
0.333 0.659 0.408 setrgbcolor
fill
grestore
gsave
708.8 200.9 52.49 401.7 clipbox
cl
0.333 0.659 0.408 setrgbcolor
fill
grestore
gsave
708.8 200.9 52.49 401.7 clipbox
cl
0.333 0.659 0.408 setrgbcolor
fill
grestore
gsave
708.8 200.9 52.49 401.7 clipbox
cl
0.333 0.659 0.408 setrgbcolor
fill
grestore
gsave
708.8 200.9 52.49 401.7 clipbox
248.57666 401.736421 m
258.02674 401.736421 l
258.02674 449.346035 l
248.57666 449.346035 l
cl
0.333 0.659 0.408 setrgbcolor
fill
grestore
gsave
708.8 200.9 52.49 401.7 clipbox
cl
0.333 0.659 0.408 setrgbcolor
fill
grestore
gsave
708.8 200.9 52.49 401.7 clipbox
cl
0.333 0.659 0.408 setrgbcolor
fill
grestore
gsave
708.8 200.9 52.49 401.7 clipbox
cl
0.333 0.659 0.408 setrgbcolor
fill
grestore
gsave
708.8 200.9 52.49 401.7 clipbox
cl
0.333 0.659 0.408 setrgbcolor
fill
grestore
gsave
708.8 200.9 52.49 401.7 clipbox
307.63966 401.736421 m
317.08974 401.736421 l
317.08974 507.803409 l
307.63966 507.803409 l
cl
0.333 0.659 0.408 setrgbcolor
fill
grestore
gsave
708.8 200.9 52.49 401.7 clipbox
cl
0.333 0.659 0.408 setrgbcolor
fill
grestore
gsave
708.8 200.9 52.49 401.7 clipbox
cl
0.333 0.659 0.408 setrgbcolor
fill
grestore
gsave
708.8 200.9 52.49 401.7 clipbox
cl
0.333 0.659 0.408 setrgbcolor
fill
grestore
gsave
708.8 200.9 52.49 401.7 clipbox
cl
0.333 0.659 0.408 setrgbcolor
fill
grestore
gsave
708.8 200.9 52.49 401.7 clipbox
366.70266 401.736421 m
376.15274 401.736421 l
376.15274 554.207717 l
366.70266 554.207717 l
cl
0.333 0.659 0.408 setrgbcolor
fill
grestore
gsave
708.8 200.9 52.49 401.7 clipbox
cl
0.333 0.659 0.408 setrgbcolor
fill
grestore
gsave
708.8 200.9 52.49 401.7 clipbox
cl
0.333 0.659 0.408 setrgbcolor
fill
grestore
gsave
708.8 200.9 52.49 401.7 clipbox
cl
0.333 0.659 0.408 setrgbcolor
fill
grestore
gsave
708.8 200.9 52.49 401.7 clipbox
cl
0.333 0.659 0.408 setrgbcolor
fill
grestore
gsave
708.8 200.9 52.49 401.7 clipbox
425.76566 401.736421 m
435.21574 401.736421 l
435.21574 566.059899 l
425.76566 566.059899 l
cl
0.333 0.659 0.408 setrgbcolor
fill
grestore
gsave
708.8 200.9 52.49 401.7 clipbox
cl
0.333 0.659 0.408 setrgbcolor
fill
grestore
gsave
708.8 200.9 52.49 401.7 clipbox
cl
0.333 0.659 0.408 setrgbcolor
fill
grestore
gsave
708.8 200.9 52.49 401.7 clipbox
cl
0.333 0.659 0.408 setrgbcolor
fill
grestore
gsave
708.8 200.9 52.49 401.7 clipbox
cl
0.333 0.659 0.408 setrgbcolor
fill
grestore
gsave
708.8 200.9 52.49 401.7 clipbox
484.82866 401.736421 m
494.27874 401.736421 l
494.27874 566.260784 l
484.82866 566.260784 l
cl
0.333 0.659 0.408 setrgbcolor
fill
grestore
gsave
708.8 200.9 52.49 401.7 clipbox
cl
0.333 0.659 0.408 setrgbcolor
fill
grestore
gsave
708.8 200.9 52.49 401.7 clipbox
cl
0.333 0.659 0.408 setrgbcolor
fill
grestore
gsave
708.8 200.9 52.49 401.7 clipbox
cl
0.333 0.659 0.408 setrgbcolor
fill
grestore
gsave
708.8 200.9 52.49 401.7 clipbox
cl
0.333 0.659 0.408 setrgbcolor
fill
grestore
gsave
708.8 200.9 52.49 401.7 clipbox
543.89166 401.736421 m
553.34174 401.736421 l
553.34174 555.413023 l
543.89166 555.413023 l
cl
0.333 0.659 0.408 setrgbcolor
fill
grestore
gsave
708.8 200.9 52.49 401.7 clipbox
cl
0.333 0.659 0.408 setrgbcolor
fill
grestore
gsave
708.8 200.9 52.49 401.7 clipbox
cl
0.333 0.659 0.408 setrgbcolor
fill
grestore
gsave
708.8 200.9 52.49 401.7 clipbox
cl
0.333 0.659 0.408 setrgbcolor
fill
grestore
gsave
708.8 200.9 52.49 401.7 clipbox
cl
0.333 0.659 0.408 setrgbcolor
fill
grestore
gsave
708.8 200.9 52.49 401.7 clipbox
602.95466 401.736421 m
612.40474 401.736421 l
612.40474 563.649286 l
602.95466 563.649286 l
cl
0.333 0.659 0.408 setrgbcolor
fill
grestore
gsave
708.8 200.9 52.49 401.7 clipbox
cl
0.333 0.659 0.408 setrgbcolor
fill
grestore
gsave
708.8 200.9 52.49 401.7 clipbox
cl
0.333 0.659 0.408 setrgbcolor
fill
grestore
gsave
708.8 200.9 52.49 401.7 clipbox
cl
0.333 0.659 0.408 setrgbcolor
fill
grestore
gsave
708.8 200.9 52.49 401.7 clipbox
cl
0.333 0.659 0.408 setrgbcolor
fill
grestore
gsave
708.8 200.9 52.49 401.7 clipbox
662.01766 401.736421 m
671.46774 401.736421 l
671.46774 555.814792 l
662.01766 555.814792 l
cl
0.333 0.659 0.408 setrgbcolor
fill
grestore
gsave
708.8 200.9 52.49 401.7 clipbox
cl
0.333 0.659 0.408 setrgbcolor
fill
grestore
gsave
708.8 200.9 52.49 401.7 clipbox
cl
0.333 0.659 0.408 setrgbcolor
fill
grestore
gsave
708.8 200.9 52.49 401.7 clipbox
cl
0.333 0.659 0.408 setrgbcolor
fill
grestore
gsave
708.8 200.9 52.49 401.7 clipbox
cl
0.333 0.659 0.408 setrgbcolor
fill
grestore
gsave
708.8 200.9 52.49 401.7 clipbox
721.08066 401.736421 m
730.53074 401.736421 l
730.53074 589.965148 l
721.08066 589.965148 l
cl
0.333 0.659 0.408 setrgbcolor
fill
grestore
gsave
708.8 200.9 52.49 401.7 clipbox
cl
0.333 0.659 0.408 setrgbcolor
fill
grestore
gsave
708.8 200.9 52.49 401.7 clipbox
cl
0.333 0.659 0.408 setrgbcolor
fill
grestore
gsave
708.8 200.9 52.49 401.7 clipbox
cl
0.769 0.306 0.322 setrgbcolor
fill
grestore
gsave
708.8 200.9 52.49 401.7 clipbox
cl
0.769 0.306 0.322 setrgbcolor
fill
grestore
gsave
708.8 200.9 52.49 401.7 clipbox
cl
0.769 0.306 0.322 setrgbcolor
fill
grestore
gsave
708.8 200.9 52.49 401.7 clipbox
83.20026 401.736421 m
92.65034 401.736421 l
92.65034 553.203295 l
83.20026 553.203295 l
cl
0.769 0.306 0.322 setrgbcolor
fill
grestore
gsave
708.8 200.9 52.49 401.7 clipbox
cl
0.769 0.306 0.322 setrgbcolor
fill
grestore
gsave
708.8 200.9 52.49 401.7 clipbox
cl
0.769 0.306 0.322 setrgbcolor
fill
grestore
gsave
708.8 200.9 52.49 401.7 clipbox
cl
0.769 0.306 0.322 setrgbcolor
fill
grestore
gsave
708.8 200.9 52.49 401.7 clipbox
cl
0.769 0.306 0.322 setrgbcolor
fill
grestore
gsave
708.8 200.9 52.49 401.7 clipbox
142.26326 401.736421 m
151.71334 401.736421 l
151.71334 567.265206 l
142.26326 567.265206 l
cl
0.769 0.306 0.322 setrgbcolor
fill
grestore
gsave
708.8 200.9 52.49 401.7 clipbox
cl
0.769 0.306 0.322 setrgbcolor
fill
grestore
gsave
708.8 200.9 52.49 401.7 clipbox
cl
0.769 0.306 0.322 setrgbcolor
fill
grestore
gsave
708.8 200.9 52.49 401.7 clipbox
cl
0.769 0.306 0.322 setrgbcolor
fill
grestore
gsave
708.8 200.9 52.49 401.7 clipbox
cl
0.769 0.306 0.322 setrgbcolor
fill
grestore
gsave
708.8 200.9 52.49 401.7 clipbox
201.32626 401.736421 m
210.77634 401.736421 l
210.77634 537.333423 l
201.32626 537.333423 l
cl
0.769 0.306 0.322 setrgbcolor
fill
grestore
gsave
708.8 200.9 52.49 401.7 clipbox
cl
0.769 0.306 0.322 setrgbcolor
fill
grestore
gsave
708.8 200.9 52.49 401.7 clipbox
cl
0.769 0.306 0.322 setrgbcolor
fill
grestore
gsave
708.8 200.9 52.49 401.7 clipbox
cl
0.769 0.306 0.322 setrgbcolor
fill
grestore
gsave
708.8 200.9 52.49 401.7 clipbox
cl
0.769 0.306 0.322 setrgbcolor
fill
grestore
gsave
708.8 200.9 52.49 401.7 clipbox
260.38926 401.736421 m
269.83934 401.736421 l
269.83934 452.158417 l
260.38926 452.158417 l
cl
0.769 0.306 0.322 setrgbcolor
fill
grestore
gsave
708.8 200.9 52.49 401.7 clipbox
cl
0.769 0.306 0.322 setrgbcolor
fill
grestore
gsave
708.8 200.9 52.49 401.7 clipbox
cl
0.769 0.306 0.322 setrgbcolor
fill
grestore
gsave
708.8 200.9 52.49 401.7 clipbox
cl
0.769 0.306 0.322 setrgbcolor
fill
grestore
gsave
708.8 200.9 52.49 401.7 clipbox
cl
0.769 0.306 0.322 setrgbcolor
fill
grestore
gsave
708.8 200.9 52.49 401.7 clipbox
319.45226 401.736421 m
328.90234 401.736421 l
328.90234 509.812254 l
319.45226 509.812254 l
cl
0.769 0.306 0.322 setrgbcolor
fill
grestore
gsave
708.8 200.9 52.49 401.7 clipbox
cl
0.769 0.306 0.322 setrgbcolor
fill
grestore
gsave
708.8 200.9 52.49 401.7 clipbox
cl
0.769 0.306 0.322 setrgbcolor
fill
grestore
gsave
708.8 200.9 52.49 401.7 clipbox
cl
0.769 0.306 0.322 setrgbcolor
fill
grestore
gsave
708.8 200.9 52.49 401.7 clipbox
cl
0.769 0.306 0.322 setrgbcolor
fill
grestore
gsave
708.8 200.9 52.49 401.7 clipbox
378.51526 401.736421 m
387.96534 401.736421 l
387.96534 553.00241 l
378.51526 553.00241 l
cl
0.769 0.306 0.322 setrgbcolor
fill
grestore
gsave
708.8 200.9 52.49 401.7 clipbox
cl
0.769 0.306 0.322 setrgbcolor
fill
grestore
gsave
708.8 200.9 52.49 401.7 clipbox
cl
0.769 0.306 0.322 setrgbcolor
fill
grestore
gsave
708.8 200.9 52.49 401.7 clipbox
cl
0.769 0.306 0.322 setrgbcolor
fill
grestore
gsave
708.8 200.9 52.49 401.7 clipbox
cl
0.769 0.306 0.322 setrgbcolor
fill
grestore
gsave
708.8 200.9 52.49 401.7 clipbox
437.57826 401.736421 m
447.02834 401.736421 l
447.02834 513.428174 l
437.57826 513.428174 l
cl
0.769 0.306 0.322 setrgbcolor
fill
grestore
gsave
708.8 200.9 52.49 401.7 clipbox
cl
0.769 0.306 0.322 setrgbcolor
fill
grestore
gsave
708.8 200.9 52.49 401.7 clipbox
cl
0.769 0.306 0.322 setrgbcolor
fill
grestore
gsave
708.8 200.9 52.49 401.7 clipbox
cl
0.769 0.306 0.322 setrgbcolor
fill
grestore
gsave
708.8 200.9 52.49 401.7 clipbox
cl
0.769 0.306 0.322 setrgbcolor
fill
grestore
gsave
708.8 200.9 52.49 401.7 clipbox
496.64126 401.736421 m
506.09134 401.736421 l
506.09134 564.251939 l
496.64126 564.251939 l
cl
0.769 0.306 0.322 setrgbcolor
fill
grestore
gsave
708.8 200.9 52.49 401.7 clipbox
cl
0.769 0.306 0.322 setrgbcolor
fill
grestore
gsave
708.8 200.9 52.49 401.7 clipbox
cl
0.769 0.306 0.322 setrgbcolor
fill
grestore
gsave
708.8 200.9 52.49 401.7 clipbox
cl
0.769 0.306 0.322 setrgbcolor
fill
grestore
gsave
708.8 200.9 52.49 401.7 clipbox
cl
0.769 0.306 0.322 setrgbcolor
fill
grestore
gsave
708.8 200.9 52.49 401.7 clipbox
555.70426 401.736421 m
565.15434 401.736421 l
565.15434 554.609486 l
555.70426 554.609486 l
cl
0.769 0.306 0.322 setrgbcolor
fill
grestore
gsave
708.8 200.9 52.49 401.7 clipbox
cl
0.769 0.306 0.322 setrgbcolor
fill
grestore
gsave
708.8 200.9 52.49 401.7 clipbox
cl
0.769 0.306 0.322 setrgbcolor
fill
grestore
gsave
708.8 200.9 52.49 401.7 clipbox
cl
0.769 0.306 0.322 setrgbcolor
fill
grestore
gsave
708.8 200.9 52.49 401.7 clipbox
cl
0.769 0.306 0.322 setrgbcolor
fill
grestore
gsave
708.8 200.9 52.49 401.7 clipbox
614.76726 401.736421 m
624.21734 401.736421 l
624.21734 565.055477 l
614.76726 565.055477 l
cl
0.769 0.306 0.322 setrgbcolor
fill
grestore
gsave
708.8 200.9 52.49 401.7 clipbox
cl
0.769 0.306 0.322 setrgbcolor
fill
grestore
gsave
708.8 200.9 52.49 401.7 clipbox
cl
0.769 0.306 0.322 setrgbcolor
fill
grestore
gsave
708.8 200.9 52.49 401.7 clipbox
cl
0.769 0.306 0.322 setrgbcolor
fill
grestore
gsave
708.8 200.9 52.49 401.7 clipbox
cl
0.769 0.306 0.322 setrgbcolor
fill
grestore
gsave
708.8 200.9 52.49 401.7 clipbox
673.83026 401.736421 m
683.28034 401.736421 l
683.28034 556.819215 l
673.83026 556.819215 l
cl
0.769 0.306 0.322 setrgbcolor
fill
grestore
gsave
708.8 200.9 52.49 401.7 clipbox
cl
0.769 0.306 0.322 setrgbcolor
fill
grestore
gsave
708.8 200.9 52.49 401.7 clipbox
cl
0.769 0.306 0.322 setrgbcolor
fill
grestore
gsave
708.8 200.9 52.49 401.7 clipbox
cl
0.769 0.306 0.322 setrgbcolor
fill
grestore
gsave
708.8 200.9 52.49 401.7 clipbox
cl
0.769 0.306 0.322 setrgbcolor
fill
grestore
gsave
708.8 200.9 52.49 401.7 clipbox
732.89326 401.736421 m
742.34334 401.736421 l
742.34334 585.545691 l
732.89326 585.545691 l
cl
0.769 0.306 0.322 setrgbcolor
fill
grestore
gsave
708.8 200.9 52.49 401.7 clipbox
cl
0.769 0.306 0.322 setrgbcolor
fill
grestore
1.000 setlinewidth
0 setlinejoin
2 setlinecap
[] 0 setdash
0.800 setgray
gsave
52.4875 401.736421 m
52.4875 602.620869 l
stroke
grestore
gsave
761.2435 401.736421 m
761.2435 602.620869 l
stroke
grestore
gsave
52.4875 401.736421 m
761.2435 401.736421 l
stroke
grestore
gsave
52.4875 602.620869 m
761.2435 602.620869 l
stroke
grestore
0.150 setgray
/DejaVuSans-Bold findfont
20.000 scalefont
setfont
gsave
27.771750 608.620869 translate
0.000000 rotate
0.000000 0.000000 m /B glyphshow
15.244141 0.000000 m /o glyphshow
28.984375 0.000000 m /u glyphshow
43.222656 0.000000 m /n glyphshow
57.460938 0.000000 m /d glyphshow
71.777344 0.000000 m /e glyphshow
85.341797 0.000000 m /d glyphshow
99.658203 0.000000 m /space glyphshow
106.621094 0.000000 m /b glyphshow
120.937500 0.000000 m /y glyphshow
133.974609 0.000000 m /space glyphshow
140.937500 0.000000 m /M glyphshow
160.839844 0.000000 m /e glyphshow
174.404297 0.000000 m /m glyphshow
195.244141 0.000000 m /o glyphshow
208.984375 0.000000 m /r glyphshow
218.847656 0.000000 m /y glyphshow
231.884766 0.000000 m /parenleft glyphshow
241.025391 0.000000 m /X glyphshow
256.445312 0.000000 m /e glyphshow
270.009766 0.000000 m /o glyphshow
283.750000 0.000000 m /n glyphshow
297.988281 0.000000 m /equal glyphshow
314.746094 0.000000 m /b glyphshow
329.062500 0.000000 m /l glyphshow
335.917969 0.000000 m /u glyphshow
350.156250 0.000000 m /e glyphshow
363.720703 0.000000 m /parenright glyphshow
372.861328 0.000000 m /space glyphshow
379.824219 0.000000 m /slash glyphshow
387.128906 0.000000 m /space glyphshow
394.091797 0.000000 m /B glyphshow
409.335938 0.000000 m /a glyphshow
422.832031 0.000000 m /c glyphshow
434.687500 0.000000 m /k glyphshow
447.988281 0.000000 m /hyphen glyphshow
456.289062 0.000000 m /e glyphshow
469.853516 0.000000 m /n glyphshow
484.091797 0.000000 m /d glyphshow
498.408203 0.000000 m /parenleft glyphshow
507.548828 0.000000 m /K glyphshow
523.046875 0.000000 m /N glyphshow
539.785156 0.000000 m /L glyphshow
552.529297 0.000000 m /equal glyphshow
569.287109 0.000000 m /g glyphshow
583.603516 0.000000 m /r glyphshow
593.466797 0.000000 m /e glyphshow
607.031250 0.000000 m /e glyphshow
620.595703 0.000000 m /n glyphshow
634.833984 0.000000 m /comma glyphshow
642.431641 0.000000 m /K glyphshow
657.929688 0.000000 m /N glyphshow
674.667969 0.000000 m /M glyphshow
694.570312 0.000000 m /equal glyphshow
711.328125 0.000000 m /r glyphshow
721.191406 0.000000 m /e glyphshow
734.755859 0.000000 m /d glyphshow
749.072266 0.000000 m /parenright glyphshow
grestore
gsave
52.4875 86.676684 m
761.2435 86.676684 l
761.2435 287.561132 l
52.4875 287.561132 l
cl
1.000 setgray
fill
grestore
0.800 setlinewidth
1 setlinejoin
0 setlinecap
[2.96 1.28] 0 setdash
0.800 setgray
gsave
708.8 200.9 52.49 86.68 clipbox
52.4875 86.676684 m
52.4875 287.561132 l
stroke
grestore
gsave
708.8 200.9 52.49 86.68 clipbox
64.3001 86.676684 m
64.3001 287.561132 l
stroke
grestore
gsave
708.8 200.9 52.49 86.68 clipbox
76.1127 86.676684 m
76.1127 287.561132 l
stroke
grestore
0.150 setgray
/DejaVuSans findfont
12.000 scalefont
setfont
gsave
65.168909 28.666281 translate
60.000000 rotate
0.000000 0.000000 m /C glyphshow
8.378906 0.000000 m /C glyphshow
16.757812 0.000000 m /S glyphshow
24.375000 0.000000 m /space glyphshow
28.189453 0.000000 m /Q glyphshow
37.634766 0.000000 m /C glyphshow
46.013672 0.000000 m /D glyphshow
grestore
0.800 setgray
gsave
708.8 200.9 52.49 86.68 clipbox
87.9253 86.676684 m
87.9253 287.561132 l
stroke
grestore
gsave
708.8 200.9 52.49 86.68 clipbox
99.7379 86.676684 m
99.7379 287.561132 l
stroke
grestore
gsave
708.8 200.9 52.49 86.68 clipbox
111.5505 86.676684 m
111.5505 287.561132 l
stroke
grestore
gsave
708.8 200.9 52.49 86.68 clipbox
123.3631 86.676684 m
123.3631 287.561132 l
stroke
grestore
gsave
708.8 200.9 52.49 86.68 clipbox
135.1757 86.676684 m
135.1757 287.561132 l
stroke
grestore
0.150 setgray
gsave
122.755347 23.551318 translate
60.000000 rotate
0.000000 0.000000 m /F glyphshow
6.902344 0.000000 m /F glyphshow
13.804688 0.000000 m /V glyphshow
22.013672 0.000000 m /C glyphshow
30.392578 0.000000 m /hyphen glyphshow
34.722656 0.000000 m /M glyphshow
45.076172 0.000000 m /I glyphshow
48.615234 0.000000 m /N glyphshow
57.591797 0.000000 m /I glyphshow
grestore
0.800 setgray
gsave
708.8 200.9 52.49 86.68 clipbox
146.9883 86.676684 m
146.9883 287.561132 l
stroke
grestore
gsave
708.8 200.9 52.49 86.68 clipbox
158.8009 86.676684 m
158.8009 287.561132 l
stroke
grestore
gsave
708.8 200.9 52.49 86.68 clipbox
170.6135 86.676684 m
170.6135 287.561132 l
stroke
grestore
gsave
708.8 200.9 52.49 86.68 clipbox
182.4261 86.676684 m
182.4261 287.561132 l
stroke
grestore
gsave
708.8 200.9 52.49 86.68 clipbox
194.2387 86.676684 m
194.2387 287.561132 l
stroke
grestore
0.150 setgray
gsave
178.083972 10.615064 translate
60.000000 rotate
0.000000 0.000000 m /N glyphshow
8.976562 0.000000 m /I glyphshow
12.515625 0.000000 m /C glyphshow
20.894531 0.000000 m /A glyphshow
29.103516 0.000000 m /M glyphshow
39.457031 0.000000 m /hyphen glyphshow
43.787109 0.000000 m /D glyphshow
53.027344 0.000000 m /C glyphshow
61.406250 0.000000 m /hyphen glyphshow
65.736328 0.000000 m /M glyphshow
grestore
0.800 setgray
gsave
708.8 200.9 52.49 86.68 clipbox
206.0513 86.676684 m
206.0513 287.561132 l
stroke
grestore
gsave
708.8 200.9 52.49 86.68 clipbox
217.8639 86.676684 m
217.8639 287.561132 l
stroke
grestore
gsave
708.8 200.9 52.49 86.68 clipbox
229.6765 86.676684 m
229.6765 287.561132 l
stroke
grestore
gsave
708.8 200.9 52.49 86.68 clipbox
241.4891 86.676684 m
241.4891 287.561132 l
stroke
grestore
gsave
708.8 200.9 52.49 86.68 clipbox
253.3017 86.676684 m
253.3017 287.561132 l
stroke
grestore
0.150 setgray
gsave
238.822753 16.420140 translate
60.000000 rotate
0.000000 0.000000 m /m glyphshow
11.689453 0.000000 m /V glyphshow
19.898438 0.000000 m /M glyphshow
30.251953 0.000000 m /C glyphshow
38.630859 0.000000 m /hyphen glyphshow
42.960938 0.000000 m /M glyphshow
53.314453 0.000000 m /I glyphshow
56.853516 0.000000 m /N glyphshow
65.830078 0.000000 m /I glyphshow
grestore
0.800 setgray
gsave
708.8 200.9 52.49 86.68 clipbox
265.1143 86.676684 m
265.1143 287.561132 l
stroke
grestore
gsave
708.8 200.9 52.49 86.68 clipbox
276.9269 86.676684 m
276.9269 287.561132 l
stroke
grestore
gsave
708.8 200.9 52.49 86.68 clipbox
288.7395 86.676684 m
288.7395 287.561132 l
stroke
grestore
gsave
708.8 200.9 52.49 86.68 clipbox
300.5521 86.676684 m
300.5521 287.561132 l
stroke
grestore
gsave
708.8 200.9 52.49 86.68 clipbox
312.3647 86.676684 m
312.3647 287.561132 l
stroke
grestore
0.150 setgray
gsave
297.827159 16.217165 translate
60.000000 rotate
0.000000 0.000000 m /N glyphshow
8.976562 0.000000 m /G glyphshow
18.275391 0.000000 m /S glyphshow
25.892578 0.000000 m /space glyphshow
29.707031 0.000000 m /A glyphshow
37.916016 0.000000 m /n glyphshow
45.521484 0.000000 m /a glyphshow
52.875000 0.000000 m /l glyphshow
56.208984 0.000000 m /y glyphshow
63.310547 0.000000 m /z glyphshow
grestore
0.800 setgray
gsave
708.8 200.9 52.49 86.68 clipbox
324.1773 86.676684 m
324.1773 287.561132 l
stroke
grestore
gsave
708.8 200.9 52.49 86.68 clipbox
335.9899 86.676684 m
335.9899 287.561132 l
stroke
grestore
gsave
708.8 200.9 52.49 86.68 clipbox
347.8025 86.676684 m
347.8025 287.561132 l
stroke
grestore
gsave
708.8 200.9 52.49 86.68 clipbox
359.6151 86.676684 m
359.6151 287.561132 l
stroke
grestore
gsave
708.8 200.9 52.49 86.68 clipbox
371.4277 86.676684 m
371.4277 287.561132 l
stroke
grestore
0.150 setgray
gsave
355.015159 9.721975 translate
60.000000 rotate
0.000000 0.000000 m /M glyphshow
10.353516 0.000000 m /O glyphshow
19.798828 0.000000 m /D glyphshow
29.039062 0.000000 m /Y glyphshow
36.369141 0.000000 m /L glyphshow
43.054688 0.000000 m /A glyphshow
51.263672 0.000000 m /S glyphshow
58.880859 0.000000 m /hyphen glyphshow
63.210938 0.000000 m /M glyphshow
73.564453 0.000000 m /I glyphshow
grestore
0.800 setgray
gsave
708.8 200.9 52.49 86.68 clipbox
383.2403 86.676684 m
383.2403 287.561132 l
stroke
grestore
gsave
708.8 200.9 52.49 86.68 clipbox
395.0529 86.676684 m
395.0529 287.561132 l
stroke
grestore
gsave
708.8 200.9 52.49 86.68 clipbox
406.8655 86.676684 m
406.8655 287.561132 l
stroke
grestore
gsave
708.8 200.9 52.49 86.68 clipbox
418.6781 86.676684 m
418.6781 287.561132 l
stroke
grestore
gsave
708.8 200.9 52.49 86.68 clipbox
430.4907 86.676684 m
430.4907 287.561132 l
stroke
grestore
0.150 setgray
gsave
413.710972 8.450000 translate
60.000000 rotate
0.000000 0.000000 m /N glyphshow
8.976562 0.000000 m /T glyphshow
16.306641 0.000000 m /C glyphshow
24.685547 0.000000 m /h glyphshow
32.291016 0.000000 m /e glyphshow
39.673828 0.000000 m /m glyphshow
51.363281 0.000000 m /hyphen glyphshow
55.693359 0.000000 m /M glyphshow
66.046875 0.000000 m /I glyphshow
69.585938 0.000000 m /N glyphshow
grestore
0.800 setgray
gsave
708.8 200.9 52.49 86.68 clipbox
442.3033 86.676684 m
442.3033 287.561132 l
stroke
grestore
gsave
708.8 200.9 52.49 86.68 clipbox
454.1159 86.676684 m
454.1159 287.561132 l
stroke
grestore
gsave
708.8 200.9 52.49 86.68 clipbox
465.9285 86.676684 m
465.9285 287.561132 l
stroke
grestore
gsave
708.8 200.9 52.49 86.68 clipbox
477.7411 86.676684 m
477.7411 287.561132 l
stroke
grestore
gsave
708.8 200.9 52.49 86.68 clipbox
489.5537 86.676684 m
489.5537 287.561132 l
stroke
grestore
0.150 setgray
gsave
479.219284 30.777217 translate
60.000000 rotate
0.000000 0.000000 m /F glyphshow
6.902344 0.000000 m /F glyphshow
13.804688 0.000000 m /B glyphshow
22.037109 0.000000 m /hyphen glyphshow
26.367188 0.000000 m /M glyphshow
36.720703 0.000000 m /I glyphshow
40.259766 0.000000 m /N glyphshow
49.236328 0.000000 m /I glyphshow
grestore
0.800 setgray
gsave
708.8 200.9 52.49 86.68 clipbox
501.3663 86.676684 m
501.3663 287.561132 l
stroke
grestore
gsave
708.8 200.9 52.49 86.68 clipbox
513.1789 86.676684 m
513.1789 287.561132 l
stroke
grestore
gsave
708.8 200.9 52.49 86.68 clipbox
524.9915 86.676684 m
524.9915 287.561132 l
stroke
grestore
gsave
708.8 200.9 52.49 86.68 clipbox
536.8041 86.676684 m
536.8041 287.561132 l
stroke
grestore
gsave
708.8 200.9 52.49 86.68 clipbox
548.6167 86.676684 m
548.6167 287.561132 l
stroke
grestore
0.150 setgray
gsave
545.747128 56.636195 translate
60.000000 rotate
0.000000 0.000000 m /H glyphshow
9.023438 0.000000 m /P glyphshow
16.259766 0.000000 m /L glyphshow
grestore
0.800 setgray
gsave
708.8 200.9 52.49 86.68 clipbox
560.4293 86.676684 m
560.4293 287.561132 l
stroke
grestore
gsave
708.8 200.9 52.49 86.68 clipbox
572.2419 86.676684 m
572.2419 287.561132 l
stroke
grestore
gsave
708.8 200.9 52.49 86.68 clipbox
584.0545 86.676684 m
584.0545 287.561132 l
stroke
grestore
gsave
708.8 200.9 52.49 86.68 clipbox
595.8671 86.676684 m
595.8671 287.561132 l
stroke
grestore
gsave
708.8 200.9 52.49 86.68 clipbox
607.6797 86.676684 m
607.6797 287.561132 l
stroke
grestore
0.150 setgray
gsave
602.064034 47.123447 translate
60.000000 rotate
0.000000 0.000000 m /H glyphshow
9.023438 0.000000 m /P glyphshow
16.259766 0.000000 m /C glyphshow
24.638672 0.000000 m /G glyphshow
grestore
0.800 setgray
gsave
708.8 200.9 52.49 86.68 clipbox
619.4923 86.676684 m
619.4923 287.561132 l
stroke
grestore
gsave
708.8 200.9 52.49 86.68 clipbox
631.3049 86.676684 m
631.3049 287.561132 l
stroke
grestore
gsave
708.8 200.9 52.49 86.68 clipbox
643.1175 86.676684 m
643.1175 287.561132 l
stroke
grestore
gsave
708.8 200.9 52.49 86.68 clipbox
654.9301 86.676684 m
654.9301 287.561132 l
stroke
grestore
gsave
708.8 200.9 52.49 86.68 clipbox
666.7427 86.676684 m
666.7427 287.561132 l
stroke
grestore
0.150 setgray
gsave
653.123128 19.397102 translate
60.000000 rotate
0.000000 0.000000 m /B glyphshow
8.232422 0.000000 m /a glyphshow
15.585938 0.000000 m /b glyphshow
23.203125 0.000000 m /e glyphshow
30.585938 0.000000 m /l glyphshow
33.919922 0.000000 m /S glyphshow
41.537109 0.000000 m /t glyphshow
46.242188 0.000000 m /r glyphshow
51.175781 0.000000 m /e glyphshow
58.558594 0.000000 m /a glyphshow
grestore
0.800 setgray
gsave
708.8 200.9 52.49 86.68 clipbox
678.5553 86.676684 m
678.5553 287.561132 l
stroke
grestore
gsave
708.8 200.9 52.49 86.68 clipbox
690.3679 86.676684 m
690.3679 287.561132 l
stroke
grestore
gsave
708.8 200.9 52.49 86.68 clipbox
702.1805 86.676684 m
702.1805 287.561132 l
stroke
grestore
gsave
708.8 200.9 52.49 86.68 clipbox
713.9931 86.676684 m
713.9931 287.561132 l
stroke
grestore
gsave
708.8 200.9 52.49 86.68 clipbox
725.8057 86.676684 m
725.8057 287.561132 l
stroke
grestore
0.150 setgray
gsave
712.186128 19.397102 translate
60.000000 rotate
0.000000 0.000000 m /B glyphshow
8.232422 0.000000 m /a glyphshow
15.585938 0.000000 m /b glyphshow
23.203125 0.000000 m /e glyphshow
30.585938 0.000000 m /l glyphshow
33.919922 0.000000 m /S glyphshow
41.537109 0.000000 m /t glyphshow
46.242188 0.000000 m /r glyphshow
51.175781 0.000000 m /e glyphshow
58.558594 0.000000 m /a glyphshow
grestore
0.800 setgray
gsave
708.8 200.9 52.49 86.68 clipbox
737.6183 86.676684 m
737.6183 287.561132 l
stroke
grestore
gsave
708.8 200.9 52.49 86.68 clipbox
749.4309 86.676684 m
749.4309 287.561132 l
stroke
grestore
gsave
708.8 200.9 52.49 86.68 clipbox
52.4875 86.676684 m
761.2435 86.676684 l
stroke
grestore
0.150 setgray
gsave
39.246875 82.114184 translate
0.000000 rotate
0.000000 0.000000 m /zero glyphshow
grestore
0.800 setgray
gsave
708.8 200.9 52.49 86.68 clipbox
52.4875 126.853574 m
761.2435 126.853574 l
stroke
grestore
0.150 setgray
gsave
31.606250 122.291074 translate
0.000000 rotate
0.000000 0.000000 m /two glyphshow
7.634766 0.000000 m /zero glyphshow
grestore
0.800 setgray
gsave
708.8 200.9 52.49 86.68 clipbox
52.4875 167.030463 m
761.2435 167.030463 l
stroke
grestore
0.150 setgray
gsave
31.606250 162.467963 translate
0.000000 rotate
0.000000 0.000000 m /four glyphshow
7.634766 0.000000 m /zero glyphshow
grestore
0.800 setgray
gsave
708.8 200.9 52.49 86.68 clipbox
52.4875 207.207353 m
761.2435 207.207353 l
stroke
grestore
0.150 setgray
gsave
31.606250 202.644853 translate
0.000000 rotate
0.000000 0.000000 m /six glyphshow
7.634766 0.000000 m /zero glyphshow
grestore
0.800 setgray
gsave
708.8 200.9 52.49 86.68 clipbox
52.4875 247.384242 m
761.2435 247.384242 l
stroke
grestore
0.150 setgray
gsave
31.606250 242.821742 translate
0.000000 rotate
0.000000 0.000000 m /eight glyphshow
7.634766 0.000000 m /zero glyphshow
grestore
0.800 setgray
gsave
708.8 200.9 52.49 86.68 clipbox
52.4875 287.561132 m
761.2435 287.561132 l
stroke
grestore
0.150 setgray
gsave
23.965625 282.998632 translate
0.000000 rotate
0.000000 0.000000 m /one glyphshow
7.634766 0.000000 m /zero glyphshow
15.269531 0.000000 m /zero glyphshow
grestore
/DejaVuSans findfont
13.200 scalefont
setfont
gsave
17.215625 136.150158 translate
90.000000 rotate
0.000000 0.000000 m /P glyphshow
7.952423 0.000000 m /e glyphshow
16.065826 0.000000 m /r glyphshow
21.487640 0.000000 m /c glyphshow
28.738190 0.000000 m /e glyphshow
36.851593 0.000000 m /n glyphshow
45.209686 0.000000 m /t glyphshow
50.380371 0.000000 m /a glyphshow
58.461578 0.000000 m /g glyphshow
66.832550 0.000000 m /e glyphshow
74.945953 0.000000 m /space glyphshow
79.137878 0.000000 m /bracketleft glyphshow
84.282806 0.000000 m /percent glyphshow
96.813507 0.000000 m /bracketright glyphshow
grestore
gsave
708.8 200.9 52.49 86.68 clipbox
cl
0.298 0.447 0.690 setrgbcolor
fill
grestore
gsave
708.8 200.9 52.49 86.68 clipbox
59.57506 86.676684 m
69.02514 86.676684 l
69.02514 177.476454 l
59.57506 177.476454 l
cl
0.298 0.447 0.690 setrgbcolor
fill
grestore
gsave
708.8 200.9 52.49 86.68 clipbox
cl
0.298 0.447 0.690 setrgbcolor
fill
grestore
gsave
708.8 200.9 52.49 86.68 clipbox
cl
0.298 0.447 0.690 setrgbcolor
fill
grestore
gsave
708.8 200.9 52.49 86.68 clipbox
cl
0.298 0.447 0.690 setrgbcolor
fill
grestore
gsave
708.8 200.9 52.49 86.68 clipbox
cl
0.298 0.447 0.690 setrgbcolor
fill
grestore
gsave
708.8 200.9 52.49 86.68 clipbox
118.63806 86.676684 m
128.08814 86.676684 l
128.08814 93.305871 l
118.63806 93.305871 l
cl
0.298 0.447 0.690 setrgbcolor
fill
grestore
gsave
708.8 200.9 52.49 86.68 clipbox
cl
0.298 0.447 0.690 setrgbcolor
fill
grestore
gsave
708.8 200.9 52.49 86.68 clipbox
cl
0.298 0.447 0.690 setrgbcolor
fill
grestore
gsave
708.8 200.9 52.49 86.68 clipbox
cl
0.298 0.447 0.690 setrgbcolor
fill
grestore
gsave
708.8 200.9 52.49 86.68 clipbox
cl
0.298 0.447 0.690 setrgbcolor
fill
grestore
gsave
708.8 200.9 52.49 86.68 clipbox
177.70106 86.676684 m
187.15114 86.676684 l
187.15114 186.31537 l
177.70106 186.31537 l
cl
0.298 0.447 0.690 setrgbcolor
fill
grestore
gsave
708.8 200.9 52.49 86.68 clipbox
cl
0.298 0.447 0.690 setrgbcolor
fill
grestore
gsave
708.8 200.9 52.49 86.68 clipbox
cl
0.298 0.447 0.690 setrgbcolor
fill
grestore
gsave
708.8 200.9 52.49 86.68 clipbox
cl
0.298 0.447 0.690 setrgbcolor
fill
grestore
gsave
708.8 200.9 52.49 86.68 clipbox
cl
0.298 0.447 0.690 setrgbcolor
fill
grestore
gsave
708.8 200.9 52.49 86.68 clipbox
236.76406 86.676684 m
246.21414 86.676684 l
246.21414 110.782818 l
236.76406 110.782818 l
cl
0.298 0.447 0.690 setrgbcolor
fill
grestore
gsave
708.8 200.9 52.49 86.68 clipbox
cl
0.298 0.447 0.690 setrgbcolor
fill
grestore
gsave
708.8 200.9 52.49 86.68 clipbox
cl
0.298 0.447 0.690 setrgbcolor
fill
grestore
gsave
708.8 200.9 52.49 86.68 clipbox
cl
0.298 0.447 0.690 setrgbcolor
fill
grestore
gsave
708.8 200.9 52.49 86.68 clipbox
cl
0.298 0.447 0.690 setrgbcolor
fill
grestore
gsave
708.8 200.9 52.49 86.68 clipbox
295.82706 86.676684 m
305.27714 86.676684 l
305.27714 99.734173 l
295.82706 99.734173 l
cl
0.298 0.447 0.690 setrgbcolor
fill
grestore
gsave
708.8 200.9 52.49 86.68 clipbox
cl
0.298 0.447 0.690 setrgbcolor
fill
grestore
gsave
708.8 200.9 52.49 86.68 clipbox
cl
0.298 0.447 0.690 setrgbcolor
fill
grestore
gsave
708.8 200.9 52.49 86.68 clipbox
cl
0.298 0.447 0.690 setrgbcolor
fill
grestore
gsave
708.8 200.9 52.49 86.68 clipbox
cl
0.298 0.447 0.690 setrgbcolor
fill
grestore
gsave
708.8 200.9 52.49 86.68 clipbox
354.89006 86.676684 m
364.34014 86.676684 l
364.34014 102.948324 l
354.89006 102.948324 l
cl
0.298 0.447 0.690 setrgbcolor
fill
grestore
gsave
708.8 200.9 52.49 86.68 clipbox
cl
0.298 0.447 0.690 setrgbcolor
fill
grestore
gsave
708.8 200.9 52.49 86.68 clipbox
cl
0.298 0.447 0.690 setrgbcolor
fill
grestore
gsave
708.8 200.9 52.49 86.68 clipbox
cl
0.298 0.447 0.690 setrgbcolor
fill
grestore
gsave
708.8 200.9 52.49 86.68 clipbox
cl
0.298 0.447 0.690 setrgbcolor
fill
grestore
gsave
708.8 200.9 52.49 86.68 clipbox
413.95306 86.676684 m
423.40314 86.676684 l
423.40314 105.559822 l
413.95306 105.559822 l
cl
0.298 0.447 0.690 setrgbcolor
fill
grestore
gsave
708.8 200.9 52.49 86.68 clipbox
cl
0.298 0.447 0.690 setrgbcolor
fill
grestore
gsave
708.8 200.9 52.49 86.68 clipbox
cl
0.298 0.447 0.690 setrgbcolor
fill
grestore
gsave
708.8 200.9 52.49 86.68 clipbox
cl
0.298 0.447 0.690 setrgbcolor
fill
grestore
gsave
708.8 200.9 52.49 86.68 clipbox
cl
0.298 0.447 0.690 setrgbcolor
fill
grestore
gsave
708.8 200.9 52.49 86.68 clipbox
473.01606 86.676684 m
482.46614 86.676684 l
482.46614 129.465071 l
473.01606 129.465071 l
cl
0.298 0.447 0.690 setrgbcolor
fill
grestore
gsave
708.8 200.9 52.49 86.68 clipbox
cl
0.298 0.447 0.690 setrgbcolor
fill
grestore
gsave
708.8 200.9 52.49 86.68 clipbox
cl
0.298 0.447 0.690 setrgbcolor
fill
grestore
gsave
708.8 200.9 52.49 86.68 clipbox
cl
0.298 0.447 0.690 setrgbcolor
fill
grestore
gsave
708.8 200.9 52.49 86.68 clipbox
cl
0.298 0.447 0.690 setrgbcolor
fill
grestore
gsave
708.8 200.9 52.49 86.68 clipbox
532.07906 86.676684 m
541.52914 86.676684 l
541.52914 94.511178 l
532.07906 94.511178 l
cl
0.298 0.447 0.690 setrgbcolor
fill
grestore
gsave
708.8 200.9 52.49 86.68 clipbox
cl
0.298 0.447 0.690 setrgbcolor
fill
grestore
gsave
708.8 200.9 52.49 86.68 clipbox
cl
0.298 0.447 0.690 setrgbcolor
fill
grestore
gsave
708.8 200.9 52.49 86.68 clipbox
cl
0.298 0.447 0.690 setrgbcolor
fill
grestore
gsave
708.8 200.9 52.49 86.68 clipbox
cl
0.298 0.447 0.690 setrgbcolor
fill
grestore
gsave
708.8 200.9 52.49 86.68 clipbox
591.14206 86.676684 m
600.59214 86.676684 l
600.59214 109.376627 l
591.14206 109.376627 l
cl
0.298 0.447 0.690 setrgbcolor
fill
grestore
gsave
708.8 200.9 52.49 86.68 clipbox
cl
0.298 0.447 0.690 setrgbcolor
fill
grestore
gsave
708.8 200.9 52.49 86.68 clipbox
cl
0.298 0.447 0.690 setrgbcolor
fill
grestore
gsave
708.8 200.9 52.49 86.68 clipbox
cl
0.298 0.447 0.690 setrgbcolor
fill
grestore
gsave
708.8 200.9 52.49 86.68 clipbox
cl
0.298 0.447 0.690 setrgbcolor
fill
grestore
gsave
708.8 200.9 52.49 86.68 clipbox
650.20506 86.676684 m
659.65514 86.676684 l
659.65514 243.366553 l
650.20506 243.366553 l
cl
0.298 0.447 0.690 setrgbcolor
fill
grestore
gsave
708.8 200.9 52.49 86.68 clipbox
cl
0.298 0.447 0.690 setrgbcolor
fill
grestore
gsave
708.8 200.9 52.49 86.68 clipbox
cl
0.298 0.447 0.690 setrgbcolor
fill
grestore
gsave
708.8 200.9 52.49 86.68 clipbox
cl
0.298 0.447 0.690 setrgbcolor
fill
grestore
gsave
708.8 200.9 52.49 86.68 clipbox
cl
0.298 0.447 0.690 setrgbcolor
fill
grestore
gsave
708.8 200.9 52.49 86.68 clipbox
709.26806 86.676684 m
718.71814 86.676684 l
718.71814 240.755055 l
709.26806 240.755055 l
cl
0.298 0.447 0.690 setrgbcolor
fill
grestore
gsave
708.8 200.9 52.49 86.68 clipbox
cl
0.298 0.447 0.690 setrgbcolor
fill
grestore
gsave
708.8 200.9 52.49 86.68 clipbox
cl
0.298 0.447 0.690 setrgbcolor
fill
grestore
gsave
708.8 200.9 52.49 86.68 clipbox
cl
0.298 0.447 0.690 setrgbcolor
fill
grestore
gsave
708.8 200.9 52.49 86.68 clipbox
cl
0.333 0.659 0.408 setrgbcolor
fill
grestore
gsave
708.8 200.9 52.49 86.68 clipbox
cl
0.333 0.659 0.408 setrgbcolor
fill
grestore
gsave
708.8 200.9 52.49 86.68 clipbox
71.38766 86.676684 m
80.83774 86.676684 l
80.83774 226.090491 l
71.38766 226.090491 l
cl
0.333 0.659 0.408 setrgbcolor
fill
grestore
gsave
708.8 200.9 52.49 86.68 clipbox
cl
0.333 0.659 0.408 setrgbcolor
fill
grestore
gsave
708.8 200.9 52.49 86.68 clipbox
cl
0.333 0.659 0.408 setrgbcolor
fill
grestore
gsave
708.8 200.9 52.49 86.68 clipbox
cl
0.333 0.659 0.408 setrgbcolor
fill
grestore
gsave
708.8 200.9 52.49 86.68 clipbox
cl
0.333 0.659 0.408 setrgbcolor
fill
grestore
gsave
708.8 200.9 52.49 86.68 clipbox
130.45066 86.676684 m
139.90074 86.676684 l
139.90074 158.995085 l
130.45066 158.995085 l
cl
0.333 0.659 0.408 setrgbcolor
fill
grestore
gsave
708.8 200.9 52.49 86.68 clipbox
cl
0.333 0.659 0.408 setrgbcolor
fill
grestore
gsave
708.8 200.9 52.49 86.68 clipbox
cl
0.333 0.659 0.408 setrgbcolor
fill
grestore
gsave
708.8 200.9 52.49 86.68 clipbox
cl
0.333 0.659 0.408 setrgbcolor
fill
grestore
gsave
708.8 200.9 52.49 86.68 clipbox
cl
0.333 0.659 0.408 setrgbcolor
fill
grestore
gsave
708.8 200.9 52.49 86.68 clipbox
189.51366 86.676684 m
198.96374 86.676684 l
198.96374 222.876339 l
189.51366 222.876339 l
cl
0.333 0.659 0.408 setrgbcolor
fill
grestore
gsave
708.8 200.9 52.49 86.68 clipbox
cl
0.333 0.659 0.408 setrgbcolor
fill
grestore
gsave
708.8 200.9 52.49 86.68 clipbox
cl
0.333 0.659 0.408 setrgbcolor
fill
grestore
gsave
708.8 200.9 52.49 86.68 clipbox
cl
0.333 0.659 0.408 setrgbcolor
fill
grestore
gsave
708.8 200.9 52.49 86.68 clipbox
cl
0.333 0.659 0.408 setrgbcolor
fill
grestore
gsave
708.8 200.9 52.49 86.68 clipbox
248.57666 86.676684 m
258.02674 86.676684 l
258.02674 251.201047 l
248.57666 251.201047 l
cl
0.333 0.659 0.408 setrgbcolor
fill
grestore
gsave
708.8 200.9 52.49 86.68 clipbox
cl
0.333 0.659 0.408 setrgbcolor
fill
grestore
gsave
708.8 200.9 52.49 86.68 clipbox
cl
0.333 0.659 0.408 setrgbcolor
fill
grestore
gsave
708.8 200.9 52.49 86.68 clipbox
cl
0.333 0.659 0.408 setrgbcolor
fill
grestore
gsave
708.8 200.9 52.49 86.68 clipbox
cl
0.333 0.659 0.408 setrgbcolor
fill
grestore
gsave
708.8 200.9 52.49 86.68 clipbox
307.63966 86.676684 m
317.08974 86.676684 l
317.08974 190.935712 l
307.63966 190.935712 l
cl
0.333 0.659 0.408 setrgbcolor
fill
grestore
gsave
708.8 200.9 52.49 86.68 clipbox
cl
0.333 0.659 0.408 setrgbcolor
fill
grestore
gsave
708.8 200.9 52.49 86.68 clipbox
cl
0.333 0.659 0.408 setrgbcolor
fill
grestore
gsave
708.8 200.9 52.49 86.68 clipbox
cl
0.333 0.659 0.408 setrgbcolor
fill
grestore
gsave
708.8 200.9 52.49 86.68 clipbox
cl
0.333 0.659 0.408 setrgbcolor
fill
grestore
gsave
708.8 200.9 52.49 86.68 clipbox
366.70266 86.676684 m
376.15274 86.676684 l
376.15274 248.18778 l
366.70266 248.18778 l
cl
0.333 0.659 0.408 setrgbcolor
fill
grestore
gsave
708.8 200.9 52.49 86.68 clipbox
cl
0.333 0.659 0.408 setrgbcolor
fill
grestore
gsave
708.8 200.9 52.49 86.68 clipbox
cl
0.333 0.659 0.408 setrgbcolor
fill
grestore
gsave
708.8 200.9 52.49 86.68 clipbox
cl
0.333 0.659 0.408 setrgbcolor
fill
grestore
gsave
708.8 200.9 52.49 86.68 clipbox
cl
0.333 0.659 0.408 setrgbcolor
fill
grestore
gsave
708.8 200.9 52.49 86.68 clipbox
425.76566 86.676684 m
435.21574 86.676684 l
435.21574 216.046268 l
425.76566 216.046268 l
cl
0.333 0.659 0.408 setrgbcolor
fill
grestore
gsave
708.8 200.9 52.49 86.68 clipbox
cl
0.333 0.659 0.408 setrgbcolor
fill
grestore
gsave
708.8 200.9 52.49 86.68 clipbox
cl
0.333 0.659 0.408 setrgbcolor
fill
grestore
gsave
708.8 200.9 52.49 86.68 clipbox
cl
0.333 0.659 0.408 setrgbcolor
fill
grestore
gsave
708.8 200.9 52.49 86.68 clipbox
cl
0.333 0.659 0.408 setrgbcolor
fill
grestore
gsave
708.8 200.9 52.49 86.68 clipbox
484.82866 86.676684 m
494.27874 86.676684 l
494.27874 163.816312 l
484.82866 163.816312 l
cl
0.333 0.659 0.408 setrgbcolor
fill
grestore
gsave
708.8 200.9 52.49 86.68 clipbox
cl
0.333 0.659 0.408 setrgbcolor
fill
grestore
gsave
708.8 200.9 52.49 86.68 clipbox
cl
0.333 0.659 0.408 setrgbcolor
fill
grestore
gsave
708.8 200.9 52.49 86.68 clipbox
cl
0.333 0.659 0.408 setrgbcolor
fill
grestore
gsave
708.8 200.9 52.49 86.68 clipbox
cl
0.333 0.659 0.408 setrgbcolor
fill
grestore
gsave
708.8 200.9 52.49 86.68 clipbox
543.89166 86.676684 m
553.34174 86.676684 l
553.34174 191.73925 l
543.89166 191.73925 l
cl
0.333 0.659 0.408 setrgbcolor
fill
grestore
gsave
708.8 200.9 52.49 86.68 clipbox
cl
0.333 0.659 0.408 setrgbcolor
fill
grestore
gsave
708.8 200.9 52.49 86.68 clipbox
cl
0.333 0.659 0.408 setrgbcolor
fill
grestore
gsave
708.8 200.9 52.49 86.68 clipbox
cl
0.333 0.659 0.408 setrgbcolor
fill
grestore
gsave
708.8 200.9 52.49 86.68 clipbox
cl
0.333 0.659 0.408 setrgbcolor
fill
grestore
gsave
708.8 200.9 52.49 86.68 clipbox
602.95466 86.676684 m
612.40474 86.676684 l
612.40474 259.638193 l
602.95466 259.638193 l
cl
0.333 0.659 0.408 setrgbcolor
fill
grestore
gsave
708.8 200.9 52.49 86.68 clipbox
cl
0.333 0.659 0.408 setrgbcolor
fill
grestore
gsave
708.8 200.9 52.49 86.68 clipbox
cl
0.333 0.659 0.408 setrgbcolor
fill
grestore
gsave
708.8 200.9 52.49 86.68 clipbox
cl
0.333 0.659 0.408 setrgbcolor
fill
grestore
gsave
708.8 200.9 52.49 86.68 clipbox
cl
0.333 0.659 0.408 setrgbcolor
fill
grestore
gsave
708.8 200.9 52.49 86.68 clipbox
662.01766 86.676684 m
671.46774 86.676684 l
671.46774 269.079762 l
662.01766 269.079762 l
cl
0.333 0.659 0.408 setrgbcolor
fill
grestore
gsave
708.8 200.9 52.49 86.68 clipbox
cl
0.333 0.659 0.408 setrgbcolor
fill
grestore
gsave
708.8 200.9 52.49 86.68 clipbox
cl
0.333 0.659 0.408 setrgbcolor
fill
grestore
gsave
708.8 200.9 52.49 86.68 clipbox
cl
0.333 0.659 0.408 setrgbcolor
fill
grestore
gsave
708.8 200.9 52.49 86.68 clipbox
cl
0.333 0.659 0.408 setrgbcolor
fill
grestore
gsave
708.8 200.9 52.49 86.68 clipbox
721.08066 86.676684 m
730.53074 86.676684 l
730.53074 277.516909 l
721.08066 277.516909 l
cl
0.333 0.659 0.408 setrgbcolor
fill
grestore
gsave
708.8 200.9 52.49 86.68 clipbox
cl
0.333 0.659 0.408 setrgbcolor
fill
grestore
gsave
708.8 200.9 52.49 86.68 clipbox
cl
0.333 0.659 0.408 setrgbcolor
fill
grestore
gsave
708.8 200.9 52.49 86.68 clipbox
cl
0.769 0.306 0.322 setrgbcolor
fill
grestore
gsave
708.8 200.9 52.49 86.68 clipbox
cl
0.769 0.306 0.322 setrgbcolor
fill
grestore
gsave
708.8 200.9 52.49 86.68 clipbox
cl
0.769 0.306 0.322 setrgbcolor
fill
grestore
gsave
708.8 200.9 52.49 86.68 clipbox
83.20026 86.676684 m
92.65034 86.676684 l
92.65034 232.518793 l
83.20026 232.518793 l
cl
0.769 0.306 0.322 setrgbcolor
fill
grestore
gsave
708.8 200.9 52.49 86.68 clipbox
cl
0.769 0.306 0.322 setrgbcolor
fill
grestore
gsave
708.8 200.9 52.49 86.68 clipbox
cl
0.769 0.306 0.322 setrgbcolor
fill
grestore
gsave
708.8 200.9 52.49 86.68 clipbox
cl
0.769 0.306 0.322 setrgbcolor
fill
grestore
gsave
708.8 200.9 52.49 86.68 clipbox
cl
0.769 0.306 0.322 setrgbcolor
fill
grestore
gsave
708.8 200.9 52.49 86.68 clipbox
142.26326 86.676684 m
151.71334 86.676684 l
151.71334 197.564899 l
142.26326 197.564899 l
cl
0.769 0.306 0.322 setrgbcolor
fill
grestore
gsave
708.8 200.9 52.49 86.68 clipbox
cl
0.769 0.306 0.322 setrgbcolor
fill
grestore
gsave
708.8 200.9 52.49 86.68 clipbox
cl
0.769 0.306 0.322 setrgbcolor
fill
grestore
gsave
708.8 200.9 52.49 86.68 clipbox
cl
0.769 0.306 0.322 setrgbcolor
fill
grestore
gsave
708.8 200.9 52.49 86.68 clipbox
cl
0.769 0.306 0.322 setrgbcolor
fill
grestore
gsave
708.8 200.9 52.49 86.68 clipbox
201.32626 86.676684 m
210.77634 86.676684 l
210.77634 223.679877 l
201.32626 223.679877 l
cl
0.769 0.306 0.322 setrgbcolor
fill
grestore
gsave
708.8 200.9 52.49 86.68 clipbox
cl
0.769 0.306 0.322 setrgbcolor
fill
grestore
gsave
708.8 200.9 52.49 86.68 clipbox
cl
0.769 0.306 0.322 setrgbcolor
fill
grestore
gsave
708.8 200.9 52.49 86.68 clipbox
cl
0.769 0.306 0.322 setrgbcolor
fill
grestore
gsave
708.8 200.9 52.49 86.68 clipbox
cl
0.769 0.306 0.322 setrgbcolor
fill
grestore
gsave
708.8 200.9 52.49 86.68 clipbox
260.38926 86.676684 m
269.83934 86.676684 l
269.83934 239.348864 l
260.38926 239.348864 l
cl
0.769 0.306 0.322 setrgbcolor
fill
grestore
gsave
708.8 200.9 52.49 86.68 clipbox
cl
0.769 0.306 0.322 setrgbcolor
fill
grestore
gsave
708.8 200.9 52.49 86.68 clipbox
cl
0.769 0.306 0.322 setrgbcolor
fill
grestore
gsave
708.8 200.9 52.49 86.68 clipbox
cl
0.769 0.306 0.322 setrgbcolor
fill
grestore
gsave
708.8 200.9 52.49 86.68 clipbox
cl
0.769 0.306 0.322 setrgbcolor
fill
grestore
gsave
708.8 200.9 52.49 86.68 clipbox
319.45226 86.676684 m
328.90234 86.676684 l
328.90234 166.026041 l
319.45226 166.026041 l
cl
0.769 0.306 0.322 setrgbcolor
fill
grestore
gsave
708.8 200.9 52.49 86.68 clipbox
cl
0.769 0.306 0.322 setrgbcolor
fill
grestore
gsave
708.8 200.9 52.49 86.68 clipbox
cl
0.769 0.306 0.322 setrgbcolor
fill
grestore
gsave
708.8 200.9 52.49 86.68 clipbox
cl
0.769 0.306 0.322 setrgbcolor
fill
grestore
gsave
708.8 200.9 52.49 86.68 clipbox
cl
0.769 0.306 0.322 setrgbcolor
fill
grestore
gsave
708.8 200.9 52.49 86.68 clipbox
378.51526 86.676684 m
387.96534 86.676684 l
387.96534 247.384242 l
378.51526 247.384242 l
cl
0.769 0.306 0.322 setrgbcolor
fill
grestore
gsave
708.8 200.9 52.49 86.68 clipbox
cl
0.769 0.306 0.322 setrgbcolor
fill
grestore
gsave
708.8 200.9 52.49 86.68 clipbox
cl
0.769 0.306 0.322 setrgbcolor
fill
grestore
gsave
708.8 200.9 52.49 86.68 clipbox
cl
0.769 0.306 0.322 setrgbcolor
fill
grestore
gsave
708.8 200.9 52.49 86.68 clipbox
cl
0.769 0.306 0.322 setrgbcolor
fill
grestore
gsave
708.8 200.9 52.49 86.68 clipbox
437.57826 86.676684 m
447.02834 86.676684 l
447.02834 205.198508 l
437.57826 205.198508 l
cl
0.769 0.306 0.322 setrgbcolor
fill
grestore
gsave
708.8 200.9 52.49 86.68 clipbox
cl
0.769 0.306 0.322 setrgbcolor
fill
grestore
gsave
708.8 200.9 52.49 86.68 clipbox
cl
0.769 0.306 0.322 setrgbcolor
fill
grestore
gsave
708.8 200.9 52.49 86.68 clipbox
cl
0.769 0.306 0.322 setrgbcolor
fill
grestore
gsave
708.8 200.9 52.49 86.68 clipbox
cl
0.769 0.306 0.322 setrgbcolor
fill
grestore
gsave
708.8 200.9 52.49 86.68 clipbox
496.64126 86.676684 m
506.09134 86.676684 l
506.09134 164.218081 l
496.64126 164.218081 l
cl
0.769 0.306 0.322 setrgbcolor
fill
grestore
gsave
708.8 200.9 52.49 86.68 clipbox
cl
0.769 0.306 0.322 setrgbcolor
fill
grestore
gsave
708.8 200.9 52.49 86.68 clipbox
cl
0.769 0.306 0.322 setrgbcolor
fill
grestore
gsave
708.8 200.9 52.49 86.68 clipbox
cl
0.769 0.306 0.322 setrgbcolor
fill
grestore
gsave
708.8 200.9 52.49 86.68 clipbox
cl
0.769 0.306 0.322 setrgbcolor
fill
grestore
gsave
708.8 200.9 52.49 86.68 clipbox
555.70426 86.676684 m
565.15434 86.676684 l
565.15434 201.180819 l
555.70426 201.180819 l
cl
0.769 0.306 0.322 setrgbcolor
fill
grestore
gsave
708.8 200.9 52.49 86.68 clipbox
cl
0.769 0.306 0.322 setrgbcolor
fill
grestore
gsave
708.8 200.9 52.49 86.68 clipbox
cl
0.769 0.306 0.322 setrgbcolor
fill
grestore
gsave
708.8 200.9 52.49 86.68 clipbox
cl
0.769 0.306 0.322 setrgbcolor
fill
grestore
gsave
708.8 200.9 52.49 86.68 clipbox
cl
0.769 0.306 0.322 setrgbcolor
fill
grestore
gsave
708.8 200.9 52.49 86.68 clipbox
614.76726 86.676684 m
624.21734 86.676684 l
624.21734 260.441731 l
614.76726 260.441731 l
cl
0.769 0.306 0.322 setrgbcolor
fill
grestore
gsave
708.8 200.9 52.49 86.68 clipbox
cl
0.769 0.306 0.322 setrgbcolor
fill
grestore
gsave
708.8 200.9 52.49 86.68 clipbox
cl
0.769 0.306 0.322 setrgbcolor
fill
grestore
gsave
708.8 200.9 52.49 86.68 clipbox
cl
0.769 0.306 0.322 setrgbcolor
fill
grestore
gsave
708.8 200.9 52.49 86.68 clipbox
cl
0.769 0.306 0.322 setrgbcolor
fill
grestore
gsave
708.8 200.9 52.49 86.68 clipbox
673.83026 86.676684 m
683.28034 86.676684 l
683.28034 250.598393 l
673.83026 250.598393 l
cl
0.769 0.306 0.322 setrgbcolor
fill
grestore
gsave
708.8 200.9 52.49 86.68 clipbox
cl
0.769 0.306 0.322 setrgbcolor
fill
grestore
gsave
708.8 200.9 52.49 86.68 clipbox
cl
0.769 0.306 0.322 setrgbcolor
fill
grestore
gsave
708.8 200.9 52.49 86.68 clipbox
cl
0.769 0.306 0.322 setrgbcolor
fill
grestore
gsave
708.8 200.9 52.49 86.68 clipbox
cl
0.769 0.306 0.322 setrgbcolor
fill
grestore
gsave
708.8 200.9 52.49 86.68 clipbox
732.89326 86.676684 m
742.34334 86.676684 l
742.34334 274.302758 l
732.89326 274.302758 l
cl
0.769 0.306 0.322 setrgbcolor
fill
grestore
gsave
708.8 200.9 52.49 86.68 clipbox
cl
0.769 0.306 0.322 setrgbcolor
fill
grestore
1.000 setlinewidth
0 setlinejoin
2 setlinecap
[] 0 setdash
0.800 setgray
gsave
52.4875 86.676684 m
52.4875 287.561132 l
stroke
grestore
gsave
761.2435 86.676684 m
761.2435 287.561132 l
stroke
grestore
gsave
52.4875 86.676684 m
761.2435 86.676684 l
stroke
grestore
gsave
52.4875 287.561132 m
761.2435 287.561132 l
stroke
grestore
0.150 setgray
/DejaVuSans-Bold findfont
20.000 scalefont
setfont
gsave
27.771750 293.561132 translate
0.000000 rotate
0.000000 0.000000 m /B glyphshow
15.244141 0.000000 m /o glyphshow
28.984375 0.000000 m /u glyphshow
43.222656 0.000000 m /n glyphshow
57.460938 0.000000 m /d glyphshow
71.777344 0.000000 m /e glyphshow
85.341797 0.000000 m /d glyphshow
99.658203 0.000000 m /space glyphshow
106.621094 0.000000 m /b glyphshow
120.937500 0.000000 m /y glyphshow
133.974609 0.000000 m /space glyphshow
140.937500 0.000000 m /M glyphshow
160.839844 0.000000 m /e glyphshow
174.404297 0.000000 m /m glyphshow
195.244141 0.000000 m /o glyphshow
208.984375 0.000000 m /r glyphshow
218.847656 0.000000 m /y glyphshow
231.884766 0.000000 m /parenleft glyphshow
241.025391 0.000000 m /X glyphshow
256.445312 0.000000 m /e glyphshow
270.009766 0.000000 m /o glyphshow
283.750000 0.000000 m /n glyphshow
297.988281 0.000000 m /equal glyphshow
314.746094 0.000000 m /b glyphshow
329.062500 0.000000 m /l glyphshow
335.917969 0.000000 m /u glyphshow
350.156250 0.000000 m /e glyphshow
363.720703 0.000000 m /parenright glyphshow
372.861328 0.000000 m /space glyphshow
379.824219 0.000000 m /slash glyphshow
387.128906 0.000000 m /space glyphshow
394.091797 0.000000 m /B glyphshow
409.335938 0.000000 m /a glyphshow
422.832031 0.000000 m /c glyphshow
434.687500 0.000000 m /k glyphshow
447.988281 0.000000 m /hyphen glyphshow
456.289062 0.000000 m /e glyphshow
469.853516 0.000000 m /n glyphshow
484.091797 0.000000 m /d glyphshow
498.408203 0.000000 m /parenleft glyphshow
507.548828 0.000000 m /K glyphshow
523.046875 0.000000 m /N glyphshow
539.785156 0.000000 m /L glyphshow
552.529297 0.000000 m /equal glyphshow
569.287109 0.000000 m /g glyphshow
583.603516 0.000000 m /r glyphshow
593.466797 0.000000 m /e glyphshow
607.031250 0.000000 m /e glyphshow
620.595703 0.000000 m /n glyphshow
634.833984 0.000000 m /comma glyphshow
642.431641 0.000000 m /K glyphshow
657.929688 0.000000 m /N glyphshow
674.667969 0.000000 m /M glyphshow
694.570312 0.000000 m /equal glyphshow
711.328125 0.000000 m /r glyphshow
721.191406 0.000000 m /e glyphshow
734.755859 0.000000 m /d glyphshow
749.072266 0.000000 m /parenright glyphshow
grestore
gsave
772.0435 201.431408 m
796.0435 201.431408 l
796.0435 209.831408 l
772.0435 209.831408 l
cl
0.298 0.447 0.690 setrgbcolor
fill
grestore
/DejaVuSans findfont
12.000 scalefont
setfont
gsave
805.643500 201.431408 translate
0.000000 rotate
0.000000 0.000000 m /I glyphshow
3.539062 0.000000 m /N glyphshow
12.515625 0.000000 m /T glyphshow
grestore
gsave
772.0435 183.806408 m
796.0435 183.806408 l
796.0435 192.206408 l
772.0435 192.206408 l
cl
0.333 0.659 0.408 setrgbcolor
fill
grestore
gsave
805.643500 183.806408 translate
0.000000 rotate
0.000000 0.000000 m /F glyphshow
6.902344 0.000000 m /P glyphshow
14.138672 0.000000 m /three glyphshow
21.773438 0.000000 m /two glyphshow
grestore
gsave
772.0435 166.181408 m
796.0435 166.181408 l
796.0435 174.581408 l
772.0435 174.581408 l
cl
0.769 0.306 0.322 setrgbcolor
fill
grestore
gsave
805.643500 166.181408 translate
0.000000 rotate
0.000000 0.000000 m /F glyphshow
6.902344 0.000000 m /P glyphshow
14.138672 0.000000 m /six glyphshow
21.773438 0.000000 m /four glyphshow
grestore

end
showpage
